[gd_scene load_steps=5 format=2]

[ext_resource path="res://fonts/Computer Speak v0.3.ttf" type="DynamicFontData" id=1]
[ext_resource path="res://scenes/pickups/keycard/KeyCardViewer.tscn" type="PackedScene" id=2]

[sub_resource type="GDScript" id=1]

script/source = "extends Node2D

var viewport : Viewport
var viewport_sprite : Sprite

func _ready():
	viewport = get_node(\"Viewport\")
	viewport_sprite = get_node(\"Viewport_Sprite\")

	# Assign the sprite's texture to the viewport texture
	viewport.set_clear_mode(Viewport.CLEAR_MODE_ONLY_NEXT_FRAME)
	
	# Let two frames pass to make sure the screen was captured
	yield(get_tree(), \"idle_frame\")	
	yield(get_tree(), \"idle_frame\")
	viewport_sprite.texture = viewport.get_texture()
	
	set_process(false)

func set_text(t, size):
	$ColorRect/RichTextLabel.bbcode_text = \"[center]\" + t + \"[/center]\"
	$ColorRect/RichTextLabel.get_font(\"normal_font\").size = size

func set_bg(color, keycard):
	if keycard:
		$Viewport_Sprite.visible = true
	else:
		$Viewport_Sprite.visible = false
	
	if color is Color:
		$ColorRect.color = color



"

[sub_resource type="DynamicFont" id=2]

size = 70
outline_size = 0
outline_color = Color( 1, 1, 1, 1 )
use_mipmaps = false
use_filter = false
font_data = ExtResource( 1 )
_sections_unfolded = [ "Font", "Settings" ]

[node name="Level1MainScreen" type="Node2D"]
position = Vector2( 640, 403.917 )
script = SubResource( 1 )
_sections_unfolded = [ "Transform" ]

[node name="ColorRect" type="ColorRect" parent="."]
anchor_left = 0.0
anchor_top = 0.0
anchor_right = 1.0
anchor_bottom = 1.0
margin_left = -640.0
margin_top = -403.0
margin_right = 240.0
margin_bottom = 320.0
rect_pivot_offset = Vector2( 0, 0 )
rect_clip_content = false
mouse_filter = 0
mouse_default_cursor_shape = 0
size_flags_horizontal = 1
size_flags_vertical = 1
color = Color( 0.00784314, 0, 0.886275, 1 )
_sections_unfolded = [ "Anchor", "Grow Direction", "Margin", "Rect" ]

[node name="RichTextLabel" type="RichTextLabel" parent="ColorRect"]
anchor_left = 0.0
anchor_top = 0.0
anchor_right = 1.0
anchor_bottom = 1.0
margin_top = 25.0
margin_bottom = -25.0
rect_pivot_offset = Vector2( 0, 0 )
rect_clip_content = true
mouse_filter = 0
mouse_default_cursor_shape = 0
size_flags_horizontal = 1
size_flags_vertical = 1
custom_fonts/normal_font = SubResource( 2 )
bbcode_enabled = true
bbcode_text = "[center]insert keycard 
to continue[/center]"
visible_characters = -1
percent_visible = 1.0
meta_underlined = true
tab_size = 4
text = "insert keycard 
to continue"
scroll_active = true
scroll_following = false
selection_enabled = false
override_selected_font_color = false
_sections_unfolded = [ "Anchor", "BBCode", "Margin", "custom_fonts", "custom_fonts/font", "custom_fonts/normal_font" ]

[node name="Viewport" type="Viewport" parent="."]
arvr = false
size = Vector2( 880, 720 )
own_world = true
world = null
transparent_bg = true
msaa = 0
hdr = true
disable_3d = false
keep_3d_linear = false
usage = 2
debug_draw = 0
render_target_v_flip = true
render_target_clear_mode = 0
render_target_update_mode = 2
audio_listener_enable_2d = false
audio_listener_enable_3d = false
physics_object_picking = false
gui_disable_input = false
gui_snap_controls_to_pixels = true
shadow_atlas_size = 0
shadow_atlas_quad_0 = 2
shadow_atlas_quad_1 = 2
shadow_atlas_quad_2 = 3
shadow_atlas_quad_3 = 4
_sections_unfolded = [ "Audio Listener", "GUI", "Physics", "Render Target", "Rendering", "Shadow Atlas" ]

[node name="KeyCardViewer" parent="Viewport" instance=ExtResource( 2 )]

[node name="Viewport_Sprite" type="Sprite" parent="."]
position = Vector2( -200, 36.0829 )

