[gd_scene load_steps=54 format=2]

[ext_resource path="res://scenes/level1/level1.gd" type="Script" id=1]
[ext_resource path="res://materials/Metal.material" type="Material" id=2]
[ext_resource path="res://sound/environment/31154__uataudio__hugeslidingdoorslamecm800.wav" type="AudioStream" id=3]
[ext_resource path="res://scripts/OmniLightJudder.gd" type="Script" id=4]
[ext_resource path="res://scenes/level1/level1.gltf" type="PackedScene" id=5]
[ext_resource path="res://materials/snowParticles.material" type="Material" id=6]
[ext_resource path="res://textures/snowdrift.png" type="Texture" id=7]
[ext_resource path="res://scenes/level1/puzzle.gd" type="Script" id=8]
[ext_resource path="res://scenes/level1/level1/brown_planks_03.material" type="Material" id=9]
[ext_resource path="res://sound/environment/high-wind01-loop.wav" type="AudioStream" id=10]
[ext_resource path="res://scripts/wind.gd" type="Script" id=11]
[ext_resource path="res://scenes/pickups/keycard/keycard.tscn" type="PackedScene" id=12]
[ext_resource path="res://scenes/ColoredLightBulb/ColoredLightBulb.tscn" type="PackedScene" id=13]
[ext_resource path="res://scenes/level1/Level1MainScreen.tscn" type="PackedScene" id=14]
[ext_resource path="res://scenes/IconPuzzle/IconDisplay.tscn" type="PackedScene" id=15]
[ext_resource path="res://scenes/DontFallArea/DontFallArea.tscn" type="PackedScene" id=16]

[sub_resource type="Animation" id=1]

resource_name = "CompletePuzzle"
length = 3.0
loop = false
step = 0.25
tracks/0/type = "method"
tracks/0/path = NodePath("ScreenLevel2A/ColoredLight")
tracks/0/interp = 1
tracks/0/loop_wrap = true
tracks/0/imported = false
tracks/0/enabled = true
tracks/0/keys = {
"times": PoolRealArray( 0.5, 0.75, 1, 1.25, 1.5 ),
"transitions": PoolRealArray( 1, 1, 1, 1, 1 ),
"values": [ {
"args": [  ],
"method": "turn_on"
}, {
"args": [  ],
"method": "turn_off"
}, {
"args": [ Color( 0.00392157, 1, 0, 1 ) ],
"method": "set_color"
}, {
"args": [  ],
"method": "turn_off"
}, {
"args": [  ],
"method": "turn_on"
} ]
}
tracks/1/type = "method"
tracks/1/path = NodePath("ScreenLevel2B/ColoredLight2")
tracks/1/interp = 1
tracks/1/loop_wrap = true
tracks/1/imported = false
tracks/1/enabled = true
tracks/1/keys = {
"times": PoolRealArray( 0.5, 0.501, 0.75, 1, 1.25, 1.5 ),
"transitions": PoolRealArray( 1, 1, 1, 1, 1, 1 ),
"values": [ {
"args": [ Color( 0, 1, 0, 1 ) ],
"method": "set_color"
}, {
"args": [  ],
"method": "turn_on"
}, {
"args": [  ],
"method": "turn_off"
}, {
"args": [  ],
"method": "turn_on"
}, {
"args": [  ],
"method": "turn_off"
}, {
"args": [  ],
"method": "turn_on"
} ]
}
tracks/2/type = "method"
tracks/2/path = NodePath("ScreenLevel2C/ColoredLight3")
tracks/2/interp = 1
tracks/2/loop_wrap = true
tracks/2/imported = false
tracks/2/enabled = true
tracks/2/keys = {
"times": PoolRealArray( 0.5, 0.501, 0.75, 1, 1.25, 1.5 ),
"transitions": PoolRealArray( 1, 1, 1, 1, 1, 1 ),
"values": [ {
"args": [ Color( 0, 1, 0, 1 ) ],
"method": "set_color"
}, {
"args": [  ],
"method": "turn_on"
}, {
"args": [  ],
"method": "turn_off"
}, {
"args": [  ],
"method": "turn_on"
}, {
"args": [  ],
"method": "turn_off"
}, {
"args": [  ],
"method": "turn_on"
} ]
}

[sub_resource type="Animation" id=2]

resource_name = "FailedPuzzle"
length = 3.0
loop = false
step = 0.25
tracks/0/type = "method"
tracks/0/path = NodePath("ScreenLevel2A/ColoredLight")
tracks/0/interp = 1
tracks/0/loop_wrap = true
tracks/0/imported = false
tracks/0/enabled = true
tracks/0/keys = {
"times": PoolRealArray( 0.5, 0.75, 1, 1.25, 1.5, 1.75 ),
"transitions": PoolRealArray( 1, 1, 1, 1, 1, 1 ),
"values": [ {
"args": [  ],
"method": "turn_on"
}, {
"args": [  ],
"method": "turn_off"
}, {
"args": [  ],
"method": "turn_on"
}, {
"args": [  ],
"method": "turn_off"
}, {
"args": [  ],
"method": "turn_on"
}, {
"args": [  ],
"method": "turn_off"
} ]
}
tracks/1/type = "method"
tracks/1/path = NodePath("ScreenLevel2B/ColoredLight2")
tracks/1/interp = 1
tracks/1/loop_wrap = true
tracks/1/imported = false
tracks/1/enabled = true
tracks/1/keys = {
"times": PoolRealArray( 0.5, 0.75, 1, 1.25, 1.5, 1.75 ),
"transitions": PoolRealArray( 1, 1, 1, 1, 1, 1 ),
"values": [ {
"args": [ Color( 1, 0, 0, 1 ) ],
"method": "set_color"
}, {
"args": [  ],
"method": "turn_off"
}, {
"args": [  ],
"method": "turn_on"
}, {
"args": [  ],
"method": "turn_off"
}, {
"args": [  ],
"method": "turn_on"
}, {
"args": [  ],
"method": "turn_off"
} ]
}
tracks/2/type = "method"
tracks/2/path = NodePath("ScreenLevel2C/ColoredLight3")
tracks/2/interp = 1
tracks/2/loop_wrap = true
tracks/2/imported = false
tracks/2/enabled = true
tracks/2/keys = {
"times": PoolRealArray( 0.5, 0.75, 1, 1.25, 1.5, 1.75 ),
"transitions": PoolRealArray( 1, 1, 1, 1, 1, 1 ),
"values": [ {
"args": [ Color( 1, 0, 0, 1 ) ],
"method": "set_color"
}, {
"args": [  ],
"method": "turn_off"
}, {
"args": [  ],
"method": "turn_on"
}, {
"args": [  ],
"method": "turn_off"
}, {
"args": [  ],
"method": "turn_on"
}, {
"args": [  ],
"method": "turn_off"
} ]
}

[sub_resource type="Animation" id=3]

length = 7.7
loop = false
step = 0.01
tracks/0/type = "value"
tracks/0/path = NodePath("VaultDoor:translation")
tracks/0/interp = 1
tracks/0/loop_wrap = true
tracks/0/imported = false
tracks/0/enabled = true
tracks/0/keys = {
"times": PoolRealArray( 0, 1.26, 2.32, 4.68 ),
"transitions": PoolRealArray( 1, 1, 1, 1 ),
"update": 0,
"values": [ Vector3( -2.5, 0.399749, -3 ), Vector3( -2.5, 0.399749, -3 ), Vector3( -2.5, -0.475396, -3 ), Vector3( -2.5, -2.8, -3 ) ]
}
tracks/1/type = "value"
tracks/1/path = NodePath("VaultDoor/AudioStreamPlayer3D:playing")
tracks/1/interp = 1
tracks/1/loop_wrap = true
tracks/1/imported = false
tracks/1/enabled = true
tracks/1/keys = {
"times": PoolRealArray( 0 ),
"transitions": PoolRealArray( 1 ),
"update": 1,
"values": [ true ]
}

[sub_resource type="ArrayMesh" id=4]

blend_shape_mode = 1
custom_aabb = AABB( 0, 0, 0, 0, 0, 0 )
surfaces/0 = {
"aabb": AABB( -1, 0.000250638, -8.9407e-008, 2, 3.15147, 0.20001 ),
"array_data": PoolByteArray( 41, 15, 76, 63, 224, 130, 51, 64, 202, 204, 76, 62, 130, 248, 0, 0, 205, 204, 76, 63, 36, 146, 42, 64, 197, 204, 204, 61, 130, 255, 0, 0, 205, 204, 76, 63, 36, 146, 42, 64, 202, 204, 76, 62, 130, 255, 0, 0, 41, 15, 76, 63, 224, 130, 51, 64, 197, 204, 204, 61, 130, 248, 0, 0, 76, 178, 70, 191, 17, 123, 56, 64, 202, 204, 76, 62, 0, 0, 127, 0, 1, 0, 120, 191, 10, 233, 60, 64, 202, 204, 76, 62, 0, 0, 127, 0, 183, 220, 73, 191, 230, 54, 55, 64, 202, 204, 76, 62, 0, 0, 127, 0, 1, 0, 112, 191, 61, 28, 64, 64, 202, 204, 76, 62, 0, 0, 127, 0, 207, 77, 65, 191, 73, 9, 58, 64, 202, 204, 76, 62, 0, 0, 127, 0, 155, 153, 101, 191, 61, 28, 67, 64, 202, 204, 76, 62, 0, 0, 127, 0, 235, 20, 59, 191, 105, 98, 59, 64, 202, 204, 76, 62, 0, 0, 126, 0, 155, 153, 89, 191, 214, 181, 69, 64, 202, 204, 76, 62, 0, 0, 127, 0, 59, 4, 54, 191, 5, 45, 60, 64, 202, 204, 76, 62, 0, 0, 127, 0, 206, 204, 76, 191, 215, 181, 71, 64, 202, 204, 76, 62, 0, 0, 127, 0, 1, 0, 120, 63, 10, 233, 60, 64, 202, 204, 76, 62, 0, 0, 127, 0, 76, 178, 70, 63, 17, 123, 56, 64, 202, 204, 76, 62, 0, 0, 127, 0, 183, 220, 73, 63, 230, 54, 55, 64, 202, 204, 76, 62, 0, 0, 127, 0, 1, 0, 112, 63, 61, 28, 64, 64, 202, 204, 76, 62, 0, 0, 127, 0, 207, 77, 65, 63, 73, 9, 58, 64, 202, 204, 76, 62, 0, 0, 127, 0, 155, 153, 101, 63, 61, 28, 67, 64, 202, 204, 76, 62, 0, 0, 127, 0, 235, 20, 59, 63, 105, 98, 59, 64, 202, 204, 76, 62, 0, 0, 126, 0, 155, 153, 89, 63, 214, 181, 69, 64, 202, 204, 76, 62, 0, 0, 127, 0, 59, 4, 54, 63, 5, 45, 60, 64, 202, 204, 76, 62, 0, 0, 127, 0, 206, 204, 76, 63, 215, 181, 71, 64, 202, 204, 76, 62, 0, 0, 127, 0, 16, 147, 21, 191, 10, 233, 60, 64, 202, 204, 76, 62, 0, 0, 127, 0, 53, 51, 47, 191, 164, 130, 73, 64, 202, 204, 76, 62, 0, 0, 126, 0, 168, 189, 42, 191, 88, 189, 60, 64, 202, 204, 76, 62, 0, 0, 127, 0, 105, 102, 22, 191, 215, 181, 73, 64, 202, 204, 76, 62, 0, 0, 127, 0, 2, 0, 64, 191, 10, 233, 72, 64, 202, 204, 76, 62, 0, 0, 127, 0, 206, 61, 51, 191, 159, 111, 60, 64, 202, 204, 76, 62, 0, 0, 126, 0, 41, 15, 76, 191, 224, 130, 51, 64, 202, 204, 76, 62, 0, 0, 127, 0, 0, 0, 128, 191, 19, 180, 42, 64, 202, 204, 76, 62, 0, 0, 127, 0, 205, 204, 76, 191, 36, 146, 42, 64, 202, 204, 76, 62, 0, 0, 126, 0, 51, 51, 127, 191, 204, 91, 52, 64, 202, 204, 76, 62, 0, 0, 127, 0, 146, 160, 74, 191, 84, 180, 54, 64, 202, 204, 76, 62, 0, 0, 126, 0, 205, 204, 124, 191, 215, 181, 57, 64, 202, 204, 76, 62, 0, 0, 127, 0, 205, 204, 124, 63, 215, 181, 57, 64, 202, 204, 76, 62, 0, 0, 127, 0, 146, 160, 74, 63, 84, 180, 54, 64, 202, 204, 76, 62, 0, 0, 126, 0, 51, 51, 127, 63, 204, 91, 52, 64, 202, 204, 76, 62, 0, 0, 127, 0, 41, 15, 76, 63, 224, 130, 51, 64, 202, 204, 76, 62, 0, 0, 127, 0, 0, 0, 128, 63, 19, 180, 42, 64, 202, 204, 76, 62, 0, 0, 127, 0, 205, 204, 76, 63, 36, 146, 42, 64, 202, 204, 76, 62, 0, 0, 126, 0, 206, 61, 51, 63, 159, 111, 60, 64, 202, 204, 76, 62, 0, 0, 126, 0, 2, 0, 64, 63, 10, 233, 72, 64, 202, 204, 76, 62, 0, 0, 127, 0, 168, 189, 42, 63, 88, 189, 60, 64, 202, 204, 76, 62, 0, 0, 127, 0, 53, 51, 47, 63, 164, 130, 73, 64, 202, 204, 76, 62, 0, 0, 126, 0, 16, 147, 21, 63, 10, 233, 60, 64, 202, 204, 76, 62, 0, 0, 127, 0, 105, 102, 22, 63, 215, 181, 73, 64, 202, 204, 76, 62, 0, 0, 127, 0, 76, 178, 70, 63, 17, 123, 56, 64, 202, 204, 76, 62, 154, 181, 0, 0, 183, 220, 73, 63, 230, 54, 55, 64, 197, 204, 204, 61, 143, 200, 0, 0, 183, 220, 73, 63, 230, 54, 55, 64, 202, 204, 76, 62, 143, 200, 0, 0, 76, 178, 70, 63, 17, 123, 56, 64, 197, 204, 204, 61, 154, 181, 0, 0, 16, 147, 21, 63, 10, 233, 60, 64, 202, 204, 76, 62, 254, 130, 0, 0, 16, 147, 21, 191, 10, 233, 60, 64, 197, 204, 204, 61, 2, 130, 0, 0, 16, 147, 21, 63, 10, 233, 60, 64, 197, 204, 204, 61, 254, 130, 0, 0, 16, 147, 21, 191, 10, 233, 60, 64, 202, 204, 76, 62, 2, 130, 0, 0, 207, 77, 65, 63, 73, 9, 58, 64, 202, 204, 76, 62, 167, 167, 0, 0, 207, 77, 65, 63, 73, 9, 58, 64, 197, 204, 204, 61, 167, 167, 0, 0, 41, 15, 76, 191, 224, 130, 51, 64, 197, 204, 204, 61, 126, 248, 0, 0, 205, 204, 76, 191, 36, 146, 42, 64, 202, 204, 76, 62, 126, 255, 0, 0, 205, 204, 76, 191, 36, 146, 42, 64, 197, 204, 204, 61, 126, 255, 0, 0, 41, 15, 76, 191, 224, 130, 51, 64, 202, 204, 76, 62, 126, 248, 0, 0, 206, 61, 51, 191, 159, 111, 60, 64, 197, 204, 204, 61, 31, 133, 0, 0, 59, 4, 54, 191, 5, 45, 60, 64, 202, 204, 76, 62, 56, 143, 0, 0, 59, 4, 54, 191, 5, 45, 60, 64, 197, 204, 204, 61, 56, 143, 0, 0, 206, 61, 51, 191, 159, 111, 60, 64, 202, 204, 76, 62, 31, 133, 0, 0, 235, 20, 59, 191, 105, 98, 59, 64, 202, 204, 76, 62, 75, 154, 0, 0, 235, 20, 59, 191, 105, 98, 59, 64, 197, 204, 204, 61, 75, 154, 0, 0, 146, 160, 74, 63, 84, 180, 54, 64, 197, 204, 204, 61, 133, 227, 0, 0, 146, 160, 74, 63, 84, 180, 54, 64, 202, 204, 76, 62, 133, 227, 0, 0, 207, 77, 65, 191, 73, 9, 58, 64, 202, 204, 76, 62, 89, 167, 0, 0, 207, 77, 65, 191, 73, 9, 58, 64, 197, 204, 204, 61, 89, 167, 0, 0, 76, 178, 70, 191, 17, 123, 56, 64, 202, 204, 76, 62, 102, 181, 0, 0, 76, 178, 70, 191, 17, 123, 56, 64, 197, 204, 204, 61, 102, 181, 0, 0, 168, 189, 42, 63, 88, 189, 60, 64, 197, 204, 204, 61, 245, 130, 0, 0, 168, 189, 42, 63, 88, 189, 60, 64, 202, 204, 76, 62, 245, 130, 0, 0, 205, 204, 76, 63, 36, 146, 42, 64, 202, 204, 76, 62, 129, 0, 0, 0, 204, 204, 76, 63, 254, 87, 166, 63, 197, 204, 204, 61, 129, 0, 0, 0, 205, 204, 76, 63, 252, 87, 166, 63, 202, 204, 76, 62, 129, 0, 0, 0, 205, 204, 76, 63, 36, 146, 42, 64, 197, 204, 204, 61, 129, 0, 0, 0, 205, 204, 76, 191, 180, 201, 140, 63, 202, 204, 76, 62, 0, 0, 127, 0, 0, 0, 128, 191, 127, 14, 77, 62, 202, 204, 76, 62, 0, 0, 127, 0, 205, 204, 76, 191, 127, 14, 77, 62, 202, 204, 76, 62, 0, 0, 127, 0, 0, 0, 128, 191, 82, 224, 140, 63, 202, 204, 76, 62, 0, 0, 127, 0, 59, 4, 54, 63, 5, 45, 60, 64, 202, 204, 76, 62, 200, 143, 0, 0, 235, 20, 59, 63, 105, 98, 59, 64, 197, 204, 204, 61, 181, 154, 0, 0, 235, 20, 59, 63, 105, 98, 59, 64, 202, 204, 76, 62, 181, 154, 0, 0, 59, 4, 54, 63, 5, 45, 60, 64, 197, 204, 204, 61, 200, 143, 0, 0, 183, 220, 73, 191, 230, 54, 55, 64, 202, 204, 76, 62, 113, 200, 0, 0, 183, 220, 73, 191, 230, 54, 55, 64, 197, 204, 204, 61, 113, 200, 0, 0, 206, 61, 51, 63, 159, 111, 60, 64, 197, 204, 204, 61, 225, 133, 0, 0, 206, 61, 51, 63, 159, 111, 60, 64, 202, 204, 76, 62, 225, 133, 0, 0, 168, 189, 42, 191, 88, 189, 60, 64, 197, 204, 204, 61, 11, 130, 0, 0, 168, 189, 42, 191, 88, 189, 60, 64, 202, 204, 76, 62, 11, 130, 0, 0, 1, 0, 120, 63, 10, 233, 60, 64, 0, 0, 176, 179, 113, 56, 0, 0, 205, 204, 124, 63, 215, 181, 57, 64, 202, 204, 76, 62, 123, 29, 0, 0, 205, 204, 124, 63, 215, 181, 57, 64, 0, 0, 176, 179, 123, 29, 0, 0, 1, 0, 120, 63, 10, 233, 60, 64, 202, 204, 76, 62, 113, 56, 0, 0, 206, 204, 76, 63, 215, 181, 71, 64, 0, 0, 176, 179, 56, 113, 0, 0, 155, 153, 89, 63, 214, 181, 69, 64, 202, 204, 76, 62, 75, 102, 0, 0, 155, 153, 89, 63, 214, 181, 69, 64, 0, 0, 176, 179, 75, 102, 0, 0, 206, 204, 76, 63, 215, 181, 71, 64, 202, 204, 76, 62, 56, 113, 0, 0, 155, 153, 89, 191, 214, 181, 69, 64, 202, 204, 76, 62, 181, 102, 0, 0, 155, 153, 101, 191, 61, 28, 67, 64, 0, 0, 176, 179, 167, 89, 0, 0, 155, 153, 101, 191, 61, 28, 67, 64, 202, 204, 76, 62, 167, 89, 0, 0, 155, 153, 89, 191, 214, 181, 69, 64, 0, 0, 176, 179, 181, 102, 0, 0, 1, 0, 120, 191, 10, 233, 60, 64, 202, 204, 76, 62, 143, 56, 0, 0, 205, 204, 124, 191, 215, 181, 57, 64, 0, 0, 176, 179, 133, 29, 0, 0, 205, 204, 124, 191, 215, 181, 57, 64, 202, 204, 76, 62, 133, 29, 0, 0, 1, 0, 120, 191, 10, 233, 60, 64, 0, 0, 176, 179, 143, 56, 0, 0, 2, 0, 64, 191, 10, 233, 72, 64, 202, 204, 76, 62, 225, 123, 0, 0, 206, 204, 76, 191, 215, 181, 71, 64, 0, 0, 176, 179, 200, 113, 0, 0, 206, 204, 76, 191, 215, 181, 71, 64, 202, 204, 76, 62, 200, 113, 0, 0, 2, 0, 64, 191, 10, 233, 72, 64, 0, 0, 176, 179, 225, 123, 0, 0, 1, 0, 112, 191, 61, 28, 64, 64, 0, 0, 176, 179, 154, 75, 0, 0, 1, 0, 112, 191, 61, 28, 64, 64, 202, 204, 76, 62, 154, 75, 0, 0, 105, 102, 22, 63, 215, 181, 73, 64, 0, 0, 176, 179, 2, 126, 0, 0, 53, 51, 47, 63, 164, 130, 73, 64, 202, 204, 76, 62, 11, 126, 0, 0, 53, 51, 47, 63, 164, 130, 73, 64, 0, 0, 176, 179, 11, 126, 0, 0, 105, 102, 22, 63, 215, 181, 73, 64, 202, 204, 76, 62, 2, 126, 0, 0, 53, 51, 47, 191, 164, 130, 73, 64, 202, 204, 76, 62, 245, 126, 0, 0, 53, 51, 47, 191, 164, 130, 73, 64, 0, 0, 176, 179, 245, 126, 0, 0, 105, 102, 22, 191, 215, 181, 73, 64, 202, 204, 76, 62, 254, 126, 0, 0, 105, 102, 22, 191, 215, 181, 73, 64, 0, 0, 176, 179, 254, 126, 0, 0, 155, 153, 101, 63, 61, 28, 67, 64, 202, 204, 76, 62, 89, 89, 0, 0, 155, 153, 101, 63, 61, 28, 67, 64, 0, 0, 176, 179, 89, 89, 0, 0, 51, 51, 127, 191, 204, 91, 52, 64, 0, 0, 176, 179, 130, 8, 0, 0, 51, 51, 127, 191, 204, 91, 52, 64, 202, 204, 76, 62, 130, 8, 0, 0, 2, 0, 64, 63, 10, 233, 72, 64, 202, 204, 76, 62, 31, 123, 0, 0, 2, 0, 64, 63, 10, 233, 72, 64, 0, 0, 176, 179, 31, 123, 0, 0, 51, 51, 127, 63, 204, 91, 52, 64, 0, 0, 176, 179, 126, 8, 0, 0, 0, 0, 128, 63, 19, 180, 42, 64, 202, 204, 76, 62, 126, 1, 0, 0, 0, 0, 128, 63, 19, 180, 42, 64, 0, 0, 176, 179, 126, 1, 0, 0, 51, 51, 127, 63, 204, 91, 52, 64, 202, 204, 76, 62, 126, 8, 0, 0, 146, 160, 74, 191, 84, 180, 54, 64, 197, 204, 204, 61, 123, 227, 0, 0, 146, 160, 74, 191, 84, 180, 54, 64, 202, 204, 76, 62, 123, 227, 0, 0, 1, 0, 112, 63, 61, 28, 64, 64, 0, 0, 176, 179, 102, 75, 0, 0, 1, 0, 112, 63, 61, 28, 64, 64, 202, 204, 76, 62, 102, 75, 0, 0, 0, 0, 128, 191, 19, 180, 42, 64, 0, 0, 176, 179, 130, 1, 0, 0, 0, 0, 128, 191, 19, 180, 42, 64, 202, 204, 76, 62, 130, 1, 0, 0, 0, 0, 128, 63, 82, 224, 140, 63, 202, 204, 76, 62, 0, 0, 127, 0, 205, 204, 76, 63, 127, 14, 77, 62, 202, 204, 76, 62, 0, 0, 127, 0, 0, 0, 128, 63, 127, 14, 77, 62, 202, 204, 76, 62, 0, 0, 127, 0, 205, 204, 76, 63, 178, 201, 140, 63, 202, 204, 76, 62, 0, 0, 127, 0, 204, 204, 76, 63, 254, 87, 166, 63, 197, 204, 204, 61, 0, 0, 127, 0, 205, 204, 76, 191, 36, 146, 42, 64, 197, 204, 204, 61, 0, 0, 127, 0, 205, 204, 76, 191, 252, 87, 166, 63, 197, 204, 204, 61, 0, 0, 127, 0, 205, 204, 76, 63, 36, 146, 42, 64, 197, 204, 204, 61, 0, 0, 127, 0, 205, 204, 76, 191, 178, 201, 140, 63, 197, 204, 204, 61, 127, 0, 0, 0, 205, 204, 76, 191, 127, 14, 77, 62, 202, 204, 76, 62, 127, 0, 0, 0, 205, 204, 76, 191, 127, 14, 77, 62, 197, 204, 204, 61, 127, 0, 0, 0, 205, 204, 76, 191, 180, 201, 140, 63, 202, 204, 76, 62, 126, 0, 0, 0, 0, 0, 128, 191, 61, 133, 166, 63, 0, 0, 176, 179, 129, 0, 0, 0, 0, 0, 128, 191, 61, 133, 166, 63, 202, 204, 76, 62, 129, 0, 0, 0, 0, 0, 128, 63, 82, 224, 140, 63, 0, 0, 176, 179, 127, 0, 0, 0, 0, 0, 128, 63, 127, 14, 77, 62, 202, 204, 76, 62, 127, 0, 0, 0, 0, 0, 128, 63, 127, 14, 77, 62, 0, 0, 176, 179, 127, 0, 0, 0, 0, 0, 128, 63, 82, 224, 140, 63, 202, 204, 76, 62, 127, 0, 0, 0, 16, 147, 21, 63, 10, 233, 60, 64, 197, 204, 204, 61, 0, 0, 127, 0, 41, 15, 76, 63, 224, 130, 51, 64, 197, 204, 204, 61, 0, 0, 126, 0, 16, 147, 21, 63, 10, 233, 60, 64, 197, 204, 204, 61, 0, 0, 126, 0, 205, 204, 76, 63, 36, 146, 42, 64, 197, 204, 204, 61, 0, 0, 126, 0, 16, 147, 21, 191, 10, 233, 60, 64, 197, 204, 204, 61, 0, 0, 126, 0, 41, 15, 76, 191, 224, 130, 51, 64, 197, 204, 204, 61, 0, 0, 126, 0, 205, 204, 76, 191, 36, 146, 42, 64, 197, 204, 204, 61, 0, 0, 126, 0, 146, 160, 74, 63, 84, 180, 54, 64, 197, 204, 204, 61, 0, 0, 127, 0, 76, 178, 70, 63, 17, 123, 56, 64, 197, 204, 204, 61, 0, 0, 127, 0, 41, 15, 76, 63, 224, 130, 51, 64, 197, 204, 204, 61, 0, 0, 127, 0, 16, 147, 21, 191, 10, 233, 60, 64, 197, 204, 204, 61, 0, 0, 127, 0, 168, 189, 42, 191, 88, 189, 60, 64, 197, 204, 204, 61, 0, 0, 127, 0, 41, 15, 76, 191, 224, 130, 51, 64, 197, 204, 204, 61, 0, 0, 127, 0, 183, 220, 73, 191, 230, 54, 55, 64, 197, 204, 204, 61, 0, 0, 127, 0, 146, 160, 74, 191, 84, 180, 54, 64, 197, 204, 204, 61, 0, 0, 127, 0, 76, 178, 70, 191, 17, 123, 56, 64, 197, 204, 204, 61, 0, 0, 127, 0, 207, 77, 65, 191, 73, 9, 58, 64, 197, 204, 204, 61, 0, 0, 127, 0, 168, 189, 42, 63, 88, 189, 60, 64, 197, 204, 204, 61, 0, 0, 127, 0, 207, 77, 65, 63, 73, 9, 58, 64, 197, 204, 204, 61, 0, 0, 127, 0, 183, 220, 73, 63, 230, 54, 55, 64, 197, 204, 204, 61, 0, 0, 127, 0, 235, 20, 59, 191, 105, 98, 59, 64, 197, 204, 204, 61, 0, 0, 127, 0, 206, 61, 51, 191, 159, 111, 60, 64, 197, 204, 204, 61, 0, 0, 127, 0, 235, 20, 59, 63, 105, 98, 59, 64, 197, 204, 204, 61, 0, 0, 127, 0, 168, 189, 42, 63, 88, 189, 60, 64, 197, 204, 204, 61, 0, 0, 126, 0, 206, 61, 51, 63, 159, 111, 60, 64, 197, 204, 204, 61, 0, 0, 127, 0, 59, 4, 54, 63, 5, 45, 60, 64, 197, 204, 204, 61, 0, 0, 127, 0, 59, 4, 54, 191, 5, 45, 60, 64, 197, 204, 204, 61, 0, 0, 126, 0, 235, 20, 59, 191, 105, 98, 59, 64, 197, 204, 204, 61, 0, 0, 126, 0, 206, 61, 51, 191, 159, 111, 60, 64, 197, 204, 204, 61, 0, 0, 126, 0, 0, 0, 128, 191, 0, 104, 131, 57, 202, 204, 76, 62, 0, 0, 127, 0, 205, 204, 76, 191, 0, 104, 131, 57, 202, 204, 76, 62, 0, 0, 127, 0, 0, 0, 128, 191, 127, 14, 77, 62, 202, 204, 76, 62, 129, 0, 0, 0, 0, 0, 128, 191, 0, 104, 131, 57, 0, 0, 176, 179, 129, 0, 0, 0, 0, 0, 128, 191, 0, 104, 131, 57, 202, 204, 76, 62, 129, 0, 0, 0, 0, 0, 128, 191, 127, 14, 77, 62, 0, 0, 176, 179, 129, 0, 0, 0, 0, 0, 128, 63, 0, 104, 131, 57, 202, 204, 76, 62, 127, 0, 0, 0, 0, 0, 128, 63, 0, 104, 131, 57, 0, 0, 176, 179, 127, 0, 0, 0, 205, 204, 76, 191, 127, 14, 77, 62, 202, 204, 76, 62, 0, 127, 0, 0, 204, 204, 76, 63, 127, 14, 77, 62, 197, 204, 204, 61, 0, 127, 0, 0, 205, 204, 76, 191, 127, 14, 77, 62, 197, 204, 204, 61, 0, 127, 0, 0, 205, 204, 76, 63, 127, 14, 77, 62, 202, 204, 76, 62, 0, 127, 0, 0, 205, 204, 76, 63, 0, 104, 131, 57, 202, 204, 76, 62, 0, 0, 127, 0, 0, 0, 128, 63, 0, 104, 131, 57, 202, 204, 76, 62, 0, 0, 127, 0, 205, 204, 76, 63, 0, 104, 131, 57, 202, 204, 76, 62, 0, 129, 0, 0, 205, 204, 76, 191, 0, 104, 131, 57, 0, 0, 192, 179, 0, 129, 0, 0, 205, 204, 76, 63, 0, 104, 131, 57, 0, 0, 192, 179, 0, 129, 0, 0, 205, 204, 76, 191, 0, 104, 131, 57, 202, 204, 76, 62, 0, 129, 0, 0, 0, 0, 128, 63, 0, 104, 131, 57, 0, 0, 176, 179, 0, 129, 0, 0, 0, 0, 128, 63, 0, 104, 131, 57, 202, 204, 76, 62, 0, 129, 0, 0, 0, 0, 128, 191, 0, 104, 131, 57, 0, 0, 176, 179, 0, 129, 0, 0, 0, 0, 128, 191, 0, 104, 131, 57, 202, 204, 76, 62, 0, 129, 0, 0, 0, 0, 128, 191, 127, 14, 77, 62, 0, 0, 176, 179, 0, 0, 129, 0, 205, 204, 76, 191, 0, 104, 131, 57, 0, 0, 192, 179, 0, 0, 129, 0, 0, 0, 128, 191, 0, 104, 131, 57, 0, 0, 176, 179, 0, 0, 129, 0, 205, 204, 76, 63, 0, 104, 131, 57, 0, 0, 192, 179, 0, 0, 129, 0, 0, 0, 128, 63, 0, 104, 131, 57, 0, 0, 176, 179, 0, 0, 129, 0, 0, 0, 128, 63, 127, 14, 77, 62, 0, 0, 176, 179, 0, 0, 129, 0, 0, 0, 128, 191, 82, 224, 140, 63, 0, 0, 176, 179, 0, 0, 129, 0, 0, 0, 128, 63, 82, 224, 140, 63, 0, 0, 176, 179, 0, 0, 129, 0, 0, 0, 128, 191, 19, 180, 42, 64, 0, 0, 176, 179, 0, 0, 129, 0, 0, 0, 128, 63, 61, 133, 166, 63, 0, 0, 176, 179, 0, 0, 129, 0, 0, 0, 128, 191, 61, 133, 166, 63, 0, 0, 176, 179, 0, 0, 129, 0, 0, 0, 128, 63, 19, 180, 42, 64, 0, 0, 176, 179, 0, 0, 129, 0, 51, 51, 127, 191, 204, 91, 52, 64, 0, 0, 176, 179, 0, 0, 129, 0, 51, 51, 127, 63, 204, 91, 52, 64, 0, 0, 176, 179, 0, 0, 129, 0, 205, 204, 124, 191, 215, 181, 57, 64, 0, 0, 176, 179, 0, 0, 129, 0, 205, 204, 124, 63, 215, 181, 57, 64, 0, 0, 176, 179, 0, 0, 129, 0, 1, 0, 120, 191, 10, 233, 60, 64, 0, 0, 176, 179, 0, 0, 129, 0, 1, 0, 120, 63, 10, 233, 60, 64, 0, 0, 176, 179, 0, 0, 129, 0, 1, 0, 112, 191, 61, 28, 64, 64, 0, 0, 176, 179, 0, 0, 129, 0, 1, 0, 112, 63, 61, 28, 64, 64, 0, 0, 176, 179, 0, 0, 129, 0, 155, 153, 101, 191, 61, 28, 67, 64, 0, 0, 176, 179, 0, 0, 129, 0, 155, 153, 101, 63, 61, 28, 67, 64, 0, 0, 176, 179, 0, 0, 129, 0, 155, 153, 89, 191, 214, 181, 69, 64, 0, 0, 176, 179, 0, 0, 129, 0, 155, 153, 89, 63, 214, 181, 69, 64, 0, 0, 176, 179, 0, 0, 129, 0, 206, 204, 76, 191, 215, 181, 71, 64, 0, 0, 176, 179, 0, 0, 129, 0, 206, 204, 76, 63, 215, 181, 71, 64, 0, 0, 176, 179, 0, 0, 129, 0, 2, 0, 64, 191, 10, 233, 72, 64, 0, 0, 176, 179, 0, 0, 129, 0, 2, 0, 64, 63, 10, 233, 72, 64, 0, 0, 176, 179, 0, 0, 129, 0, 53, 51, 47, 191, 164, 130, 73, 64, 0, 0, 176, 179, 0, 0, 129, 0, 53, 51, 47, 63, 164, 130, 73, 64, 0, 0, 176, 179, 0, 0, 129, 0, 105, 102, 22, 191, 215, 181, 73, 64, 0, 0, 176, 179, 0, 0, 129, 0, 105, 102, 22, 63, 215, 181, 73, 64, 0, 0, 176, 179, 0, 0, 129, 0, 0, 0, 128, 63, 61, 133, 166, 63, 202, 204, 76, 62, 127, 0, 0, 0, 0, 0, 128, 63, 61, 133, 166, 63, 0, 0, 176, 179, 127, 0, 0, 0, 0, 0, 128, 191, 82, 224, 140, 63, 202, 204, 76, 62, 129, 0, 0, 0, 0, 0, 128, 191, 82, 224, 140, 63, 0, 0, 176, 179, 129, 0, 0, 0, 205, 204, 76, 191, 254, 87, 166, 63, 202, 204, 76, 62, 127, 0, 0, 0, 205, 204, 76, 191, 252, 87, 166, 63, 197, 204, 204, 61, 126, 0, 0, 0, 205, 204, 76, 191, 254, 87, 166, 63, 202, 204, 76, 62, 0, 127, 0, 0, 204, 204, 76, 63, 254, 87, 166, 63, 197, 204, 204, 61, 0, 127, 0, 0, 205, 204, 76, 191, 252, 87, 166, 63, 197, 204, 204, 61, 0, 127, 0, 0, 205, 204, 76, 63, 252, 87, 166, 63, 202, 204, 76, 62, 0, 127, 0, 0, 204, 204, 76, 63, 180, 201, 140, 63, 197, 204, 204, 61, 0, 0, 127, 0, 205, 204, 76, 191, 127, 14, 77, 62, 197, 204, 204, 61, 0, 0, 127, 0, 204, 204, 76, 63, 127, 14, 77, 62, 197, 204, 204, 61, 0, 0, 127, 0, 205, 204, 76, 191, 178, 201, 140, 63, 197, 204, 204, 61, 0, 0, 127, 0, 205, 204, 76, 63, 178, 201, 140, 63, 202, 204, 76, 62, 0, 129, 0, 0, 205, 204, 76, 191, 178, 201, 140, 63, 197, 204, 204, 61, 0, 129, 0, 0, 204, 204, 76, 63, 180, 201, 140, 63, 197, 204, 204, 61, 0, 129, 0, 0, 205, 204, 76, 191, 180, 201, 140, 63, 202, 204, 76, 62, 0, 129, 0, 0, 0, 0, 128, 63, 61, 133, 166, 63, 202, 204, 76, 62, 0, 0, 127, 0, 205, 204, 76, 63, 252, 87, 166, 63, 202, 204, 76, 62, 0, 0, 127, 0, 0, 0, 128, 191, 61, 133, 166, 63, 202, 204, 76, 62, 0, 0, 127, 0, 205, 204, 76, 191, 254, 87, 166, 63, 202, 204, 76, 62, 0, 0, 127, 0, 205, 204, 76, 63, 178, 201, 140, 63, 202, 204, 76, 62, 129, 0, 0, 0, 204, 204, 76, 63, 127, 14, 77, 62, 197, 204, 204, 61, 129, 0, 0, 0, 205, 204, 76, 63, 127, 14, 77, 62, 202, 204, 76, 62, 129, 0, 0, 0, 204, 204, 76, 63, 180, 201, 140, 63, 197, 204, 204, 61, 129, 0, 0, 0 ),
"array_index_data": PoolByteArray( 0, 0, 2, 0, 1, 0, 0, 0, 1, 0, 3, 0, 4, 0, 6, 0, 5, 0, 7, 0, 4, 0, 5, 0, 8, 0, 4, 0, 7, 0, 9, 0, 8, 0, 7, 0, 10, 0, 8, 0, 9, 0, 11, 0, 10, 0, 9, 0, 12, 0, 10, 0, 11, 0, 13, 0, 12, 0, 11, 0, 14, 0, 16, 0, 15, 0, 14, 0, 15, 0, 17, 0, 17, 0, 15, 0, 18, 0, 17, 0, 18, 0, 19, 0, 19, 0, 18, 0, 20, 0, 19, 0, 20, 0, 21, 0, 21, 0, 20, 0, 22, 0, 21, 0, 22, 0, 23, 0, 24, 0, 26, 0, 25, 0, 27, 0, 24, 0, 25, 0, 26, 0, 29, 0, 28, 0, 25, 0, 26, 0, 28, 0, 29, 0, 12, 0, 13, 0, 28, 0, 29, 0, 13, 0, 30, 0, 32, 0, 31, 0, 30, 0, 31, 0, 33, 0, 34, 0, 30, 0, 33, 0, 34, 0, 33, 0, 35, 0, 6, 0, 34, 0, 35, 0, 5, 0, 6, 0, 35, 0, 36, 0, 37, 0, 16, 0, 36, 0, 16, 0, 14, 0, 38, 0, 39, 0, 37, 0, 36, 0, 38, 0, 37, 0, 40, 0, 41, 0, 39, 0, 38, 0, 40, 0, 39, 0, 23, 0, 22, 0, 42, 0, 23, 0, 42, 0, 43, 0, 43, 0, 42, 0, 44, 0, 43, 0, 44, 0, 45, 0, 45, 0, 44, 0, 46, 0, 45, 0, 46, 0, 47, 0, 48, 0, 50, 0, 49, 0, 48, 0, 49, 0, 51, 0, 52, 0, 54, 0, 53, 0, 52, 0, 53, 0, 55, 0, 56, 0, 48, 0, 51, 0, 56, 0, 51, 0, 57, 0, 58, 0, 60, 0, 59, 0, 58, 0, 59, 0, 61, 0, 62, 0, 64, 0, 63, 0, 62, 0, 63, 0, 65, 0, 64, 0, 67, 0, 66, 0, 64, 0, 66, 0, 63, 0, 50, 0, 69, 0, 68, 0, 50, 0, 68, 0, 49, 0, 67, 0, 71, 0, 70, 0, 67, 0, 70, 0, 66, 0, 71, 0, 73, 0, 72, 0, 71, 0, 72, 0, 70, 0, 52, 0, 75, 0, 74, 0, 52, 0, 74, 0, 54, 0, 69, 0, 0, 0, 3, 0, 69, 0, 3, 0, 68, 0, 76, 0, 78, 0, 77, 0, 76, 0, 77, 0, 79, 0, 80, 0, 82, 0, 81, 0, 80, 0, 81, 0, 83, 0, 84, 0, 86, 0, 85, 0, 84, 0, 85, 0, 87, 0, 73, 0, 89, 0, 88, 0, 73, 0, 88, 0, 72, 0, 75, 0, 91, 0, 90, 0, 75, 0, 90, 0, 74, 0, 92, 0, 62, 0, 65, 0, 92, 0, 65, 0, 93, 0, 53, 0, 92, 0, 93, 0, 53, 0, 93, 0, 55, 0, 91, 0, 84, 0, 87, 0, 91, 0, 87, 0, 90, 0, 94, 0, 96, 0, 95, 0, 94, 0, 95, 0, 97, 0, 98, 0, 100, 0, 99, 0, 98, 0, 99, 0, 101, 0, 102, 0, 104, 0, 103, 0, 102, 0, 103, 0, 105, 0, 106, 0, 108, 0, 107, 0, 106, 0, 107, 0, 109, 0, 110, 0, 112, 0, 111, 0, 110, 0, 111, 0, 113, 0, 104, 0, 115, 0, 114, 0, 104, 0, 114, 0, 103, 0, 116, 0, 118, 0, 117, 0, 116, 0, 117, 0, 119, 0, 120, 0, 110, 0, 113, 0, 120, 0, 113, 0, 121, 0, 115, 0, 106, 0, 109, 0, 115, 0, 109, 0, 114, 0, 122, 0, 123, 0, 116, 0, 122, 0, 116, 0, 119, 0, 122, 0, 120, 0, 121, 0, 122, 0, 121, 0, 123, 0, 100, 0, 125, 0, 124, 0, 100, 0, 124, 0, 99, 0, 108, 0, 127, 0, 126, 0, 108, 0, 126, 0, 107, 0, 118, 0, 129, 0, 128, 0, 118, 0, 128, 0, 117, 0, 130, 0, 132, 0, 131, 0, 130, 0, 131, 0, 133, 0, 96, 0, 130, 0, 133, 0, 96, 0, 133, 0, 95, 0, 129, 0, 98, 0, 101, 0, 129, 0, 101, 0, 128, 0, 112, 0, 102, 0, 105, 0, 112, 0, 105, 0, 111, 0, 47, 0, 46, 0, 24, 0, 47, 0, 24, 0, 27, 0, 134, 0, 58, 0, 61, 0, 134, 0, 61, 0, 135, 0, 86, 0, 56, 0, 57, 0, 86, 0, 57, 0, 85, 0, 89, 0, 134, 0, 135, 0, 89, 0, 135, 0, 88, 0, 136, 0, 94, 0, 97, 0, 136, 0, 97, 0, 137, 0, 127, 0, 139, 0, 138, 0, 127, 0, 138, 0, 126, 0, 125, 0, 136, 0, 137, 0, 125, 0, 137, 0, 124, 0, 140, 0, 142, 0, 141, 0, 140, 0, 141, 0, 143, 0, 144, 0, 146, 0, 145, 0, 147, 0, 144, 0, 145, 0, 148, 0, 150, 0, 149, 0, 148, 0, 149, 0, 151, 0, 139, 0, 153, 0, 152, 0, 139, 0, 152, 0, 138, 0, 154, 0, 156, 0, 155, 0, 154, 0, 155, 0, 157, 0, 147, 0, 145, 0, 158, 0, 159, 0, 161, 0, 160, 0, 162, 0, 164, 0, 163, 0, 165, 0, 167, 0, 166, 0, 168, 0, 170, 0, 169, 0, 171, 0, 173, 0, 172, 0, 170, 0, 174, 0, 169, 0, 175, 0, 176, 0, 167, 0, 165, 0, 166, 0, 177, 0, 167, 0, 176, 0, 166, 0, 178, 0, 179, 0, 169, 0, 176, 0, 175, 0, 180, 0, 181, 0, 159, 0, 160, 0, 178, 0, 169, 0, 174, 0, 158, 0, 145, 0, 168, 0, 175, 0, 182, 0, 180, 0, 173, 0, 174, 0, 170, 0, 180, 0, 182, 0, 183, 0, 184, 0, 186, 0, 185, 0, 173, 0, 170, 0, 172, 0, 82, 0, 188, 0, 187, 0, 82, 0, 187, 0, 81, 0, 189, 0, 191, 0, 190, 0, 189, 0, 190, 0, 192, 0, 156, 0, 194, 0, 193, 0, 156, 0, 193, 0, 155, 0, 195, 0, 197, 0, 196, 0, 195, 0, 196, 0, 198, 0, 141, 0, 199, 0, 188, 0, 141, 0, 188, 0, 82, 0, 142, 0, 200, 0, 199, 0, 142, 0, 199, 0, 141, 0, 201, 0, 203, 0, 202, 0, 201, 0, 202, 0, 204, 0, 205, 0, 203, 0, 201, 0, 206, 0, 205, 0, 201, 0, 204, 0, 202, 0, 207, 0, 204, 0, 207, 0, 208, 0, 209, 0, 211, 0, 210, 0, 209, 0, 210, 0, 212, 0, 209, 0, 212, 0, 213, 0, 209, 0, 213, 0, 214, 0, 215, 0, 209, 0, 214, 0, 215, 0, 214, 0, 216, 0, 217, 0, 219, 0, 218, 0, 217, 0, 218, 0, 220, 0, 221, 0, 217, 0, 220, 0, 221, 0, 220, 0, 222, 0, 223, 0, 221, 0, 222, 0, 223, 0, 222, 0, 224, 0, 225, 0, 223, 0, 224, 0, 225, 0, 224, 0, 226, 0, 227, 0, 225, 0, 226, 0, 227, 0, 226, 0, 228, 0, 229, 0, 227, 0, 228, 0, 229, 0, 228, 0, 230, 0, 231, 0, 229, 0, 230, 0, 231, 0, 230, 0, 232, 0, 233, 0, 231, 0, 232, 0, 233, 0, 232, 0, 234, 0, 235, 0, 233, 0, 234, 0, 235, 0, 234, 0, 236, 0, 237, 0, 235, 0, 236, 0, 237, 0, 236, 0, 238, 0, 239, 0, 237, 0, 238, 0, 239, 0, 238, 0, 240, 0, 219, 0, 215, 0, 216, 0, 219, 0, 216, 0, 218, 0, 132, 0, 242, 0, 241, 0, 132, 0, 241, 0, 131, 0, 242, 0, 154, 0, 157, 0, 242, 0, 157, 0, 241, 0, 243, 0, 189, 0, 192, 0, 243, 0, 192, 0, 244, 0, 153, 0, 243, 0, 244, 0, 153, 0, 244, 0, 152, 0, 60, 0, 246, 0, 245, 0, 60, 0, 245, 0, 59, 0, 247, 0, 249, 0, 248, 0, 247, 0, 248, 0, 250, 0, 251, 0, 253, 0, 252, 0, 251, 0, 252, 0, 254, 0, 255, 0, 1, 1, 0, 1, 255, 0, 0, 1, 2, 1, 3, 1, 4, 1, 41, 0, 40, 0, 3, 1, 41, 0, 140, 0, 143, 0, 4, 1, 3, 1, 140, 0, 4, 1, 32, 0, 6, 1, 5, 1, 32, 0, 5, 1, 31, 0, 6, 1, 80, 0, 83, 0, 6, 1, 83, 0, 5, 1, 7, 1, 9, 1, 8, 1, 7, 1, 8, 1, 10, 1, 4, 1, 143, 0, 80, 0, 4, 1, 80, 0, 6, 1 ),
"blend_shape_data": [  ],
"format": 97539,
"index_count": 708,
"primitive": 4,
"skeleton_aabb": [  ],
"vertex_count": 267
}

[sub_resource type="ConcavePolygonShape" id=5]

margin = 0.04
data = PoolVector3Array( 0.7971, 2.8049, 0.2, 0.8, 2.6652, 0.2, 0.8, 2.6652, 0.1, 0.7971, 2.8049, 0.2, 0.8, 2.6652, 0.1, 0.7971, 2.8049, 0.1, -0.7762, 2.8825, 0.2, -0.7885, 2.8627, 0.2, -0.9688, 2.9517, 0.2, -0.9375, 3.0017, 0.2, -0.7762, 2.8825, 0.2, -0.9688, 2.9517, 0.2, -0.7551, 2.9068, 0.2, -0.7762, 2.8825, 0.2, -0.9375, 3.0017, 0.2, -0.8969, 3.0486, 0.2, -0.7551, 2.9068, 0.2, -0.9375, 3.0017, 0.2, -0.7308, 2.9279, 0.2, -0.7551, 2.9068, 0.2, -0.8969, 3.0486, 0.2, -0.85, 3.0892, 0.2, -0.7308, 2.9279, 0.2, -0.8969, 3.0486, 0.2, -0.711, 2.9402, 0.2, -0.7308, 2.9279, 0.2, -0.85, 3.0892, 0.2, -0.8, 3.1205, 0.2, -0.711, 2.9402, 0.2, -0.85, 3.0892, 0.2, 0.9688, 2.9517, 0.2, 0.7885, 2.8627, 0.2, 0.7762, 2.8825, 0.2, 0.9688, 2.9517, 0.2, 0.7762, 2.8825, 0.2, 0.9375, 3.0017, 0.2, 0.9375, 3.0017, 0.2, 0.7762, 2.8825, 0.2, 0.7551, 2.9068, 0.2, 0.9375, 3.0017, 0.2, 0.7551, 2.9068, 0.2, 0.8969, 3.0486, 0.2, 0.8969, 3.0486, 0.2, 0.7551, 2.9068, 0.2, 0.7308, 2.9279, 0.2, 0.8969, 3.0486, 0.2, 0.7308, 2.9279, 0.2, 0.85, 3.0892, 0.2, 0.85, 3.0892, 0.2, 0.7308, 2.9279, 0.2, 0.711, 2.9402, 0.2, 0.85, 3.0892, 0.2, 0.711, 2.9402, 0.2, 0.8, 3.1205, 0.2, -0.5843, 2.9517, 0.2, -0.667, 2.9491, 0.2, -0.6844, 3.1486, 0.2, -0.5875, 3.1517, 0.2, -0.5843, 2.9517, 0.2, -0.6844, 3.1486, 0.2, -0.667, 2.9491, 0.2, -0.7002, 2.9443, 0.2, -0.75, 3.1392, 0.2, -0.6844, 3.1486, 0.2, -0.667, 2.9491, 0.2, -0.75, 3.1392, 0.2, -0.7002, 2.9443, 0.2, -0.711, 2.9402, 0.2, -0.8, 3.1205, 0.2, -0.75, 3.1392, 0.2, -0.7002, 2.9443, 0.2, -0.8, 3.1205, 0.2, -0.7971, 2.8049, 0.2, -0.8, 2.6652, 0.2, -1, 2.6672, 0.2, -0.7971, 2.8049, 0.2, -1, 2.6672, 0.2, -0.9969, 2.8181, 0.2, -0.7915, 2.8548, 0.2, -0.7971, 2.8049, 0.2, -0.9969, 2.8181, 0.2, -0.7915, 2.8548, 0.2, -0.9969, 2.8181, 0.2, -0.9875, 2.9017, 0.2, -0.7885, 2.8627, 0.2, -0.7915, 2.8548, 0.2, -0.9875, 2.9017, 0.2, -0.9688, 2.9517, 0.2, -0.7885, 2.8627, 0.2, -0.9875, 2.9017, 0.2, 0.9875, 2.9017, 0.2, 0.7915, 2.8548, 0.2, 0.7885, 2.8627, 0.2, 0.9875, 2.9017, 0.2, 0.7885, 2.8627, 0.2, 0.9688, 2.9517, 0.2, 0.9969, 2.8181, 0.2, 0.7971, 2.8049, 0.2, 0.7915, 2.8548, 0.2, 0.9875, 2.9017, 0.2, 0.9969, 2.8181, 0.2, 0.7915, 2.8548, 0.2, 1, 2.6672, 0.2, 0.8, 2.6652, 0.2, 0.7971, 2.8049, 0.2, 0.9969, 2.8181, 0.2, 1, 2.6672, 0.2, 0.7971, 2.8049, 0.2, 0.8, 3.1205, 0.2, 0.711, 2.9402, 0.2, 0.7002, 2.9443, 0.2, 0.8, 3.1205, 0.2, 0.7002, 2.9443, 0.2, 0.75, 3.1392, 0.2, 0.75, 3.1392, 0.2, 0.7002, 2.9443, 0.2, 0.667, 2.9491, 0.2, 0.75, 3.1392, 0.2, 0.667, 2.9491, 0.2, 0.6844, 3.1486, 0.2, 0.6844, 3.1486, 0.2, 0.667, 2.9491, 0.2, 0.5843, 2.9517, 0.2, 0.6844, 3.1486, 0.2, 0.5843, 2.9517, 0.2, 0.5875, 3.1517, 0.2, 0.7762, 2.8825, 0.2, 0.7885, 2.8627, 0.2, 0.7885, 2.8627, 0.1, 0.7762, 2.8825, 0.2, 0.7885, 2.8627, 0.1, 0.7762, 2.8825, 0.1, 0.5843, 2.9517, 0.2, 0.5843, 2.9517, 0.1, -0.5843, 2.9517, 0.1, 0.5843, 2.9517, 0.2, -0.5843, 2.9517, 0.1, -0.5843, 2.9517, 0.2, 0.7551, 2.9068, 0.2, 0.7762, 2.8825, 0.2, 0.7762, 2.8825, 0.1, 0.7551, 2.9068, 0.2, 0.7762, 2.8825, 0.1, 0.7551, 2.9068, 0.1, -0.7971, 2.8049, 0.1, -0.8, 2.6652, 0.1, -0.8, 2.6652, 0.2, -0.7971, 2.8049, 0.1, -0.8, 2.6652, 0.2, -0.7971, 2.8049, 0.2, -0.7002, 2.9443, 0.1, -0.711, 2.9402, 0.1, -0.711, 2.9402, 0.2, -0.7002, 2.9443, 0.1, -0.711, 2.9402, 0.2, -0.7002, 2.9443, 0.2, -0.711, 2.9402, 0.1, -0.7308, 2.9279, 0.1, -0.7308, 2.9279, 0.2, -0.711, 2.9402, 0.1, -0.7308, 2.9279, 0.2, -0.711, 2.9402, 0.2, 0.7885, 2.8627, 0.2, 0.7915, 2.8548, 0.2, 0.7915, 2.8548, 0.1, 0.7885, 2.8627, 0.2, 0.7915, 2.8548, 0.1, 0.7885, 2.8627, 0.1, -0.7308, 2.9279, 0.1, -0.7551, 2.9068, 0.1, -0.7551, 2.9068, 0.2, -0.7308, 2.9279, 0.1, -0.7551, 2.9068, 0.2, -0.7308, 2.9279, 0.2, -0.7551, 2.9068, 0.1, -0.7762, 2.8825, 0.1, -0.7762, 2.8825, 0.2, -0.7551, 2.9068, 0.1, -0.7762, 2.8825, 0.2, -0.7551, 2.9068, 0.2, 0.5843, 2.9517, 0.2, 0.667, 2.9491, 0.2, 0.667, 2.9491, 0.1, 0.5843, 2.9517, 0.2, 0.667, 2.9491, 0.1, 0.5843, 2.9517, 0.1, 0.7915, 2.8548, 0.2, 0.7971, 2.8049, 0.2, 0.7971, 2.8049, 0.1, 0.7915, 2.8548, 0.2, 0.7971, 2.8049, 0.1, 0.7915, 2.8548, 0.1, 0.8, 2.6652, 0.2, 0.8, 1.2996, 0.2, 0.8, 1.2996, 0.1, 0.8, 2.6652, 0.2, 0.8, 1.2996, 0.1, 0.8, 2.6652, 0.1, -0.8, 1.0999, 0.2, -0.8, 0.2003, 0.2, -1, 0.2003, 0.2, -0.8, 1.0999, 0.2, -1, 0.2003, 0.2, -1, 1.1006, 0.2, 0.711, 2.9402, 0.2, 0.7308, 2.9279, 0.2, 0.7308, 2.9279, 0.1, 0.711, 2.9402, 0.2, 0.7308, 2.9279, 0.1, 0.711, 2.9402, 0.1, -0.7762, 2.8825, 0.1, -0.7885, 2.8627, 0.1, -0.7885, 2.8627, 0.2, -0.7762, 2.8825, 0.1, -0.7885, 2.8627, 0.2, -0.7762, 2.8825, 0.2, 0.667, 2.9491, 0.2, 0.7002, 2.9443, 0.2, 0.7002, 2.9443, 0.1, 0.667, 2.9491, 0.2, 0.7002, 2.9443, 0.1, 0.667, 2.9491, 0.1, -0.667, 2.9491, 0.1, -0.7002, 2.9443, 0.1, -0.7002, 2.9443, 0.2, -0.667, 2.9491, 0.1, -0.7002, 2.9443, 0.2, -0.667, 2.9491, 0.2, -0.5843, 2.9517, 0.1, -0.667, 2.9491, 0.1, -0.667, 2.9491, 0.2, -0.5843, 2.9517, 0.1, -0.667, 2.9491, 0.2, -0.5843, 2.9517, 0.2, 0.7002, 2.9443, 0.2, 0.711, 2.9402, 0.2, 0.711, 2.9402, 0.1, 0.7002, 2.9443, 0.2, 0.711, 2.9402, 0.1, 0.7002, 2.9443, 0.1, 0.9688, 2.9517, 0, 0.9875, 2.9017, 0, 0.9875, 2.9017, 0.2, 0.9688, 2.9517, 0, 0.9875, 2.9017, 0.2, 0.9688, 2.9517, 0.2, 0.8, 3.1205, 0, 0.85, 3.0892, 0, 0.85, 3.0892, 0.2, 0.8, 3.1205, 0, 0.85, 3.0892, 0.2, 0.8, 3.1205, 0.2, -0.85, 3.0892, 0.2, -0.8969, 3.0486, 0.2, -0.8969, 3.0486, 0, -0.85, 3.0892, 0.2, -0.8969, 3.0486, 0, -0.85, 3.0892, 0, -0.9688, 2.9517, 0.2, -0.9875, 2.9017, 0.2, -0.9875, 2.9017, 0, -0.9688, 2.9517, 0.2, -0.9875, 2.9017, 0, -0.9688, 2.9517, 0, -0.75, 3.1392, 0.2, -0.8, 3.1205, 0.2, -0.8, 3.1205, 0, -0.75, 3.1392, 0.2, -0.8, 3.1205, 0, -0.75, 3.1392, 0, -0.8969, 3.0486, 0.2, -0.9375, 3.0017, 0.2, -0.9375, 3.0017, 0, -0.8969, 3.0486, 0.2, -0.9375, 3.0017, 0, -0.8969, 3.0486, 0, 0.5875, 3.1517, 0, 0.6844, 3.1486, 0, 0.6844, 3.1486, 0.2, 0.5875, 3.1517, 0, 0.6844, 3.1486, 0.2, 0.5875, 3.1517, 0.2, -0.6844, 3.1486, 0.2, -0.75, 3.1392, 0.2, -0.75, 3.1392, 0, -0.6844, 3.1486, 0.2, -0.75, 3.1392, 0, -0.6844, 3.1486, 0, -0.9375, 3.0017, 0.2, -0.9688, 2.9517, 0.2, -0.9688, 2.9517, 0, -0.9375, 3.0017, 0.2, -0.9688, 2.9517, 0, -0.9375, 3.0017, 0, -0.5875, 3.1517, 0.2, -0.5875, 3.1517, 0, 0.5875, 3.1517, 0, -0.5875, 3.1517, 0.2, 0.5875, 3.1517, 0, 0.5875, 3.1517, 0.2, -0.5875, 3.1517, 0.2, -0.6844, 3.1486, 0.2, -0.6844, 3.1486, 0, -0.5875, 3.1517, 0.2, -0.6844, 3.1486, 0, -0.5875, 3.1517, 0, 0.85, 3.0892, 0, 0.8969, 3.0486, 0, 0.8969, 3.0486, 0.2, 0.85, 3.0892, 0, 0.8969, 3.0486, 0.2, 0.85, 3.0892, 0.2, -0.9875, 2.9017, 0.2, -0.9969, 2.8181, 0.2, -0.9969, 2.8181, 0, -0.9875, 2.9017, 0.2, -0.9969, 2.8181, 0, -0.9875, 2.9017, 0, 0.6844, 3.1486, 0, 0.75, 3.1392, 0, 0.75, 3.1392, 0.2, 0.6844, 3.1486, 0, 0.75, 3.1392, 0.2, 0.6844, 3.1486, 0.2, 0.9969, 2.8181, 0, 1, 2.6672, 0, 1, 2.6672, 0.2, 0.9969, 2.8181, 0, 1, 2.6672, 0.2, 0.9969, 2.8181, 0.2, 0.9875, 2.9017, 0, 0.9969, 2.8181, 0, 0.9969, 2.8181, 0.2, 0.9875, 2.9017, 0, 0.9969, 2.8181, 0.2, 0.9875, 2.9017, 0.2, 0.75, 3.1392, 0, 0.8, 3.1205, 0, 0.8, 3.1205, 0.2, 0.75, 3.1392, 0, 0.8, 3.1205, 0.2, 0.75, 3.1392, 0.2, -0.8, 3.1205, 0.2, -0.85, 3.0892, 0.2, -0.85, 3.0892, 0, -0.8, 3.1205, 0.2, -0.85, 3.0892, 0, -0.8, 3.1205, 0, 0.5875, 3.1517, 0.2, 0.5843, 2.9517, 0.2, -0.5843, 2.9517, 0.2, 0.5875, 3.1517, 0.2, -0.5843, 2.9517, 0.2, -0.5875, 3.1517, 0.2, -0.7915, 2.8548, 0.1, -0.7971, 2.8049, 0.1, -0.7971, 2.8049, 0.2, -0.7915, 2.8548, 0.1, -0.7971, 2.8049, 0.2, -0.7915, 2.8548, 0.2, 0.7308, 2.9279, 0.2, 0.7551, 2.9068, 0.2, 0.7551, 2.9068, 0.1, 0.7308, 2.9279, 0.2, 0.7551, 2.9068, 0.1, 0.7308, 2.9279, 0.1, -0.7885, 2.8627, 0.1, -0.7915, 2.8548, 0.1, -0.7915, 2.8548, 0.2, -0.7885, 2.8627, 0.1, -0.7915, 2.8548, 0.2, -0.7885, 2.8627, 0.2, 0.9375, 3.0017, 0, 0.9688, 2.9517, 0, 0.9688, 2.9517, 0.2, 0.9375, 3.0017, 0, 0.9688, 2.9517, 0.2, 0.9375, 3.0017, 0.2, -0.9969, 2.8181, 0.2, -1, 2.6672, 0.2, -1, 2.6672, 0, -0.9969, 2.8181, 0.2, -1, 2.6672, 0, -0.9969, 2.8181, 0, 0.8969, 3.0486, 0, 0.9375, 3.0017, 0, 0.9375, 3.0017, 0.2, 0.8969, 3.0486, 0, 0.9375, 3.0017, 0.2, 0.8969, 3.0486, 0.2, 1, 1.1006, 0.2, 1, 0.2003, 0.2, 0.8, 0.2003, 0.2, 1, 1.1006, 0.2, 0.8, 0.2003, 0.2, 0.8, 1.0999, 0.2, 0.8, 1.2996, 0.1, -0.8, 1.2996, 0.1, -0.8, 2.6652, 0.1, 0.8, 2.6652, 0.1, 0.8, 1.2996, 0.1, -0.8, 2.6652, 0.1, -0.8, 1.0999, 0.1, -0.8, 0.2003, 0.1, -0.8, 0.2003, 0.2, -0.8, 1.0999, 0.1, -0.8, 0.2003, 0.2, -0.8, 1.0999, 0.2, -1, 2.6672, 0.2, -1, 1.3009, 0.2, -1, 1.3009, 0, -1, 2.6672, 0.2, -1, 1.3009, 0, -1, 2.6672, 0, 1, 1.1006, 0, 1, 0.2003, 0, 1, 0.2003, 0.2, 1, 1.1006, 0, 1, 0.2003, 0.2, 1, 1.1006, 0.2, 0.8, 2.6652, 0.1, -0.8, 2.6652, 0.1, 0.5843, 2.9517, 0.1, 0.7971, 2.8049, 0.1, 0.8, 2.6652, 0.1, 0.5843, 2.9517, 0.1, -0.5843, 2.9517, 0.1, -0.8, 2.6652, 0.1, -0.7971, 2.8049, 0.1, 0.7915, 2.8548, 0.1, 0.7971, 2.8049, 0.1, 0.7762, 2.8825, 0.1, -0.5843, 2.9517, 0.1, -0.7971, 2.8049, 0.1, -0.667, 2.9491, 0.1, -0.7885, 2.8627, 0.1, -0.7762, 2.8825, 0.1, -0.7915, 2.8548, 0.1, -0.7971, 2.8049, 0.1, -0.7551, 2.9068, 0.1, -0.667, 2.9491, 0.1, 0.667, 2.9491, 0.1, 0.7551, 2.9068, 0.1, 0.7971, 2.8049, 0.1, 0.7915, 2.8548, 0.1, 0.7762, 2.8825, 0.1, 0.7885, 2.8627, 0.1, 0.7971, 2.8049, 0.1, 0.7551, 2.9068, 0.1, 0.7762, 2.8825, 0.1, -0.7308, 2.9279, 0.1, -0.7002, 2.9443, 0.1, -0.667, 2.9491, 0.1, 0.7551, 2.9068, 0.1, 0.667, 2.9491, 0.1, 0.7308, 2.9279, 0.1, 0.667, 2.9491, 0.1, 0.7971, 2.8049, 0.1, 0.5843, 2.9517, 0.1, -0.7308, 2.9279, 0.1, -0.667, 2.9491, 0.1, -0.7551, 2.9068, 0.1, 0.5843, 2.9517, 0.1, -0.8, 2.6652, 0.1, -0.5843, 2.9517, 0.1, 0.667, 2.9491, 0.1, 0.7002, 2.9443, 0.1, 0.7308, 2.9279, 0.1, -0.7762, 2.8825, 0.1, -0.7551, 2.9068, 0.1, -0.7971, 2.8049, 0.1, 0.7308, 2.9279, 0.1, 0.7002, 2.9443, 0.1, 0.711, 2.9402, 0.1, -0.711, 2.9402, 0.1, -0.7002, 2.9443, 0.1, -0.7308, 2.9279, 0.1, -0.7762, 2.8825, 0.1, -0.7971, 2.8049, 0.1, -0.7915, 2.8548, 0.1, -0.8, 0.2003, 0.2, -0.8, 0.0003, 0.2, -1, 0.0003, 0.2, -0.8, 0.2003, 0.2, -1, 0.0003, 0.2, -1, 0.2003, 0.2, -1, 0.2003, 0.2, -1, 0.0003, 0.2, -1, 0.0003, 0, -1, 0.2003, 0.2, -1, 0.0003, 0, -1, 0.2003, 0, 1, 0.2003, 0, 1, 0.0003, 0, 1, 0.0003, 0.2, 1, 0.2003, 0, 1, 0.0003, 0.2, 1, 0.2003, 0.2, -0.8, 0.2003, 0.2, -0.8, 0.2003, 0.1, 0.8, 0.2003, 0.1, -0.8, 0.2003, 0.2, 0.8, 0.2003, 0.1, 0.8, 0.2003, 0.2, 0.8, 0.2003, 0.2, 0.8, 0.0003, 0.2, -0.8, 0.0003, 0.2, 0.8, 0.2003, 0.2, -0.8, 0.0003, 0.2, -0.8, 0.2003, 0.2, 1, 0.2003, 0.2, 1, 0.0003, 0.2, 0.8, 0.0003, 0.2, 1, 0.2003, 0.2, 0.8, 0.0003, 0.2, 0.8, 0.2003, 0.2, 0.8, 0.0003, 0.2, 0.8, 0.0003, 0, -0.8, 0.0003, 0, 0.8, 0.0003, 0.2, -0.8, 0.0003, 0, -0.8, 0.0003, 0.2, 1, 0.0003, 0, 0.8, 0.0003, 0, 0.8, 0.0003, 0.2, 1, 0.0003, 0.2, 1, 0.0003, 0, 0.8, 0.0003, 0.2, -0.8, 0.0003, 0.2, -0.8, 0.0003, 0, -1, 0.0003, 0, -0.8, 0.0003, 0.2, -1, 0.0003, 0, -1, 0.0003, 0.2, -1, 0.2003, 0, -1, 0.0003, 0, -0.8, 0.0003, 0, -1, 0.2003, 0, -0.8, 0.0003, 0, 0.8, 0.0003, 0, -1, 0.2003, 0, 0.8, 0.0003, 0, 1, 0.0003, 0, -1, 0.2003, 0, 1, 0.0003, 0, 1, 0.2003, 0, -1, 1.1006, 0, -1, 0.2003, 0, 1, 0.2003, 0, -1, 1.1006, 0, 1, 0.2003, 0, 1, 1.1006, 0, -1, 2.6672, 0, -1, 1.3009, 0, 1, 1.3009, 0, -1, 2.6672, 0, 1, 1.3009, 0, 1, 2.6672, 0, -0.9969, 2.8181, 0, -1, 2.6672, 0, 1, 2.6672, 0, -0.9969, 2.8181, 0, 1, 2.6672, 0, 0.9969, 2.8181, 0, -0.9875, 2.9017, 0, -0.9969, 2.8181, 0, 0.9969, 2.8181, 0, -0.9875, 2.9017, 0, 0.9969, 2.8181, 0, 0.9875, 2.9017, 0, -0.9688, 2.9517, 0, -0.9875, 2.9017, 0, 0.9875, 2.9017, 0, -0.9688, 2.9517, 0, 0.9875, 2.9017, 0, 0.9688, 2.9517, 0, -0.9375, 3.0017, 0, -0.9688, 2.9517, 0, 0.9688, 2.9517, 0, -0.9375, 3.0017, 0, 0.9688, 2.9517, 0, 0.9375, 3.0017, 0, -0.8969, 3.0486, 0, -0.9375, 3.0017, 0, 0.9375, 3.0017, 0, -0.8969, 3.0486, 0, 0.9375, 3.0017, 0, 0.8969, 3.0486, 0, -0.85, 3.0892, 0, -0.8969, 3.0486, 0, 0.8969, 3.0486, 0, -0.85, 3.0892, 0, 0.8969, 3.0486, 0, 0.85, 3.0892, 0, -0.8, 3.1205, 0, -0.85, 3.0892, 0, 0.85, 3.0892, 0, -0.8, 3.1205, 0, 0.85, 3.0892, 0, 0.8, 3.1205, 0, -0.75, 3.1392, 0, -0.8, 3.1205, 0, 0.8, 3.1205, 0, -0.75, 3.1392, 0, 0.8, 3.1205, 0, 0.75, 3.1392, 0, -0.6844, 3.1486, 0, -0.75, 3.1392, 0, 0.75, 3.1392, 0, -0.6844, 3.1486, 0, 0.75, 3.1392, 0, 0.6844, 3.1486, 0, -0.5875, 3.1517, 0, -0.6844, 3.1486, 0, 0.6844, 3.1486, 0, -0.5875, 3.1517, 0, 0.6844, 3.1486, 0, 0.5875, 3.1517, 0, -1, 1.3009, 0, -1, 1.1006, 0, 1, 1.1006, 0, -1, 1.3009, 0, 1, 1.1006, 0, 1, 1.3009, 0, 1, 2.6672, 0, 1, 1.3009, 0, 1, 1.3009, 0.2, 1, 2.6672, 0, 1, 1.3009, 0.2, 1, 2.6672, 0.2, 1, 1.3009, 0, 1, 1.1006, 0, 1, 1.1006, 0.2, 1, 1.3009, 0, 1, 1.1006, 0.2, 1, 1.3009, 0.2, -1, 1.1006, 0.2, -1, 0.2003, 0.2, -1, 0.2003, 0, -1, 1.1006, 0.2, -1, 0.2003, 0, -1, 1.1006, 0, -1, 1.3009, 0.2, -1, 1.1006, 0.2, -1, 1.1006, 0, -1, 1.3009, 0.2, -1, 1.1006, 0, -1, 1.3009, 0, -0.8, 2.6652, 0.1, -0.8, 1.2996, 0.1, -0.8, 1.2996, 0.2, -0.8, 2.6652, 0.1, -0.8, 1.2996, 0.2, -0.8, 2.6652, 0.2, -0.8, 1.2996, 0.2, -0.8, 1.2996, 0.1, 0.8, 1.2996, 0.1, -0.8, 1.2996, 0.2, 0.8, 1.2996, 0.1, 0.8, 1.2996, 0.2, 0.8, 1.0999, 0.1, 0.8, 0.2003, 0.1, -0.8, 0.2003, 0.1, 0.8, 1.0999, 0.1, -0.8, 0.2003, 0.1, -0.8, 1.0999, 0.1, 0.8, 1.0999, 0.2, 0.8, 1.0999, 0.1, -0.8, 1.0999, 0.1, 0.8, 1.0999, 0.2, -0.8, 1.0999, 0.1, -0.8, 1.0999, 0.2, 1, 1.3009, 0.2, 0.8, 1.2996, 0.2, 0.8, 2.6652, 0.2, 1, 2.6672, 0.2, 1, 1.3009, 0.2, 0.8, 2.6652, 0.2, 1, 1.1006, 0.2, 0.8, 1.0999, 0.2, 0.8, 1.2996, 0.2, 1, 1.3009, 0.2, 1, 1.1006, 0.2, 0.8, 1.2996, 0.2, -0.8, 2.6652, 0.2, -0.8, 1.2996, 0.2, -1, 1.3009, 0.2, -0.8, 2.6652, 0.2, -1, 1.3009, 0.2, -1, 2.6672, 0.2, -0.8, 1.2996, 0.2, -0.8, 1.0999, 0.2, -1, 1.1006, 0.2, -0.8, 1.2996, 0.2, -1, 1.1006, 0.2, -1, 1.3009, 0.2, 0.8, 1.0999, 0.2, 0.8, 0.2003, 0.2, 0.8, 0.2003, 0.1, 0.8, 1.0999, 0.2, 0.8, 0.2003, 0.1, 0.8, 1.0999, 0.1, 0.8, 1.2996, 0.2, 0.8, 1.0999, 0.2, -0.8, 1.0999, 0.2, 0.8, 1.2996, 0.2, -0.8, 1.0999, 0.2, -0.8, 1.2996, 0.2 )

[sub_resource type="SpatialMaterial" id=6]

render_priority = 0
flags_transparent = false
flags_unshaded = true
flags_vertex_lighting = false
flags_no_depth_test = false
flags_use_point_size = false
flags_world_triplanar = false
flags_fixed_size = true
flags_albedo_tex_force_srgb = false
flags_do_not_receive_shadows = false
flags_disable_ambient_light = false
flags_ensure_correct_normals = false
vertex_color_use_as_albedo = false
vertex_color_is_srgb = false
params_diffuse_mode = 0
params_specular_mode = 0
params_blend_mode = 0
params_cull_mode = 0
params_depth_draw_mode = 0
params_line_width = 3.0
params_point_size = 5.0
params_billboard_mode = 0
params_billboard_keep_scale = false
params_grow = false
params_use_alpha_scissor = false
albedo_color = Color( 1, 1, 1, 1 )
metallic = 0.0
metallic_specular = 0.5
metallic_texture_channel = 0
roughness = 1.0
roughness_texture_channel = 0
emission_enabled = true
emission = Color( 1, 1, 1, 1 )
emission_energy = 1.0
emission_operator = 0
emission_on_uv2 = false
normal_enabled = false
rim_enabled = false
clearcoat_enabled = false
anisotropy_enabled = false
ao_enabled = false
depth_enabled = false
subsurf_scatter_enabled = false
transmission_enabled = false
refraction_enabled = false
detail_enabled = false
uv1_scale = Vector3( 1, 1, 1 )
uv1_offset = Vector3( 0, 0, 0 )
uv1_triplanar = false
uv1_triplanar_sharpness = 1.0
uv2_scale = Vector3( 1, 1, 1 )
uv2_offset = Vector3( 0, 0, 0 )
uv2_triplanar = false
uv2_triplanar_sharpness = 1.0
proximity_fade_enable = false
distance_fade_mode = 0
_sections_unfolded = [ "Albedo", "Emission", "Flags", "Parameters", "Vertex Color" ]

[sub_resource type="SpatialMaterial" id=7]

render_priority = 0
flags_transparent = false
flags_unshaded = true
flags_vertex_lighting = false
flags_no_depth_test = false
flags_use_point_size = false
flags_world_triplanar = false
flags_fixed_size = true
flags_albedo_tex_force_srgb = false
flags_do_not_receive_shadows = false
flags_disable_ambient_light = false
flags_ensure_correct_normals = false
vertex_color_use_as_albedo = false
vertex_color_is_srgb = false
params_diffuse_mode = 0
params_specular_mode = 0
params_blend_mode = 0
params_cull_mode = 0
params_depth_draw_mode = 0
params_line_width = 3.0
params_point_size = 5.0
params_billboard_mode = 0
params_billboard_keep_scale = false
params_grow = false
params_use_alpha_scissor = false
albedo_color = Color( 1, 1, 1, 1 )
metallic = 0.0
metallic_specular = 0.5
metallic_texture_channel = 0
roughness = 1.0
roughness_texture_channel = 0
emission_enabled = true
emission = Color( 0, 1, 0.368627, 1 )
emission_energy = 1.0
emission_operator = 0
emission_on_uv2 = false
normal_enabled = false
rim_enabled = false
clearcoat_enabled = false
anisotropy_enabled = false
ao_enabled = false
depth_enabled = false
subsurf_scatter_enabled = false
transmission_enabled = false
refraction_enabled = false
detail_enabled = false
uv1_scale = Vector3( 1, 1, 1 )
uv1_offset = Vector3( 0, 0, 0 )
uv1_triplanar = false
uv1_triplanar_sharpness = 1.0
uv2_scale = Vector3( 1, 1, 1 )
uv2_offset = Vector3( 0, 0, 0 )
uv2_triplanar = false
uv2_triplanar_sharpness = 1.0
proximity_fade_enable = false
distance_fade_mode = 0
_sections_unfolded = [ "Albedo", "Emission", "Flags", "Parameters", "Vertex Color" ]

[sub_resource type="SpatialMaterial" id=8]

render_priority = 0
flags_transparent = true
flags_unshaded = false
flags_vertex_lighting = true
flags_no_depth_test = true
flags_use_point_size = false
flags_world_triplanar = false
flags_fixed_size = false
flags_albedo_tex_force_srgb = false
flags_do_not_receive_shadows = false
flags_disable_ambient_light = false
flags_ensure_correct_normals = false
vertex_color_use_as_albedo = true
vertex_color_is_srgb = false
params_diffuse_mode = 0
params_specular_mode = 0
params_blend_mode = 0
params_cull_mode = 0
params_depth_draw_mode = 3
params_line_width = 1.0
params_point_size = 1.0
params_billboard_mode = 3
params_billboard_keep_scale = false
params_grow = false
params_use_alpha_scissor = false
particles_anim_h_frames = 1
particles_anim_v_frames = 1
particles_anim_loop = 0
albedo_color = Color( 1, 1, 1, 1 )
albedo_texture = ExtResource( 7 )
metallic = 0.0
metallic_specular = 0.5
metallic_texture_channel = 0
roughness = 1.0
roughness_texture_channel = 0
emission_enabled = true
emission = Color( 1, 1, 1, 1 )
emission_energy = 0.2
emission_operator = 0
emission_on_uv2 = false
normal_enabled = false
rim_enabled = false
clearcoat_enabled = false
anisotropy_enabled = false
ao_enabled = false
depth_enabled = false
subsurf_scatter_enabled = false
transmission_enabled = true
transmission = Color( 1, 1, 1, 1 )
refraction_enabled = false
detail_enabled = false
uv1_scale = Vector3( 1, 1, 1 )
uv1_offset = Vector3( 0, 0, 0 )
uv1_triplanar = false
uv1_triplanar_sharpness = 1.0
uv2_scale = Vector3( 1, 1, 1 )
uv2_offset = Vector3( 0, 0, 0 )
uv2_triplanar = false
uv2_triplanar_sharpness = 1.0
proximity_fade_enable = true
proximity_fade_distance = 0.0
distance_fade_mode = 1
distance_fade_min_distance = 0.0
distance_fade_max_distance = 10.0
_sections_unfolded = [ "Albedo", "Distance Fade", "Emission", "Flags", "Parameters", "Particles Anim", "Proximity Fade", "Transmission", "Vertex Color", "albedo_texture" ]

[sub_resource type="QuadMesh" id=9]

material = SubResource( 8 )
custom_aabb = AABB( 0, 0, 0, 0, 0, 0 )
flip_faces = false
size = Vector2( 1, 1 )

[sub_resource type="GDScript" id=10]

script/source = "extends Particles

# Declare member variables here. Examples:
# var a = 2
# var b = \"text\"

# Called when the node enters the scene tree for the first time.
func _ready():
	set_process(true)

func _process(dt):
	self.translation.x = Game.player.translation.x"

[sub_resource type="BoxShape" id=11]

margin = 0.04
extents = Vector3( 1.65933, 0.725849, 1.41309 )

[sub_resource type="GDScript" id=12]

script/source = "extends Area

# Declare member variables here. Examples:
# var a = 2
# var b = \"text\"

# Called when the node enters the scene tree for the first time.
func _ready():
	pass # Replace with function body.

# Called every frame. 'delta' is the elapsed time since the previous frame.
#func _process(delta):
#	pass


func _on_Floor1Area_body_entered(body):
	if body.is_in_group(\"Player\"):
		get_node(\"../WindStreamPlayer\")._set_indoor()
		Game.cam._set_fixed_look(get_node(\"../CamTargetFloor1\").translation)
		get_node(\"../Snow\").visible = false
"

[sub_resource type="BoxShape" id=13]

margin = 0.04
extents = Vector3( 4.21188, 1.02273, 7.17997 )

[sub_resource type="GDScript" id=14]

script/source = "extends Area

# Declare member variables here. Examples:
# var a = 2
# var b = \"text\"

# Called when the node enters the scene tree for the first time.
func _ready():
	pass # Replace with function body.

# Called every frame. 'delta' is the elapsed time since the previous frame.
#func _process(delta):
#	pass


func _on_Floor2Area_body_entered(body):
	if body.is_in_group(\"Player\"):
		Game.cam._set_fixed_look(get_node(\"../CamTargetFloor2\").translation)
"

[sub_resource type="BoxShape" id=15]

margin = 0.04
extents = Vector3( 4.21188, 0.608918, 7.17997 )

[sub_resource type="GDScript" id=16]

script/source = "extends Area

# Declare member variables here. Examples:
# var a = 2
# var b = \"text\"

# Called when the node enters the scene tree for the first time.
func _ready():
	pass # Replace with function body.

# Called every frame. 'delta' is the elapsed time since the previous frame.
#func _process(delta):
#	pass


func _on_OutdoorsTrigger_body_entered(body):
	if body.is_in_group(\"Player\"):
		get_node(\"../WindStreamPlayer\")._set_outdoor()
		Game.cam._set_fixed_follow()
		get_node(\"../Snow\").visible = true
"

[sub_resource type="BoxShape" id=17]

margin = 0.04
extents = Vector3( 1.76188, 2.28892, 2.49997 )

[sub_resource type="BoxShape" id=18]

margin = 0.04
extents = Vector3( 0.134863, 0.382093, 0.138675 )

[sub_resource type="BoxShape" id=19]

margin = 0.04
extents = Vector3( 0.129, 1.20833, 0.686968 )

[sub_resource type="CubeMesh" id=20]

material = ExtResource( 9 )
custom_aabb = AABB( 0, 0, 0, 0, 0, 0 )
flip_faces = false
size = Vector3( 0.24, 2.98, 2.02 )
subdivide_width = 0
subdivide_height = 0
subdivide_depth = 0

[sub_resource type="CubeMesh" id=21]

material = ExtResource( 9 )
custom_aabb = AABB( 0, 0, 0, 0, 0, 0 )
flip_faces = false
size = Vector3( 0.32, 1.64, 1.01 )
subdivide_width = 0
subdivide_height = 0
subdivide_depth = 0

[sub_resource type="BoxShape" id=22]

margin = 0.04
extents = Vector3( 5.87423, 3.81463, 9.78905 )

[sub_resource type="SpatialMaterial" id=23]

render_priority = 0
flags_transparent = false
flags_unshaded = false
flags_vertex_lighting = false
flags_no_depth_test = false
flags_use_point_size = false
flags_world_triplanar = false
flags_fixed_size = false
flags_albedo_tex_force_srgb = false
flags_do_not_receive_shadows = false
flags_disable_ambient_light = false
flags_ensure_correct_normals = false
vertex_color_use_as_albedo = false
vertex_color_is_srgb = false
params_diffuse_mode = 0
params_specular_mode = 0
params_blend_mode = 0
params_cull_mode = 0
params_depth_draw_mode = 0
params_line_width = 1.0
params_point_size = 1.0
params_billboard_mode = 0
params_billboard_keep_scale = false
params_grow = false
params_use_alpha_scissor = false
albedo_color = Color( 1, 1, 1, 1 )
metallic = 0.0
metallic_specular = 0.5
metallic_texture_channel = 0
roughness = 1.0
roughness_texture_channel = 0
emission_enabled = false
normal_enabled = false
rim_enabled = false
clearcoat_enabled = false
anisotropy_enabled = false
ao_enabled = false
depth_enabled = false
subsurf_scatter_enabled = false
transmission_enabled = false
refraction_enabled = false
detail_enabled = false
uv1_scale = Vector3( 1, 1, 1 )
uv1_offset = Vector3( 0, 0, 0 )
uv1_triplanar = false
uv1_triplanar_sharpness = 1.0
uv2_scale = Vector3( 1, 1, 1 )
uv2_offset = Vector3( 0, 0, 0 )
uv2_triplanar = false
uv2_triplanar_sharpness = 1.0
proximity_fade_enable = false
distance_fade_mode = 0

[sub_resource type="QuadMesh" id=24]

custom_aabb = AABB( 0, 0, 0, 0, 0, 0 )
flip_faces = false
size = Vector2( 3.329, 2.101 )

[sub_resource type="GDScript" id=25]

script/source = "extends MeshInstance

onready var screenLevel2A = get_node(\"../ScreenLevel2A\")
onready var screenLevel2B = get_node(\"../ScreenLevel2B\")
onready var screenLevel2C = get_node(\"../ScreenLevel2C\")

func _ready():
	set_process(false)
	
	var viewport = get_node(\"../Viewport\")
	var viewport2 = get_node(\"../Viewport2\")
	var viewport3 = get_node(\"../Viewport3\")
	var viewport_main = get_node(\"../ViewportMain\")
	viewport.set_clear_mode(Viewport.CLEAR_MODE_ONLY_NEXT_FRAME)
	viewport2.set_clear_mode(Viewport.CLEAR_MODE_ONLY_NEXT_FRAME)
	viewport3.set_clear_mode(Viewport.CLEAR_MODE_ONLY_NEXT_FRAME)
	viewport_main.set_clear_mode(Viewport.CLEAR_MODE_ONLY_NEXT_FRAME)
	
	yield(get_tree(), \"idle_frame\")
	yield(get_tree(), \"idle_frame\")
	
	self.material_override.albedo_texture = viewport_main.get_texture()
	
	screenLevel2A.material_override.albedo_texture = viewport.get_texture()
	screenLevel2B.material_override.albedo_texture = viewport2.get_texture()
	screenLevel2C.material_override.albedo_texture = viewport3.get_texture()
	self.material_override.albedo_texture = viewport_main.get_texture()
	
	screenLevel2A.material_override.emission_enabled = true
	screenLevel2B.material_override.emission_enabled = true
	screenLevel2C.material_override.emission_enabled = true
	self.material_override.emission_enabled = true
	
	screenLevel2A.material_override.emission_texture = viewport.get_texture()
	screenLevel2B.material_override.emission_texture = viewport2.get_texture()
	screenLevel2C.material_override.emission_texture = viewport3.get_texture()
	self.material_override.emission_texture = viewport_main.get_texture()
	


"

[sub_resource type="BoxShape" id=26]

margin = 0.04
extents = Vector3( 0.317627, 0.354739, 0.33497 )

[sub_resource type="SpatialMaterial" id=27]

render_priority = 0
flags_transparent = false
flags_unshaded = false
flags_vertex_lighting = false
flags_no_depth_test = false
flags_use_point_size = false
flags_world_triplanar = false
flags_fixed_size = false
flags_albedo_tex_force_srgb = false
flags_do_not_receive_shadows = false
flags_disable_ambient_light = false
flags_ensure_correct_normals = false
vertex_color_use_as_albedo = false
vertex_color_is_srgb = false
params_diffuse_mode = 0
params_specular_mode = 0
params_blend_mode = 0
params_cull_mode = 0
params_depth_draw_mode = 0
params_line_width = 1.0
params_point_size = 1.0
params_billboard_mode = 0
params_billboard_keep_scale = false
params_grow = false
params_use_alpha_scissor = false
albedo_color = Color( 1, 1, 1, 1 )
metallic = 0.0
metallic_specular = 0.5
metallic_texture_channel = 0
roughness = 1.0
roughness_texture_channel = 0
emission_enabled = false
normal_enabled = false
rim_enabled = false
clearcoat_enabled = false
anisotropy_enabled = false
ao_enabled = false
depth_enabled = false
subsurf_scatter_enabled = false
transmission_enabled = false
refraction_enabled = false
detail_enabled = false
uv1_scale = Vector3( 1, 1, 1 )
uv1_offset = Vector3( 0, 0, 0 )
uv1_triplanar = false
uv1_triplanar_sharpness = 1.0
uv2_scale = Vector3( 1, 1, 1 )
uv2_offset = Vector3( 0, 0, 0 )
uv2_triplanar = false
uv2_triplanar_sharpness = 1.0
proximity_fade_enable = false
distance_fade_mode = 0

[sub_resource type="QuadMesh" id=28]

custom_aabb = AABB( 0, 0, 0, 0, 0, 0 )
flip_faces = false
size = Vector2( 1.083, 0.898 )

[sub_resource type="SpatialMaterial" id=29]

render_priority = 0
flags_transparent = false
flags_unshaded = false
flags_vertex_lighting = false
flags_no_depth_test = false
flags_use_point_size = false
flags_world_triplanar = false
flags_fixed_size = false
flags_albedo_tex_force_srgb = false
flags_do_not_receive_shadows = false
flags_disable_ambient_light = false
flags_ensure_correct_normals = false
vertex_color_use_as_albedo = false
vertex_color_is_srgb = false
params_diffuse_mode = 0
params_specular_mode = 0
params_blend_mode = 0
params_cull_mode = 0
params_depth_draw_mode = 0
params_line_width = 1.0
params_point_size = 1.0
params_billboard_mode = 0
params_billboard_keep_scale = false
params_grow = false
params_use_alpha_scissor = false
albedo_color = Color( 0.184314, 0.184314, 0.184314, 1 )
metallic = 1.0
metallic_specular = 0.5
metallic_texture_channel = 0
roughness = 0.09
roughness_texture_channel = 0
emission_enabled = true
emission = Color( 1, 0, 0, 1 )
emission_energy = 1.0
emission_operator = 0
emission_on_uv2 = false
normal_enabled = false
rim_enabled = false
clearcoat_enabled = false
anisotropy_enabled = false
ao_enabled = false
depth_enabled = false
subsurf_scatter_enabled = false
transmission_enabled = false
refraction_enabled = false
detail_enabled = false
uv1_scale = Vector3( 1, 1, 1 )
uv1_offset = Vector3( 0, 0, 0 )
uv1_triplanar = false
uv1_triplanar_sharpness = 1.0
uv2_scale = Vector3( 1, 1, 1 )
uv2_offset = Vector3( 0, 0, 0 )
uv2_triplanar = false
uv2_triplanar_sharpness = 1.0
proximity_fade_enable = false
distance_fade_mode = 0
_sections_unfolded = [ "Albedo", "Emission", "Metallic" ]

[sub_resource type="SpatialMaterial" id=30]

render_priority = 0
flags_transparent = false
flags_unshaded = false
flags_vertex_lighting = false
flags_no_depth_test = false
flags_use_point_size = false
flags_world_triplanar = false
flags_fixed_size = false
flags_albedo_tex_force_srgb = false
flags_do_not_receive_shadows = false
flags_disable_ambient_light = false
flags_ensure_correct_normals = false
vertex_color_use_as_albedo = false
vertex_color_is_srgb = false
params_diffuse_mode = 0
params_specular_mode = 0
params_blend_mode = 0
params_cull_mode = 0
params_depth_draw_mode = 0
params_line_width = 1.0
params_point_size = 1.0
params_billboard_mode = 0
params_billboard_keep_scale = false
params_grow = false
params_use_alpha_scissor = false
albedo_color = Color( 1, 1, 1, 1 )
metallic = 0.0
metallic_specular = 0.5
metallic_texture_channel = 0
roughness = 1.0
roughness_texture_channel = 0
emission_enabled = false
normal_enabled = false
rim_enabled = false
clearcoat_enabled = false
anisotropy_enabled = false
ao_enabled = false
depth_enabled = false
subsurf_scatter_enabled = false
transmission_enabled = false
refraction_enabled = false
detail_enabled = false
uv1_scale = Vector3( 1, 1, 1 )
uv1_offset = Vector3( 0, 0, 0 )
uv1_triplanar = false
uv1_triplanar_sharpness = 1.0
uv2_scale = Vector3( 1, 1, 1 )
uv2_offset = Vector3( 0, 0, 0 )
uv2_triplanar = false
uv2_triplanar_sharpness = 1.0
proximity_fade_enable = false
distance_fade_mode = 0

[sub_resource type="SpatialMaterial" id=31]

render_priority = 0
flags_transparent = false
flags_unshaded = false
flags_vertex_lighting = false
flags_no_depth_test = false
flags_use_point_size = false
flags_world_triplanar = false
flags_fixed_size = false
flags_albedo_tex_force_srgb = false
flags_do_not_receive_shadows = false
flags_disable_ambient_light = false
flags_ensure_correct_normals = false
vertex_color_use_as_albedo = false
vertex_color_is_srgb = false
params_diffuse_mode = 0
params_specular_mode = 0
params_blend_mode = 0
params_cull_mode = 0
params_depth_draw_mode = 0
params_line_width = 1.0
params_point_size = 1.0
params_billboard_mode = 0
params_billboard_keep_scale = false
params_grow = false
params_use_alpha_scissor = false
albedo_color = Color( 0.184314, 0.184314, 0.184314, 1 )
metallic = 1.0
metallic_specular = 0.5
metallic_texture_channel = 0
roughness = 0.09
roughness_texture_channel = 0
emission_enabled = true
emission = Color( 1, 0, 0, 1 )
emission_energy = 1.0
emission_operator = 0
emission_on_uv2 = false
normal_enabled = false
rim_enabled = false
clearcoat_enabled = false
anisotropy_enabled = false
ao_enabled = false
depth_enabled = false
subsurf_scatter_enabled = false
transmission_enabled = false
refraction_enabled = false
detail_enabled = false
uv1_scale = Vector3( 1, 1, 1 )
uv1_offset = Vector3( 0, 0, 0 )
uv1_triplanar = false
uv1_triplanar_sharpness = 1.0
uv2_scale = Vector3( 1, 1, 1 )
uv2_offset = Vector3( 0, 0, 0 )
uv2_triplanar = false
uv2_triplanar_sharpness = 1.0
proximity_fade_enable = false
distance_fade_mode = 0
_sections_unfolded = [ "Albedo", "Emission", "Metallic" ]

[sub_resource type="SpatialMaterial" id=32]

render_priority = 0
flags_transparent = false
flags_unshaded = false
flags_vertex_lighting = false
flags_no_depth_test = false
flags_use_point_size = false
flags_world_triplanar = false
flags_fixed_size = false
flags_albedo_tex_force_srgb = false
flags_do_not_receive_shadows = false
flags_disable_ambient_light = false
flags_ensure_correct_normals = false
vertex_color_use_as_albedo = false
vertex_color_is_srgb = false
params_diffuse_mode = 0
params_specular_mode = 0
params_blend_mode = 0
params_cull_mode = 0
params_depth_draw_mode = 0
params_line_width = 1.0
params_point_size = 1.0
params_billboard_mode = 0
params_billboard_keep_scale = false
params_grow = false
params_use_alpha_scissor = false
albedo_color = Color( 1, 1, 1, 1 )
metallic = 0.0
metallic_specular = 0.5
metallic_texture_channel = 0
roughness = 1.0
roughness_texture_channel = 0
emission_enabled = false
normal_enabled = false
rim_enabled = false
clearcoat_enabled = false
anisotropy_enabled = false
ao_enabled = false
depth_enabled = false
subsurf_scatter_enabled = false
transmission_enabled = false
refraction_enabled = false
detail_enabled = false
uv1_scale = Vector3( 1, 1, 1 )
uv1_offset = Vector3( 0, 0, 0 )
uv1_triplanar = false
uv1_triplanar_sharpness = 1.0
uv2_scale = Vector3( 1, 1, 1 )
uv2_offset = Vector3( 0, 0, 0 )
uv2_triplanar = false
uv2_triplanar_sharpness = 1.0
proximity_fade_enable = false
distance_fade_mode = 0

[sub_resource type="SpatialMaterial" id=33]

render_priority = 0
flags_transparent = false
flags_unshaded = false
flags_vertex_lighting = false
flags_no_depth_test = false
flags_use_point_size = false
flags_world_triplanar = false
flags_fixed_size = false
flags_albedo_tex_force_srgb = false
flags_do_not_receive_shadows = false
flags_disable_ambient_light = false
flags_ensure_correct_normals = false
vertex_color_use_as_albedo = false
vertex_color_is_srgb = false
params_diffuse_mode = 0
params_specular_mode = 0
params_blend_mode = 0
params_cull_mode = 0
params_depth_draw_mode = 0
params_line_width = 1.0
params_point_size = 1.0
params_billboard_mode = 0
params_billboard_keep_scale = false
params_grow = false
params_use_alpha_scissor = false
albedo_color = Color( 0.184314, 0.184314, 0.184314, 1 )
metallic = 1.0
metallic_specular = 0.5
metallic_texture_channel = 0
roughness = 0.09
roughness_texture_channel = 0
emission_enabled = true
emission = Color( 1, 0, 0, 1 )
emission_energy = 1.0
emission_operator = 0
emission_on_uv2 = false
normal_enabled = false
rim_enabled = false
clearcoat_enabled = false
anisotropy_enabled = false
ao_enabled = false
depth_enabled = false
subsurf_scatter_enabled = false
transmission_enabled = false
refraction_enabled = false
detail_enabled = false
uv1_scale = Vector3( 1, 1, 1 )
uv1_offset = Vector3( 0, 0, 0 )
uv1_triplanar = false
uv1_triplanar_sharpness = 1.0
uv2_scale = Vector3( 1, 1, 1 )
uv2_offset = Vector3( 0, 0, 0 )
uv2_triplanar = false
uv2_triplanar_sharpness = 1.0
proximity_fade_enable = false
distance_fade_mode = 0
_sections_unfolded = [ "Albedo", "Emission", "Metallic" ]

[sub_resource type="GDScript" id=34]

script/source = "extends Area


var timer := 1.5

func _ready():
	set_process(false)

func _process(dt):
	timer -= dt
	if timer <= 0.0:
		get_node(\"../WindStreamPlayer\")._set_off()
		Game.cam._set_fixed_follow()
		set_process(false)
		queue_free()

func _on_ExitTrigger_body_entered(body):
	if body.is_in_group(\"Player\"):
		set_process(true)"

[sub_resource type="BoxShape" id=35]

margin = 0.04
extents = Vector3( 1.90421, 0.788353, 2.05693 )

[sub_resource type="BoxShape" id=36]

margin = 0.04
extents = Vector3( 207.668, 14.8358, 67.8313 )

[sub_resource type="BoxShape" id=37]

margin = 0.04
extents = Vector3( 12.9073, 106.819, 96.9049 )

[node name="Level1" type="Spatial"]
script = ExtResource( 1 )

[node name="PlayerSpawn" type="Spatial" parent="."]
transform = Transform( 1, 0, 0, 0, 1, 0, 0, 0, 1, 77.4722, -3.90726, 11.5826 )

[node name="AnimationPlayer" type="AnimationPlayer" parent="."]
root_node = NodePath("..")
autoplay = ""
playback_process_mode = 1
playback_default_blend_time = 0.0
playback_speed = 1.0
anims/CompletePuzzle = SubResource( 1 )
anims/FailedPuzzle = SubResource( 2 )
anims/OpenVault = SubResource( 3 )
next/CompletePuzzle = "OpenVault"
blend_times = [  ]

[node name="VaultDoor" type="MeshInstance" parent="."]
editor/display_folded = true
transform = Transform( 1, 0, 0, 0, 1, 0, 0, 0, 1, -2.5, 0.399749, -3 )
layers = 1
material_override = null
cast_shadow = 1
extra_cull_margin = 0.0
use_in_baked_light = true
lod_min_distance = 0.0
lod_min_hysteresis = 0.0
lod_max_distance = 0.0
lod_max_hysteresis = 0.0
mesh = SubResource( 4 )
skeleton = NodePath("..")
material/0 = ExtResource( 2 )
_sections_unfolded = [ "Transform", "material" ]

[node name="col" type="StaticBody" parent="VaultDoor"]
input_ray_pickable = true
input_capture_on_drag = false
collision_layer = 1
collision_mask = 1
physics_material_override = null
constant_linear_velocity = Vector3( 0, 0, 0 )
constant_angular_velocity = Vector3( 0, 0, 0 )

[node name="shape" type="CollisionShape" parent="VaultDoor/col"]
shape = SubResource( 5 )
disabled = false

[node name="AudioStreamPlayer3D" type="AudioStreamPlayer3D" parent="VaultDoor"]
transform = Transform( 1, 0, 0, 0, 1, 0, 0, 0, 1, 0, 1.50776, 0 )
stream = ExtResource( 3 )
attenuation_model = 0
unit_db = 2.0
unit_size = 3.0
max_db = 3.0
pitch_scale = 1.0
autoplay = false
stream_paused = false
max_distance = 0.0
out_of_range_mode = 0
bus = "Master"
area_mask = 1
emission_angle_enabled = false
emission_angle_degrees = 45.0
emission_angle_filter_attenuation_db = -12.0
attenuation_filter_cutoff_hz = 5000.0
attenuation_filter_db = -24.0
doppler_tracking = 0

[node name="OmniLight" type="OmniLight" parent="."]
transform = Transform( 1, 0, 0, 0, 1, 0, 0, 0, 1, 4.08412, 2.53189, -0.882725 )
layers = 1
light_color = Color( 1, 0.784314, 0.576471, 1 )
light_energy = 0.33
light_indirect_energy = 1.39
light_negative = false
light_specular = 0.5
light_bake_mode = 1
light_cull_mask = -1
shadow_enabled = true
shadow_color = Color( 0, 0, 0, 1 )
shadow_bias = 0.260001
shadow_contact = 0.0
shadow_reverse_cull_face = false
editor_only = false
omni_range = 20.2654
omni_attenuation = 1.0
omni_shadow_mode = 1
omni_shadow_detail = 1
_sections_unfolded = [ "Light", "Omni", "Shadow", "Transform" ]

[node name="OmniLight6" type="OmniLight" parent="."]
transform = Transform( 1, 0, 0, 0, 1, 0, 0, 0, 1, 0.871698, 7.77802, -4.75787 )
layers = 1
light_color = Color( 1, 0.784314, 0.576471, 1 )
light_energy = 0.17
light_indirect_energy = 1.39
light_negative = false
light_specular = 0.5
light_bake_mode = 1
light_cull_mask = -1
shadow_enabled = true
shadow_color = Color( 0.513726, 0.513726, 0.513726, 1 )
shadow_bias = 0.26
shadow_contact = 0.0
shadow_reverse_cull_face = false
editor_only = false
omni_range = 20.2654
omni_attenuation = 1.0
omni_shadow_mode = 1
omni_shadow_detail = 1
_sections_unfolded = [ "Light", "Omni", "Shadow", "Transform" ]

[node name="OmniLight4" type="OmniLight" parent="."]
transform = Transform( 1, 0, 0, 0, 1, 0, 0, 0, 1, 9.17822, 1.94422, 1.90598 )
layers = 1
light_color = Color( 1, 0.784314, 0.576471, 1 )
light_energy = 0.13
light_indirect_energy = 1.39
light_negative = false
light_specular = 0.5
light_bake_mode = 1
light_cull_mask = -1
shadow_enabled = false
shadow_color = Color( 0, 0, 0, 1 )
shadow_bias = 0.260001
shadow_contact = 0.0
shadow_reverse_cull_face = false
editor_only = false
omni_range = 13.2277
omni_attenuation = 1.0
omni_shadow_mode = 1
omni_shadow_detail = 1
_sections_unfolded = [ "Light", "Omni", "Shadow", "Transform" ]

[node name="OmniLight5" type="OmniLight" parent="."]
transform = Transform( 1, 0, 0, 0, 1, 0, 0, 0, 1, 1.73456, 1.94422, 11.6749 )
layers = 1
light_color = Color( 1, 0.784314, 0.576471, 1 )
light_energy = 0.13
light_indirect_energy = 1.39
light_negative = false
light_specular = 0.5
light_bake_mode = 1
light_cull_mask = -1
shadow_enabled = false
shadow_color = Color( 0, 0, 0, 1 )
shadow_bias = 0.260001
shadow_contact = 0.0
shadow_reverse_cull_face = false
editor_only = false
omni_range = 6.9485
omni_attenuation = 1.0
omni_shadow_mode = 1
omni_shadow_detail = 1
_sections_unfolded = [ "Light", "Omni", "Shadow", "Transform" ]

[node name="OmniLight3" type="OmniLight" parent="."]
transform = Transform( 1, 0, 0, 0, 1, 0, 0, 0, 1, -3.11237, 1.25782, 3.06418 )
layers = 1
light_color = Color( 1, 0.431373, 0.235294, 1 )
light_energy = 3.3
light_indirect_energy = 1.0
light_negative = false
light_specular = 0.5
light_bake_mode = 1
light_cull_mask = -1
shadow_enabled = true
shadow_color = Color( 0, 0, 0, 1 )
shadow_bias = 0.260001
shadow_contact = 0.0
shadow_reverse_cull_face = false
editor_only = false
omni_range = 4.11919
omni_attenuation = 1.0
omni_shadow_mode = 1
omni_shadow_detail = 1
script = ExtResource( 4 )
_sections_unfolded = [ "Light", "Omni", "Shadow", "Transform" ]
max_translation = Vector3( 0.1, 0.3, 0.1 )
max_range = 7
hue_shift = 0.05
max_energy = 0.2
min_change_time = 0.01
max_change_time = 0.1

[node name="OmniLight2" type="OmniLight" parent="."]
transform = Transform( 1, 0, 0, 0, 1, 0, 0, 0, 1, 0.536855, 3.05347, 7.60568 )
layers = 1
light_color = Color( 1, 0.792157, 0.592157, 1 )
light_energy = 0.33
light_indirect_energy = 1.39
light_negative = false
light_specular = 0.5
light_bake_mode = 1
light_cull_mask = -1
shadow_enabled = true
shadow_color = Color( 0, 0, 0, 1 )
shadow_bias = 0.260001
shadow_contact = 0.0
shadow_reverse_cull_face = false
editor_only = false
omni_range = 22.9025
omni_attenuation = 1.0
omni_shadow_mode = 1
omni_shadow_detail = 1
_sections_unfolded = [ "Light", "Omni", "Shadow", "Transform" ]

[node name="Navigation" type="Navigation" parent="."]
transform = Transform( -0.00322262, 0.0873507, -0.996172, 0, 0.996178, 0.0873511, 0.999995, 0.000281499, -0.0032103, 94.2388, 2.20124, -0.966621 )
up_vector = Vector3( 0, 1, 0 )

[node name="MainLevel" parent="Navigation" instance=ExtResource( 5 )]
transform = Transform( -0.00322262, -2.91037e-011, 0.999995, 0.0873507, 0.996178, 0.000281499, -0.996172, 0.0873511, -0.0032103, 1.27031, -10.4244, 93.6827 )

[node name="Draw" type="ImmediateGeometry" parent="Navigation"]
transform = Transform( 1, 2.91038e-011, -4.65661e-010, -2.91038e-011, 1, -1.70789e-008, 2.32831e-010, 1.27235e-008, 1, 0.140871, -0.0895128, -0.378387 )
layers = 1
material_override = SubResource( 6 )
cast_shadow = 1
extra_cull_margin = 0.0
use_in_baked_light = false
lod_min_distance = 0.0
lod_min_hysteresis = 0.0
lod_max_distance = 0.0
lod_max_hysteresis = 0.0
_sections_unfolded = [ "Geometry" ]

[node name="Draw2" type="ImmediateGeometry" parent="Navigation"]
transform = Transform( 1, 8.73115e-011, -9.31323e-010, -2.91038e-011, 1, -3.19802e-008, 4.65661e-010, 2.76248e-008, 1, -8.28943, 2.83797, -8.5789 )
layers = 1
material_override = SubResource( 7 )
cast_shadow = 1
extra_cull_margin = 0.0
use_in_baked_light = false
lod_min_distance = 0.0
lod_min_hysteresis = 0.0
lod_max_distance = 0.0
lod_max_hysteresis = 0.0
_sections_unfolded = [ "Geometry" ]

[node name="SpotLight" type="SpotLight" parent="."]
transform = Transform( -0.00322262, 0.0873507, -0.996172, 0, 0.996178, 0.0873512, 0.999995, 0.0002815, -0.0032103, 9.15778, 2.20124, -0.966621 )
layers = 1
light_color = Color( 1, 0.843137, 0.611765, 1 )
light_energy = 0.5
light_indirect_energy = 1.0
light_negative = false
light_specular = 0.5
light_bake_mode = 1
light_cull_mask = -1
shadow_enabled = false
shadow_color = Color( 0, 0, 0, 1 )
shadow_bias = 0.15
shadow_contact = 0.0
shadow_reverse_cull_face = false
editor_only = false
spot_range = 76.5901
spot_attenuation = 1.0
spot_angle = 56.4398
spot_angle_attenuation = 1.0
_sections_unfolded = [ "Light", "Shadow" ]

[node name="Snow" type="Particles" parent="."]
transform = Transform( 1, 0, 0, 0, -2.98023e-008, -1, 0, 1, -2.98023e-008, 57.3514, 14.922, 17.3116 )
layers = 1
material_override = null
cast_shadow = 1
extra_cull_margin = 0.0
use_in_baked_light = false
lod_min_distance = 0.0
lod_min_hysteresis = 0.0
lod_max_distance = 0.0
lod_max_hysteresis = 0.0
emitting = true
amount = 5000
lifetime = 5.0
one_shot = false
preprocess = 36.4
speed_scale = 1.0
explosiveness = 0.0
randomness = 0.0
fixed_fps = 0
fract_delta = true
visibility_aabb = AABB( -106.024, -233.011, -115.41, 280.827, 332.541, 397.172 )
local_coords = false
draw_order = 0
process_material = ExtResource( 6 )
draw_passes = 1
draw_pass_1 = SubResource( 9 )
script = SubResource( 10 )
_sections_unfolded = [ "Draw Passes", "Drawing", "Process Material", "Time", "Transform", "draw_pass_1", "process_material" ]

[node name="CamTargetFloor1" type="Spatial" parent="."]
transform = Transform( 1, 0, 0, 0, 0.996815, 0.0797455, 0, -0.0797455, 0.996815, 1.08637, 2.53785, 10.8055 )
_sections_unfolded = [ "Transform" ]

[node name="CamTargetFloor2" type="Spatial" parent="."]
transform = Transform( 1, 0, 0, 0, 0.996815, 0.0797455, 0, -0.0797455, 0.996815, 0.985259, 6.35884, 7.48294 )
_sections_unfolded = [ "Transform" ]

[node name="PuzzleMainArea" type="Area" parent="."]
editor/display_folded = true
transform = Transform( 1, 0, 0, 0, 1, 0, 0, 0, 1, 0.654687, 0.89917, -0.980689 )
input_ray_pickable = false
input_capture_on_drag = false
space_override = 0
gravity_point = false
gravity_distance_scale = 0.0
gravity_vec = Vector3( 0, -1, 0 )
gravity = 9.8
linear_damp = 0.1
angular_damp = 1.0
priority = 0.0
monitoring = true
monitorable = true
collision_layer = 1
collision_mask = 1
audio_bus_override = false
audio_bus_name = "Master"
reverb_bus_enable = false
reverb_bus_name = "Master"
reverb_bus_amount = 0.0
reverb_bus_uniformity = 0.0
script = ExtResource( 8 )

[node name="CollisionShape" type="CollisionShape" parent="PuzzleMainArea"]
shape = SubResource( 11 )
disabled = false

[node name="Floor1Area" type="Area" parent="."]
editor/display_folded = true
transform = Transform( 1, 0, 0, 0, 1, 0, 0, 0, 1, 0, 4.30902, 0 )
input_ray_pickable = false
input_capture_on_drag = false
space_override = 0
gravity_point = false
gravity_distance_scale = 0.0
gravity_vec = Vector3( 0, -1, 0 )
gravity = 9.8
linear_damp = 0.1
angular_damp = 1.0
priority = 0.0
monitoring = true
monitorable = true
collision_layer = 1
collision_mask = 1
audio_bus_override = false
audio_bus_name = "Master"
reverb_bus_enable = false
reverb_bus_name = "Master"
reverb_bus_amount = 0.0
reverb_bus_uniformity = 0.0
script = SubResource( 12 )
_sections_unfolded = [ "Reverb Bus" ]

[node name="CollisionShape" type="CollisionShape" parent="Floor1Area"]
transform = Transform( 1, 0, 0, 0, 1, 0, 0, 0, 1, 0.925478, -2.32426, 1.82574 )
shape = SubResource( 13 )
disabled = false
_sections_unfolded = [ "shape" ]

[node name="Floor2Area" type="Area" parent="."]
editor/display_folded = true
transform = Transform( 1, 0, 0, 0, 1, 0, 0, 0, 1, 0, 7.06853, 0 )
input_ray_pickable = false
input_capture_on_drag = false
space_override = 0
gravity_point = false
gravity_distance_scale = 0.0
gravity_vec = Vector3( 0, -1, 0 )
gravity = 9.8
linear_damp = 0.1
angular_damp = 1.0
priority = 0.0
monitoring = true
monitorable = true
collision_layer = 1
collision_mask = 1
audio_bus_override = false
audio_bus_name = "Master"
reverb_bus_enable = false
reverb_bus_name = "Master"
reverb_bus_amount = 0.0
reverb_bus_uniformity = 0.0
script = SubResource( 14 )
_sections_unfolded = [ "Reverb Bus" ]

[node name="CollisionShape" type="CollisionShape" parent="Floor2Area"]
transform = Transform( 1, 0, 0, 0, 1, 0, 0, 0, 1, 0.925478, -0.347998, 1.82574 )
shape = SubResource( 15 )
disabled = false
_sections_unfolded = [ "shape" ]

[node name="OutdoorsTrigger" type="Area" parent="."]
editor/display_folded = true
transform = Transform( 1, 0, 0, 0, 1, 0, 0, 0, 1, 7.29943, 3.61488, 2.05774 )
input_ray_pickable = false
input_capture_on_drag = false
space_override = 0
gravity_point = false
gravity_distance_scale = 0.0
gravity_vec = Vector3( 0, -1, 0 )
gravity = 9.8
linear_damp = 0.1
angular_damp = 1.0
priority = 0.0
monitoring = true
monitorable = true
collision_layer = 1
collision_mask = 1
audio_bus_override = false
audio_bus_name = "Master"
reverb_bus_enable = false
reverb_bus_name = "Master"
reverb_bus_amount = 0.0
reverb_bus_uniformity = 0.0
script = SubResource( 16 )
_sections_unfolded = [ "Reverb Bus" ]

[node name="CollisionShape" type="CollisionShape" parent="OutdoorsTrigger"]
transform = Transform( 1, 0, 0, 0, 1, 0, 0, 0, 1, 0.925478, -1.59595, 1.82574 )
shape = SubResource( 17 )
disabled = false

[node name="Door" type="Spatial" parent="."]
editor/display_folded = true
transform = Transform( 1, 0, 0, 0, 1, 0, 0, 0, 1, 5.69627, 0.596485, 3.04604 )

[node name="StaticBody" type="StaticBody" parent="Door"]
editor/display_folded = true
input_ray_pickable = true
input_capture_on_drag = false
collision_layer = 0
collision_mask = 0
physics_material_override = null
constant_linear_velocity = Vector3( 0, 0, 0 )
constant_angular_velocity = Vector3( 0, 0, 0 )
_sections_unfolded = [ "Collision" ]

[node name="CollisionShape" type="CollisionShape" parent="Door/StaticBody"]
transform = Transform( 1, 0, 0, 0, 1, 0, 0, 0, 1, -0.313843, 0.514221, -0.633408 )
shape = SubResource( 18 )
disabled = false

[node name="RigidBody" type="RigidBody" parent="Door"]
editor/display_folded = true
transform = Transform( 1, 0, 0, 0, 1, 0, 0, 0, 1, 0, 0, 0.47382 )
input_ray_pickable = true
input_capture_on_drag = false
collision_layer = 2
collision_mask = 2
mode = 0
mass = 222.0
physics_material_override = null
gravity_scale = 1.0
custom_integrator = false
continuous_cd = false
contacts_reported = 0
contact_monitor = false
sleeping = false
can_sleep = true
axis_lock_linear_x = false
axis_lock_linear_y = false
axis_lock_linear_z = false
axis_lock_angular_x = true
axis_lock_angular_y = false
axis_lock_angular_z = true
linear_velocity = Vector3( 0, 0, 0 )
linear_damp = -1.0
angular_velocity = Vector3( 0, 0, 0 )
angular_damp = -1.0
_sections_unfolded = [ "Axis Lock", "Collision" ]

[node name="CollisionShape" type="CollisionShape" parent="Door/RigidBody"]
transform = Transform( 1, 0, 0, 0, 1, 0, 0, 0, 1, 0, 1.28852, 0.498169 )
shape = SubResource( 19 )
disabled = false
_sections_unfolded = [ "shape" ]

[node name="MeshInstance" type="MeshInstance" parent="Door/RigidBody"]
transform = Transform( 1, 0, 0, 0, 1, 0, 0, 0, 1, 0, 1.29468, 0.471255 )
layers = 1
material_override = null
cast_shadow = 1
extra_cull_margin = 0.0
use_in_baked_light = false
lod_min_distance = 0.0
lod_min_hysteresis = 0.0
lod_max_distance = 0.0
lod_max_hysteresis = 0.0
mesh = SubResource( 20 )
skeleton = NodePath("..")
material/0 = null
_sections_unfolded = [ "mesh" ]

[node name="MeshInstance2" type="MeshInstance" parent="Door/RigidBody"]
transform = Transform( 1, 0, 0, 0, -4.37114e-008, -1, 0, 1, -4.37114e-008, 0, 1.92729, 0.471255 )
layers = 1
material_override = null
cast_shadow = 1
extra_cull_margin = 0.0
use_in_baked_light = false
lod_min_distance = 0.0
lod_min_hysteresis = 0.0
lod_max_distance = 0.0
lod_max_hysteresis = 0.0
mesh = SubResource( 21 )
skeleton = NodePath("..")
material/0 = null
_sections_unfolded = [ "mesh" ]

[node name="HingeJoint" type="HingeJoint" parent="Door"]
transform = Transform( 1, 0, 0, 0, -4.37114e-008, -1, 0, 1, -4.37114e-008, 0, 1.14398, -0.19258 )
nodes/node_a = NodePath("../StaticBody")
nodes/node_b = NodePath("../RigidBody")
solver/priority = 1
collision/exclude_nodes = true
params/bias = 0.99
angular_limit/enable = true
angular_limit/upper = 80.0
angular_limit/lower = -80.0
angular_limit/bias = 0.3
angular_limit/softness = 1.0
angular_limit/relaxation = 0.01
motor/enable = false
motor/target_velocity = 1.0
motor/max_impulse = 1.0
_sections_unfolded = [ "angular_limit", "collision", "nodes", "params" ]

[node name="WindStreamPlayer" type="AudioStreamPlayer" parent="."]
stream = ExtResource( 10 )
volume_db = -8.0
pitch_scale = 1.0
autoplay = true
stream_paused = false
mix_target = 0
bus = "Wind"
script = ExtResource( 11 )

[node name="KeyCardAreaTut" type="Area" parent="."]
editor/display_folded = true
transform = Transform( 1, 0, 0, 0, 0.987873, -0.155266, 0, 0.155266, 0.987873, -15.1208, 0.620472, 3.38139 )
input_ray_pickable = false
input_capture_on_drag = false
space_override = 0
gravity_point = false
gravity_distance_scale = 0.0
gravity_vec = Vector3( 0, -1, 0 )
gravity = 9.8
linear_damp = 0.1
angular_damp = 1.0
priority = 0.0
monitoring = true
monitorable = true
collision_layer = 1
collision_mask = 1
audio_bus_override = false
audio_bus_name = "Master"
reverb_bus_enable = false
reverb_bus_name = "Master"
reverb_bus_amount = 0.0
reverb_bus_uniformity = 0.0
_sections_unfolded = [ "Transform" ]

[node name="CollisionShape" type="CollisionShape" parent="KeyCardAreaTut"]
shape = SubResource( 22 )
disabled = false

[node name="KeyCard" parent="." instance=ExtResource( 12 )]
editor/display_folded = true
transform = Transform( 1, 0, 0, 0, 0.987873, -0.155266, 0, 0.155266, 0.987873, -11.3866, 1.23604, -0.00885057 )
mass = 14.2

[node name="OmniLight" type="OmniLight" parent="KeyCard"]
layers = 1
light_color = Color( 0.721569, 0.745098, 1, 1 )
light_energy = 1.0
light_indirect_energy = 1.0
light_negative = false
light_specular = 0.5
light_bake_mode = 1
light_cull_mask = -1
shadow_enabled = false
shadow_color = Color( 0, 0, 0, 1 )
shadow_bias = 0.15
shadow_contact = 0.0
shadow_reverse_cull_face = false
editor_only = false
omni_range = 1.00845
omni_attenuation = 1.0
omni_shadow_mode = 1
omni_shadow_detail = 1
_sections_unfolded = [ "Light", "Omni", "Shadow" ]

[node name="ScreenLevel1" type="MeshInstance" parent="."]
transform = Transform( 1, 0, 0, 0, 1, 0, 0, 0, 1, 0.668205, 2.81652, -1.81173 )
layers = 1
material_override = SubResource( 23 )
cast_shadow = 1
extra_cull_margin = 0.0
use_in_baked_light = false
lod_min_distance = 0.0
lod_min_hysteresis = 0.0
lod_max_distance = 0.0
lod_max_hysteresis = 0.0
mesh = SubResource( 24 )
skeleton = NodePath("..")
material/0 = null
script = SubResource( 25 )
_sections_unfolded = [ "Geometry", "material", "mesh" ]

[node name="TigerArea" type="Area" parent="."]
editor/display_folded = true
transform = Transform( 1, 0, 0, 0, 1, 0, 0, 0, 1, -0.155646, 5.47172, -0.919055 )
input_ray_pickable = false
input_capture_on_drag = false
space_override = 0
gravity_point = false
gravity_distance_scale = 0.0
gravity_vec = Vector3( 0, -1, 0 )
gravity = 9.8
linear_damp = 0.1
angular_damp = 1.0
priority = 0.0
monitoring = true
monitorable = true
collision_layer = 1
collision_mask = 1
audio_bus_override = false
audio_bus_name = "Master"
reverb_bus_enable = false
reverb_bus_name = "Master"
reverb_bus_amount = 0.0
reverb_bus_uniformity = 0.0

[node name="CollisionShape" type="CollisionShape" parent="TigerArea"]
shape = SubResource( 26 )
disabled = false

[node name="DragonArea" type="Area" parent="."]
editor/display_folded = true
transform = Transform( 1, 0, 0, 0, 1, 0, 0, 0, 1, 1.29491, 5.47172, -0.919055 )
input_ray_pickable = false
input_capture_on_drag = false
space_override = 0
gravity_point = false
gravity_distance_scale = 0.0
gravity_vec = Vector3( 0, -1, 0 )
gravity = 9.8
linear_damp = 0.1
angular_damp = 1.0
priority = 0.0
monitoring = true
monitorable = true
collision_layer = 1
collision_mask = 1
audio_bus_override = false
audio_bus_name = "Master"
reverb_bus_enable = false
reverb_bus_name = "Master"
reverb_bus_amount = 0.0
reverb_bus_uniformity = 0.0

[node name="CollisionShape" type="CollisionShape" parent="DragonArea"]
shape = SubResource( 26 )
disabled = false

[node name="SnakeArea" type="Area" parent="."]
editor/display_folded = true
transform = Transform( 1, 0, 0, 0, 1, 0, 0, 0, 1, 2.85017, 5.47172, -0.919055 )
visible = false
input_ray_pickable = false
input_capture_on_drag = false
space_override = 0
gravity_point = false
gravity_distance_scale = 0.0
gravity_vec = Vector3( 0, -1, 0 )
gravity = 9.8
linear_damp = 0.1
angular_damp = 1.0
priority = 0.0
monitoring = true
monitorable = true
collision_layer = 1
collision_mask = 1
audio_bus_override = false
audio_bus_name = "Master"
reverb_bus_enable = false
reverb_bus_name = "Master"
reverb_bus_amount = 0.0
reverb_bus_uniformity = 0.0

[node name="CollisionShape" type="CollisionShape" parent="SnakeArea"]
shape = SubResource( 26 )
disabled = false

[node name="ScreenLevel2A" type="MeshInstance" parent="."]
editor/display_folded = true
transform = Transform( 1, 0, 0, 0, 1, 0, 0, 0, 1, -0.155646, 6.51403, -1.82437 )
layers = 1
material_override = SubResource( 27 )
cast_shadow = 1
extra_cull_margin = 0.0
use_in_baked_light = false
lod_min_distance = 0.0
lod_min_hysteresis = 0.0
lod_max_distance = 0.0
lod_max_hysteresis = 0.0
mesh = SubResource( 28 )
skeleton = NodePath("..")
material/0 = null
_sections_unfolded = [ "Geometry", "material", "mesh" ]

[node name="ColoredLight" parent="ScreenLevel2A" instance=ExtResource( 13 )]
transform = Transform( 1, 0, 0, 0, 1, 0, 0, 0, 1, 0, 0.520714, -0.347169 )

[node name="CSGSphere" parent="ScreenLevel2A/ColoredLight" index="0"]
material = SubResource( 29 )

[node name="ScreenLevel2B" type="MeshInstance" parent="."]
editor/display_folded = true
transform = Transform( 1, 0, 0, 0, 1, 0, 0, 0, 1, 1.31537, 6.51403, -1.81173 )
layers = 1
material_override = SubResource( 30 )
cast_shadow = 1
extra_cull_margin = 0.0
use_in_baked_light = false
lod_min_distance = 0.0
lod_min_hysteresis = 0.0
lod_max_distance = 0.0
lod_max_hysteresis = 0.0
mesh = SubResource( 28 )
skeleton = NodePath("..")
material/0 = null
_sections_unfolded = [ "Geometry", "material" ]

[node name="ColoredLight2" parent="ScreenLevel2B" instance=ExtResource( 13 )]
transform = Transform( 1, 0, 0, 0, 1, 0, 0, 0, 1, 0.00302756, 0.520714, -0.359811 )

[node name="CSGSphere" parent="ScreenLevel2B/ColoredLight2" index="0"]
material = SubResource( 31 )

[node name="ScreenLevel2C" type="MeshInstance" parent="."]
editor/display_folded = true
transform = Transform( 1, 0, 0, 0, 1, 0, 0, 0, 1, 2.87245, 6.51403, -1.81173 )
layers = 1
material_override = SubResource( 32 )
cast_shadow = 1
extra_cull_margin = 0.0
use_in_baked_light = false
lod_min_distance = 0.0
lod_min_hysteresis = 0.0
lod_max_distance = 0.0
lod_max_hysteresis = 0.0
mesh = SubResource( 28 )
skeleton = NodePath("..")
material/0 = null
_sections_unfolded = [ "Geometry", "material" ]

[node name="ColoredLight3" parent="ScreenLevel2C" instance=ExtResource( 13 )]
transform = Transform( 1, 0, 0, 0, 1, 0, 0, 0, 1, -0.0109868, 0.520714, -0.359811 )

[node name="CSGSphere" parent="ScreenLevel2C/ColoredLight3" index="0"]
material = SubResource( 33 )

[node name="ExitTrigger" type="Area" parent="."]
editor/display_folded = true
transform = Transform( 1, 0, 0, 0, 1, 0, 0, 0, 1, -2.57335, -5.50157, -3.76963 )
input_ray_pickable = false
input_capture_on_drag = false
space_override = 0
gravity_point = false
gravity_distance_scale = 0.0
gravity_vec = Vector3( 0, -1, 0 )
gravity = 9.8
linear_damp = 0.1
angular_damp = 1.0
priority = 0.0
monitoring = true
monitorable = true
collision_layer = 1
collision_mask = 1
audio_bus_override = false
audio_bus_name = "Master"
reverb_bus_enable = false
reverb_bus_name = "Master"
reverb_bus_amount = 0.0
reverb_bus_uniformity = 0.0
script = SubResource( 34 )
_sections_unfolded = [ "Reverb Bus", "Script", "script" ]

[node name="CollisionShape" type="CollisionShape" parent="ExitTrigger"]
transform = Transform( 1, 0, 0, 0, 1, 0, 0, 0, 1, -0.125309, 2.3291, -0.441569 )
shape = SubResource( 35 )
disabled = false

[node name="ViewportMain" type="Viewport" parent="."]
editor/display_folded = true
arvr = false
size = Vector2( 876, 720 )
own_world = false
world = null
transparent_bg = false
msaa = 0
hdr = true
disable_3d = false
keep_3d_linear = false
usage = 0
debug_draw = 0
render_target_v_flip = true
render_target_clear_mode = 2
render_target_update_mode = 2
audio_listener_enable_2d = false
audio_listener_enable_3d = false
physics_object_picking = false
gui_disable_input = false
gui_snap_controls_to_pixels = true
shadow_atlas_size = 0
shadow_atlas_quad_0 = 2
shadow_atlas_quad_1 = 2
shadow_atlas_quad_2 = 3
shadow_atlas_quad_3 = 4
_sections_unfolded = [ "Audio Listener", "Render Target", "Rendering" ]

[node name="Level1MainScreen" parent="ViewportMain" instance=ExtResource( 14 )]

[node name="Viewport" type="Viewport" parent="."]
editor/display_folded = true
arvr = false
size = Vector2( 876, 720 )
own_world = false
world = null
transparent_bg = false
msaa = 0
hdr = true
disable_3d = false
keep_3d_linear = false
usage = 0
debug_draw = 0
render_target_v_flip = true
render_target_clear_mode = 2
render_target_update_mode = 2
audio_listener_enable_2d = false
audio_listener_enable_3d = false
physics_object_picking = false
gui_disable_input = false
gui_snap_controls_to_pixels = true
shadow_atlas_size = 0
shadow_atlas_quad_0 = 2
shadow_atlas_quad_1 = 2
shadow_atlas_quad_2 = 3
shadow_atlas_quad_3 = 4
_sections_unfolded = [ "Audio Listener", "Render Target", "Rendering" ]

[node name="IconDisplay" parent="Viewport" instance=ExtResource( 15 )]

[node name="Viewport2" type="Viewport" parent="."]
editor/display_folded = true
arvr = false
size = Vector2( 876, 720 )
own_world = false
world = null
transparent_bg = false
msaa = 0
hdr = true
disable_3d = false
keep_3d_linear = false
usage = 0
debug_draw = 0
render_target_v_flip = true
render_target_clear_mode = 0
render_target_update_mode = 2
audio_listener_enable_2d = false
audio_listener_enable_3d = false
physics_object_picking = false
gui_disable_input = false
gui_snap_controls_to_pixels = true
shadow_atlas_size = 0
shadow_atlas_quad_0 = 2
shadow_atlas_quad_1 = 2
shadow_atlas_quad_2 = 3
shadow_atlas_quad_3 = 4
_sections_unfolded = [ "Rendering" ]

[node name="IconDisplay" parent="Viewport2" instance=ExtResource( 15 )]
img = 1

[node name="Viewport3" type="Viewport" parent="."]
editor/display_folded = true
arvr = false
size = Vector2( 876, 720 )
own_world = false
world = null
transparent_bg = false
msaa = 0
hdr = true
disable_3d = false
keep_3d_linear = false
usage = 0
debug_draw = 0
render_target_v_flip = true
render_target_clear_mode = 0
render_target_update_mode = 2
audio_listener_enable_2d = false
audio_listener_enable_3d = false
physics_object_picking = false
gui_disable_input = false
gui_snap_controls_to_pixels = true
shadow_atlas_size = 0
shadow_atlas_quad_0 = 2
shadow_atlas_quad_1 = 2
shadow_atlas_quad_2 = 3
shadow_atlas_quad_3 = 4
_sections_unfolded = [ "Rendering" ]

[node name="IconDisplay" parent="Viewport3" instance=ExtResource( 15 )]
img = 2

[node name="DontFallArea" parent="." instance=ExtResource( 16 )]
editor/display_folded = true
transform = Transform( 1, 0, 0, 0, 1, 0, 0, 0, 1, 98.428, 0, 0 )
tp_dontfalls = false
tp_player = true

[node name="CollisionShape" parent="DontFallArea" index="0"]
transform = Transform( 1, 0, 0, 0, 1, 0, 0, 0, 1, 171.466, -59.2098, 0.92627 )

[node name="Respawn" parent="DontFallArea" index="1"]
transform = Transform( 1, 0, 0, 0, 1, 0, 0, 0, 1, -21.6011, -4.17406, 11.5116 )

[node name="CollisionShape2" type="CollisionShape" parent="DontFallArea"]
transform = Transform( 0.995695, 0, 0.0926873, 0, 1, 0, -0.0926873, 0, 0.995695, -74.996, -54.2064, 113.568 )
shape = SubResource( 36 )
disabled = false

[node name="CollisionShape3" type="CollisionShape" parent="DontFallArea"]
transform = Transform( 0.883392, 0, 0.468635, 0, 1, 0, -0.468635, 0, 0.883392, 126.981, -35.0658, -42.3982 )
shape = SubResource( 37 )
disabled = false
_sections_unfolded = [ "shape" ]

[connection signal="body_entered" from="PuzzleMainArea" to="PuzzleMainArea" method="_on_PuzzleMainArea_body_entered"]
[connection signal="body_entered" from="Floor1Area" to="Floor1Area" method="_on_Floor1Area_body_entered"]
[connection signal="body_entered" from="Floor2Area" to="Floor2Area" method="_on_Floor2Area_body_entered"]
[connection signal="body_entered" from="OutdoorsTrigger" to="OutdoorsTrigger" method="_on_OutdoorsTrigger_body_entered"]
[connection signal="body_entered" from="KeyCardAreaTut" to="." method="_on_keycard_area_entered"]
[connection signal="body_entered" from="TigerArea" to="PuzzleMainArea" method="_on_TigerArea_body_entered"]
[connection signal="body_exited" from="TigerArea" to="PuzzleMainArea" method="_on_TigerArea_body_exited"]
[connection signal="body_entered" from="DragonArea" to="PuzzleMainArea" method="_on_DragonArea_body_entered"]
[connection signal="body_exited" from="DragonArea" to="PuzzleMainArea" method="_on_DragonArea_body_exited"]
[connection signal="body_entered" from="SnakeArea" to="PuzzleMainArea" method="_on_SnakeArea_body_entered"]
[connection signal="body_exited" from="SnakeArea" to="PuzzleMainArea" method="_on_SnakeArea_body_exited"]
[connection signal="body_entered" from="ExitTrigger" to="ExitTrigger" method="_on_ExitTrigger_body_entered"]

[editable path="ScreenLevel2A/ColoredLight"]

[editable path="ScreenLevel2B/ColoredLight2"]

[editable path="ScreenLevel2C/ColoredLight3"]

[editable path="DontFallArea"]
