[gd_scene load_steps=6 format=2]

[ext_resource path="res://scenes/pickups/keycard/keycard/BlueScreen.material" type="Material" id=1]
[ext_resource path="res://scenes/pickups/keycard/keycard/Gold.material" type="Material" id=2]
[ext_resource path="res://scenes/pickups/keycard/keycard/RedPlastic.material" type="Material" id=3]

[sub_resource type="ArrayMesh" id=1]

resource_name = "Keycard"
blend_shape_mode = 1
custom_aabb = AABB( 0, 0, 0, 0, 0, 0 )
surfaces/0 = {
"aabb": AABB( -0.103403, -0.0427103, -0.163852, 0.215577, 0.0537703, 0.12545 ),
"array_data": PoolByteArray( 30, 166, 159, 189, 54, 11, 53, 60, 12, 86, 29, 189, 0, 127, 0, 0, 59, 253, 122, 61, 54, 11, 53, 60, 232, 200, 39, 190, 0, 127, 0, 0, 198, 196, 211, 189, 54, 11, 53, 60, 232, 200, 39, 190, 0, 127, 0, 0, 236, 187, 229, 61, 54, 11, 53, 60, 14, 86, 29, 189, 0, 127, 0, 0, 236, 187, 229, 61, 2, 241, 46, 189, 14, 86, 29, 189, 0, 129, 0, 0, 198, 196, 211, 189, 2, 241, 46, 189, 232, 200, 39, 190, 0, 129, 0, 0, 59, 253, 122, 61, 2, 241, 46, 189, 232, 200, 39, 190, 0, 129, 0, 0, 30, 166, 159, 189, 2, 241, 46, 189, 14, 86, 29, 189, 0, 129, 0, 0 ),
"array_index_data": PoolByteArray( 0, 0, 2, 0, 1, 0, 0, 0, 1, 0, 3, 0, 4, 0, 6, 0, 5, 0, 4, 0, 5, 0, 7, 0 ),
"blend_shape_data": [  ],
"format": 97539,
"index_count": 12,
"material": ExtResource( 1 ),
"primitive": 4,
"skeleton_aabb": [  ],
"vertex_count": 8
}
surfaces/1 = {
"aabb": AABB( -0.103224, -0.0387896, 0.0271288, 0.221559, 0.0459189, 0.165066 ),
"array_data": PoolByteArray( 112, 148, 146, 189, 218, 225, 30, 189, 2, 204, 68, 62, 0, 129, 0, 0, 220, 102, 211, 189, 218, 225, 30, 189, 48, 61, 222, 60, 0, 129, 0, 0, 112, 148, 146, 189, 218, 225, 30, 189, 48, 61, 222, 60, 0, 129, 0, 0, 220, 102, 211, 189, 218, 225, 30, 189, 2, 204, 68, 62, 0, 129, 0, 0, 200, 124, 7, 188, 218, 225, 30, 189, 2, 204, 68, 62, 0, 129, 0, 0, 9, 132, 35, 189, 218, 225, 30, 189, 48, 61, 222, 60, 0, 129, 0, 0, 200, 124, 7, 188, 218, 225, 30, 189, 48, 61, 222, 60, 0, 129, 0, 0, 9, 132, 35, 189, 218, 225, 30, 189, 2, 204, 68, 62, 0, 129, 0, 0, 124, 106, 97, 61, 218, 225, 30, 189, 2, 204, 68, 62, 0, 129, 0, 0, 74, 139, 191, 60, 218, 225, 30, 189, 48, 61, 222, 60, 0, 129, 0, 0, 124, 106, 97, 61, 218, 225, 30, 189, 48, 61, 222, 60, 0, 129, 0, 0, 74, 139, 191, 60, 218, 225, 30, 189, 2, 204, 68, 62, 0, 129, 0, 0, 21, 90, 242, 61, 218, 225, 30, 189, 2, 204, 68, 62, 0, 129, 0, 0, 170, 135, 177, 61, 218, 225, 30, 189, 48, 61, 222, 60, 0, 129, 0, 0, 21, 90, 242, 61, 218, 225, 30, 189, 48, 61, 222, 60, 0, 129, 0, 0, 170, 135, 177, 61, 218, 225, 30, 189, 2, 204, 68, 62, 0, 129, 0, 0, 221, 102, 211, 189, 32, 157, 233, 59, 2, 204, 68, 62, 0, 126, 0, 0, 114, 148, 146, 189, 32, 157, 233, 59, 56, 61, 222, 60, 0, 126, 0, 0, 221, 102, 211, 189, 32, 157, 233, 59, 56, 61, 222, 60, 0, 126, 0, 0, 114, 148, 146, 189, 32, 157, 233, 59, 2, 204, 68, 62, 0, 126, 0, 0, 12, 132, 35, 189, 32, 157, 233, 59, 2, 204, 68, 62, 0, 127, 0, 0, 212, 124, 7, 188, 32, 157, 233, 59, 56, 61, 222, 60, 0, 127, 0, 0, 12, 132, 35, 189, 32, 157, 233, 59, 56, 61, 222, 60, 0, 127, 0, 0, 212, 124, 7, 188, 32, 157, 233, 59, 2, 204, 68, 62, 0, 127, 0, 0, 68, 139, 191, 60, 32, 157, 233, 59, 56, 61, 222, 60, 0, 127, 0, 0, 121, 106, 97, 61, 32, 157, 233, 59, 2, 204, 68, 62, 0, 127, 0, 0, 121, 106, 97, 61, 32, 157, 233, 59, 52, 61, 222, 60, 0, 127, 0, 0, 68, 139, 191, 60, 32, 157, 233, 59, 2, 204, 68, 62, 0, 127, 0, 0, 168, 135, 177, 61, 32, 157, 233, 59, 2, 204, 68, 62, 0, 127, 0, 0, 20, 90, 242, 61, 32, 157, 233, 59, 52, 61, 222, 60, 0, 127, 0, 0, 168, 135, 177, 61, 32, 157, 233, 59, 52, 61, 222, 60, 0, 127, 0, 0, 20, 90, 242, 61, 32, 157, 233, 59, 2, 204, 68, 62, 0, 127, 0, 0, 20, 90, 242, 61, 32, 157, 233, 59, 2, 204, 68, 62, 0, 0, 127, 0, 170, 135, 177, 61, 218, 225, 30, 189, 2, 204, 68, 62, 0, 0, 127, 0, 21, 90, 242, 61, 218, 225, 30, 189, 2, 204, 68, 62, 0, 0, 127, 0, 168, 135, 177, 61, 32, 157, 233, 59, 2, 204, 68, 62, 0, 0, 127, 0, 121, 106, 97, 61, 32, 157, 233, 59, 2, 204, 68, 62, 0, 0, 127, 0, 74, 139, 191, 60, 218, 225, 30, 189, 2, 204, 68, 62, 0, 0, 127, 0, 124, 106, 97, 61, 218, 225, 30, 189, 2, 204, 68, 62, 0, 0, 127, 0, 68, 139, 191, 60, 32, 157, 233, 59, 2, 204, 68, 62, 0, 0, 127, 0, 212, 124, 7, 188, 32, 157, 233, 59, 2, 204, 68, 62, 0, 0, 127, 0, 9, 132, 35, 189, 218, 225, 30, 189, 2, 204, 68, 62, 0, 0, 127, 0, 200, 124, 7, 188, 218, 225, 30, 189, 2, 204, 68, 62, 0, 0, 127, 0, 12, 132, 35, 189, 32, 157, 233, 59, 2, 204, 68, 62, 0, 0, 127, 0, 114, 148, 146, 189, 32, 157, 233, 59, 2, 204, 68, 62, 0, 0, 127, 0, 220, 102, 211, 189, 218, 225, 30, 189, 2, 204, 68, 62, 0, 0, 127, 0, 112, 148, 146, 189, 218, 225, 30, 189, 2, 204, 68, 62, 0, 0, 127, 0, 221, 102, 211, 189, 32, 157, 233, 59, 2, 204, 68, 62, 0, 0, 127, 0 ),
"array_index_data": PoolByteArray( 0, 0, 2, 0, 1, 0, 0, 0, 1, 0, 3, 0, 4, 0, 6, 0, 5, 0, 4, 0, 5, 0, 7, 0, 8, 0, 10, 0, 9, 0, 8, 0, 9, 0, 11, 0, 12, 0, 14, 0, 13, 0, 12, 0, 13, 0, 15, 0, 16, 0, 18, 0, 17, 0, 16, 0, 17, 0, 19, 0, 20, 0, 22, 0, 21, 0, 20, 0, 21, 0, 23, 0, 24, 0, 26, 0, 25, 0, 27, 0, 24, 0, 25, 0, 28, 0, 30, 0, 29, 0, 28, 0, 29, 0, 31, 0, 32, 0, 34, 0, 33, 0, 32, 0, 33, 0, 35, 0, 36, 0, 38, 0, 37, 0, 36, 0, 37, 0, 39, 0, 40, 0, 42, 0, 41, 0, 40, 0, 41, 0, 43, 0, 44, 0, 46, 0, 45, 0, 44, 0, 45, 0, 47, 0 ),
"blend_shape_data": [  ],
"format": 97539,
"index_count": 72,
"material": ExtResource( 2 ),
"primitive": 4,
"skeleton_aabb": [  ],
"vertex_count": 48
}
surfaces/2 = {
"aabb": AABB( -0.134875, -0.0588157, -0.223752, 0.284862, 0.0859812, 0.447503 ),
"array_data": PoolByteArray( 164, 28, 10, 190, 38, 117, 222, 60, 232, 200, 39, 190, 129, 0, 0, 0, 164, 28, 10, 190, 200, 232, 112, 189, 36, 31, 101, 190, 129, 0, 0, 0, 164, 28, 10, 190, 200, 232, 112, 189, 232, 200, 39, 190, 129, 0, 0, 0, 164, 28, 10, 190, 38, 117, 222, 60, 36, 31, 101, 190, 129, 0, 0, 0, 64, 150, 25, 62, 38, 117, 222, 60, 50, 61, 222, 60, 126, 0, 0, 0, 64, 150, 25, 62, 200, 232, 112, 189, 36, 31, 101, 62, 126, 0, 0, 0, 64, 150, 25, 62, 200, 232, 112, 189, 50, 61, 222, 60, 126, 0, 0, 0, 64, 150, 25, 62, 38, 117, 222, 60, 36, 31, 101, 62, 126, 0, 0, 0, 221, 102, 211, 189, 38, 117, 222, 60, 36, 31, 101, 62, 0, 0, 127, 0, 164, 28, 10, 190, 200, 232, 112, 189, 36, 31, 101, 62, 0, 0, 127, 0, 220, 102, 211, 189, 200, 232, 112, 189, 36, 31, 101, 62, 0, 0, 127, 0, 164, 28, 10, 190, 38, 117, 222, 60, 36, 31, 101, 62, 0, 0, 127, 0, 164, 28, 10, 190, 38, 117, 222, 60, 36, 31, 101, 190, 0, 0, 129, 0, 236, 254, 150, 61, 200, 232, 112, 189, 36, 31, 101, 190, 0, 0, 129, 0, 164, 28, 10, 190, 200, 232, 112, 189, 36, 31, 101, 190, 0, 0, 129, 0, 236, 254, 150, 61, 38, 117, 222, 60, 36, 31, 101, 190, 0, 0, 129, 0, 236, 254, 150, 61, 38, 117, 222, 60, 36, 31, 101, 190, 107, 0, 188, 0, 182, 21, 229, 61, 200, 232, 112, 189, 232, 200, 39, 190, 107, 0, 188, 0, 236, 254, 150, 61, 200, 232, 112, 189, 36, 31, 101, 190, 107, 0, 188, 0, 182, 21, 229, 61, 38, 117, 222, 60, 232, 200, 39, 190, 107, 0, 188, 0, 164, 28, 10, 190, 38, 117, 222, 60, 12, 86, 29, 189, 130, 0, 0, 0, 164, 28, 10, 190, 200, 232, 112, 189, 90, 229, 212, 189, 130, 0, 0, 0, 164, 28, 10, 190, 200, 232, 112, 189, 14, 86, 29, 189, 130, 0, 0, 0, 164, 28, 10, 190, 38, 117, 222, 60, 90, 229, 212, 189, 130, 0, 0, 0, 30, 166, 159, 189, 2, 241, 46, 189, 14, 86, 29, 189, 0, 0, 129, 0, 236, 187, 229, 61, 200, 232, 112, 189, 14, 86, 29, 189, 0, 0, 129, 0, 30, 166, 159, 189, 200, 232, 112, 189, 14, 86, 29, 189, 0, 0, 129, 0, 236, 187, 229, 61, 2, 241, 46, 189, 14, 86, 29, 189, 0, 0, 129, 0, 182, 21, 229, 61, 200, 232, 112, 189, 232, 200, 39, 190, 0, 129, 0, 0, 164, 28, 10, 190, 200, 232, 112, 189, 36, 31, 101, 190, 0, 129, 0, 0, 236, 254, 150, 61, 200, 232, 112, 189, 36, 31, 101, 190, 0, 129, 0, 0, 164, 28, 10, 190, 200, 232, 112, 189, 232, 200, 39, 190, 0, 129, 0, 0, 59, 253, 122, 61, 200, 232, 112, 189, 232, 200, 39, 190, 0, 129, 0, 0, 198, 196, 211, 189, 200, 232, 112, 189, 232, 200, 39, 190, 0, 129, 0, 0, 20, 90, 242, 61, 38, 117, 222, 60, 51, 61, 222, 60, 0, 127, 0, 0, 64, 150, 25, 62, 38, 117, 222, 60, 36, 31, 101, 62, 0, 127, 0, 0, 64, 150, 25, 62, 38, 117, 222, 60, 50, 61, 222, 60, 0, 127, 0, 0, 20, 90, 242, 61, 38, 117, 222, 60, 36, 31, 101, 62, 0, 127, 0, 0, 64, 150, 25, 62, 200, 232, 112, 189, 36, 31, 101, 62, 0, 129, 0, 0, 21, 90, 242, 61, 200, 232, 112, 189, 50, 61, 222, 60, 0, 129, 0, 0, 64, 150, 25, 62, 200, 232, 112, 189, 50, 61, 222, 60, 0, 129, 0, 0, 21, 90, 242, 61, 200, 232, 112, 189, 36, 31, 101, 62, 0, 129, 0, 0, 164, 28, 10, 190, 38, 117, 222, 60, 36, 31, 101, 62, 130, 0, 0, 0, 164, 28, 10, 190, 200, 232, 112, 189, 50, 61, 222, 60, 130, 0, 0, 0, 164, 28, 10, 190, 200, 232, 112, 189, 36, 31, 101, 62, 130, 0, 0, 0, 164, 28, 10, 190, 38, 117, 222, 60, 56, 61, 222, 60, 130, 0, 0, 0, 64, 150, 25, 62, 38, 117, 222, 60, 14, 86, 29, 189, 126, 0, 0, 0, 64, 150, 25, 62, 200, 232, 112, 189, 50, 61, 222, 60, 126, 0, 0, 0, 64, 150, 25, 62, 200, 232, 112, 189, 14, 86, 29, 189, 126, 0, 0, 0, 64, 150, 25, 62, 38, 117, 222, 60, 50, 61, 222, 60, 126, 0, 0, 0, 220, 102, 211, 189, 200, 232, 112, 189, 36, 31, 101, 62, 0, 129, 0, 0, 164, 28, 10, 190, 200, 232, 112, 189, 50, 61, 222, 60, 0, 129, 0, 0, 220, 102, 211, 189, 200, 232, 112, 189, 50, 61, 222, 60, 0, 129, 0, 0, 164, 28, 10, 190, 200, 232, 112, 189, 36, 31, 101, 62, 0, 129, 0, 0, 200, 124, 7, 188, 218, 225, 30, 189, 48, 61, 222, 60, 0, 0, 127, 0, 9, 132, 35, 189, 200, 232, 112, 189, 50, 61, 222, 60, 0, 0, 127, 0, 200, 124, 7, 188, 200, 232, 112, 189, 50, 61, 222, 60, 0, 0, 127, 0, 9, 132, 35, 189, 218, 225, 30, 189, 48, 61, 222, 60, 0, 0, 127, 0, 9, 132, 35, 189, 200, 232, 112, 189, 36, 31, 101, 62, 0, 129, 0, 0, 112, 148, 146, 189, 200, 232, 112, 189, 50, 61, 222, 60, 0, 129, 0, 0, 9, 132, 35, 189, 200, 232, 112, 189, 50, 61, 222, 60, 0, 129, 0, 0, 112, 148, 146, 189, 200, 232, 112, 189, 36, 31, 101, 62, 0, 129, 0, 0, 221, 102, 211, 189, 38, 117, 222, 60, 56, 61, 222, 60, 127, 0, 0, 0, 221, 102, 211, 189, 32, 157, 233, 59, 2, 204, 68, 62, 127, 0, 0, 0, 221, 102, 211, 189, 32, 157, 233, 59, 56, 61, 222, 60, 127, 0, 0, 0, 221, 102, 211, 189, 38, 117, 222, 60, 36, 31, 101, 62, 127, 0, 0, 0, 74, 139, 191, 60, 200, 232, 112, 189, 36, 31, 101, 62, 0, 129, 0, 0, 200, 124, 7, 188, 200, 232, 112, 189, 50, 61, 222, 60, 0, 129, 0, 0, 74, 139, 191, 60, 200, 232, 112, 189, 50, 61, 222, 60, 0, 129, 0, 0, 200, 124, 7, 188, 200, 232, 112, 189, 36, 31, 101, 62, 0, 129, 0, 0, 9, 132, 35, 189, 218, 225, 30, 189, 2, 204, 68, 62, 127, 0, 0, 0, 12, 132, 35, 189, 38, 117, 222, 60, 36, 31, 101, 62, 127, 0, 0, 0, 9, 132, 35, 189, 200, 232, 112, 189, 36, 31, 101, 62, 127, 0, 0, 0, 12, 132, 35, 189, 32, 157, 233, 59, 2, 204, 68, 62, 127, 0, 0, 0, 170, 135, 177, 61, 200, 232, 112, 189, 36, 31, 101, 62, 0, 129, 0, 0, 124, 106, 97, 61, 200, 232, 112, 189, 50, 61, 222, 60, 0, 129, 0, 0, 170, 135, 177, 61, 200, 232, 112, 189, 50, 61, 222, 60, 0, 129, 0, 0, 124, 106, 97, 61, 200, 232, 112, 189, 36, 31, 101, 62, 0, 129, 0, 0, 21, 90, 242, 61, 218, 225, 30, 189, 2, 204, 68, 62, 129, 0, 0, 0, 21, 90, 242, 61, 200, 232, 112, 189, 50, 61, 222, 60, 129, 0, 0, 0, 21, 90, 242, 61, 200, 232, 112, 189, 36, 31, 101, 62, 129, 0, 0, 0, 21, 90, 242, 61, 218, 225, 30, 189, 48, 61, 222, 60, 129, 0, 0, 0, 164, 28, 10, 190, 38, 117, 222, 60, 36, 31, 101, 62, 0, 127, 0, 0, 221, 102, 211, 189, 38, 117, 222, 60, 56, 61, 222, 60, 0, 127, 0, 0, 164, 28, 10, 190, 38, 117, 222, 60, 56, 61, 222, 60, 0, 127, 0, 0, 221, 102, 211, 189, 38, 117, 222, 60, 36, 31, 101, 62, 0, 127, 0, 0, 212, 124, 7, 188, 38, 117, 222, 60, 36, 31, 101, 62, 129, 0, 0, 0, 200, 124, 7, 188, 218, 225, 30, 189, 2, 204, 68, 62, 129, 0, 0, 0, 200, 124, 7, 188, 200, 232, 112, 189, 36, 31, 101, 62, 129, 0, 0, 0, 212, 124, 7, 188, 32, 157, 233, 59, 2, 204, 68, 62, 129, 0, 0, 0, 114, 148, 146, 189, 38, 117, 222, 60, 55, 61, 222, 60, 0, 126, 0, 0, 12, 132, 35, 189, 38, 117, 222, 60, 36, 31, 101, 62, 0, 126, 0, 0, 12, 132, 35, 189, 38, 117, 222, 60, 54, 61, 222, 60, 0, 126, 0, 0, 114, 148, 146, 189, 38, 117, 222, 60, 36, 31, 101, 62, 0, 126, 0, 0, 112, 148, 146, 189, 218, 225, 30, 189, 48, 61, 222, 60, 0, 0, 127, 0, 220, 102, 211, 189, 200, 232, 112, 189, 50, 61, 222, 60, 0, 0, 127, 0, 112, 148, 146, 189, 200, 232, 112, 189, 50, 61, 222, 60, 0, 0, 127, 0, 220, 102, 211, 189, 218, 225, 30, 189, 48, 61, 222, 60, 0, 0, 127, 0, 212, 124, 7, 188, 38, 117, 222, 60, 36, 31, 101, 62, 0, 127, 0, 0, 68, 139, 191, 60, 38, 117, 222, 60, 54, 61, 222, 60, 0, 127, 0, 0, 212, 124, 7, 188, 38, 117, 222, 60, 54, 61, 222, 60, 0, 127, 0, 0, 68, 139, 191, 60, 38, 117, 222, 60, 36, 31, 101, 62, 0, 127, 0, 0, 170, 135, 177, 61, 218, 225, 30, 189, 48, 61, 222, 60, 127, 0, 0, 0, 170, 135, 177, 61, 200, 232, 112, 189, 36, 31, 101, 62, 127, 0, 0, 0, 170, 135, 177, 61, 200, 232, 112, 189, 50, 61, 222, 60, 127, 0, 0, 0, 170, 135, 177, 61, 218, 225, 30, 189, 2, 204, 68, 62, 127, 0, 0, 0, 121, 106, 97, 61, 38, 117, 222, 60, 53, 61, 222, 60, 0, 127, 0, 0, 168, 135, 177, 61, 38, 117, 222, 60, 36, 31, 101, 62, 0, 127, 0, 0, 168, 135, 177, 61, 38, 117, 222, 60, 52, 61, 222, 60, 0, 127, 0, 0, 121, 106, 97, 61, 38, 117, 222, 60, 36, 31, 101, 62, 0, 127, 0, 0, 74, 139, 191, 60, 218, 225, 30, 189, 2, 204, 68, 62, 127, 0, 0, 0, 68, 139, 191, 60, 38, 117, 222, 60, 36, 31, 101, 62, 127, 0, 0, 0, 74, 139, 191, 60, 200, 232, 112, 189, 36, 31, 101, 62, 127, 0, 0, 0, 68, 139, 191, 60, 32, 157, 233, 59, 2, 204, 68, 62, 127, 0, 0, 0, 64, 150, 25, 62, 38, 117, 222, 60, 36, 31, 101, 62, 0, 0, 127, 0, 21, 90, 242, 61, 200, 232, 112, 189, 36, 31, 101, 62, 0, 0, 127, 0, 64, 150, 25, 62, 200, 232, 112, 189, 36, 31, 101, 62, 0, 0, 127, 0, 20, 90, 242, 61, 38, 117, 222, 60, 36, 31, 101, 62, 0, 0, 127, 0, 124, 106, 97, 61, 218, 225, 30, 189, 2, 204, 68, 62, 129, 0, 0, 0, 124, 106, 97, 61, 200, 232, 112, 189, 50, 61, 222, 60, 129, 0, 0, 0, 124, 106, 97, 61, 200, 232, 112, 189, 36, 31, 101, 62, 129, 0, 0, 0, 124, 106, 97, 61, 218, 225, 30, 189, 48, 61, 222, 60, 129, 0, 0, 0, 168, 135, 177, 61, 38, 117, 222, 60, 36, 31, 101, 62, 0, 0, 127, 0, 124, 106, 97, 61, 200, 232, 112, 189, 36, 31, 101, 62, 0, 0, 127, 0, 170, 135, 177, 61, 200, 232, 112, 189, 36, 31, 101, 62, 0, 0, 127, 0, 121, 106, 97, 61, 38, 117, 222, 60, 36, 31, 101, 62, 0, 0, 127, 0, 121, 106, 97, 61, 38, 117, 222, 60, 36, 31, 101, 62, 129, 0, 0, 0, 124, 106, 97, 61, 218, 225, 30, 189, 2, 204, 68, 62, 129, 0, 0, 0, 124, 106, 97, 61, 200, 232, 112, 189, 36, 31, 101, 62, 129, 0, 0, 0, 121, 106, 97, 61, 32, 157, 233, 59, 2, 204, 68, 62, 129, 0, 0, 0, 68, 139, 191, 60, 38, 117, 222, 60, 36, 31, 101, 62, 0, 0, 127, 0, 200, 124, 7, 188, 200, 232, 112, 189, 36, 31, 101, 62, 0, 0, 127, 0, 74, 139, 191, 60, 200, 232, 112, 189, 36, 31, 101, 62, 0, 0, 127, 0, 212, 124, 7, 188, 38, 117, 222, 60, 36, 31, 101, 62, 0, 0, 127, 0, 114, 148, 146, 189, 38, 117, 222, 60, 55, 61, 222, 60, 0, 0, 127, 0, 221, 102, 211, 189, 32, 157, 233, 59, 56, 61, 222, 60, 0, 0, 127, 0, 114, 148, 146, 189, 32, 157, 233, 59, 56, 61, 222, 60, 0, 0, 127, 0, 221, 102, 211, 189, 38, 117, 222, 60, 56, 61, 222, 60, 0, 0, 127, 0, 12, 132, 35, 189, 38, 117, 222, 60, 36, 31, 101, 62, 0, 0, 127, 0, 112, 148, 146, 189, 200, 232, 112, 189, 36, 31, 101, 62, 0, 0, 127, 0, 9, 132, 35, 189, 200, 232, 112, 189, 36, 31, 101, 62, 0, 0, 127, 0, 114, 148, 146, 189, 38, 117, 222, 60, 36, 31, 101, 62, 0, 0, 127, 0, 74, 139, 191, 60, 218, 225, 30, 189, 48, 61, 222, 60, 127, 0, 0, 0, 74, 139, 191, 60, 200, 232, 112, 189, 36, 31, 101, 62, 127, 0, 0, 0, 74, 139, 191, 60, 200, 232, 112, 189, 50, 61, 222, 60, 127, 0, 0, 0, 74, 139, 191, 60, 218, 225, 30, 189, 2, 204, 68, 62, 127, 0, 0, 0, 114, 148, 146, 189, 38, 117, 222, 60, 36, 31, 101, 62, 129, 0, 0, 0, 112, 148, 146, 189, 218, 225, 30, 189, 2, 204, 68, 62, 129, 0, 0, 0, 112, 148, 146, 189, 200, 232, 112, 189, 36, 31, 101, 62, 129, 0, 0, 0, 114, 148, 146, 189, 32, 157, 233, 59, 2, 204, 68, 62, 129, 0, 0, 0, 114, 148, 146, 189, 38, 117, 222, 60, 36, 31, 101, 62, 129, 0, 0, 0, 114, 148, 146, 189, 32, 157, 233, 59, 56, 61, 222, 60, 129, 0, 0, 0, 114, 148, 146, 189, 32, 157, 233, 59, 2, 204, 68, 62, 129, 0, 0, 0, 114, 148, 146, 189, 38, 117, 222, 60, 55, 61, 222, 60, 129, 0, 0, 0, 220, 102, 211, 189, 218, 225, 30, 189, 2, 204, 68, 62, 127, 0, 0, 0, 221, 102, 211, 189, 38, 117, 222, 60, 36, 31, 101, 62, 127, 0, 0, 0, 220, 102, 211, 189, 200, 232, 112, 189, 36, 31, 101, 62, 127, 0, 0, 0, 221, 102, 211, 189, 32, 157, 233, 59, 2, 204, 68, 62, 127, 0, 0, 0, 12, 132, 35, 189, 38, 117, 222, 60, 54, 61, 222, 60, 127, 0, 0, 0, 12, 132, 35, 189, 32, 157, 233, 59, 2, 204, 68, 62, 127, 0, 0, 0, 12, 132, 35, 189, 32, 157, 233, 59, 56, 61, 222, 60, 127, 0, 0, 0, 12, 132, 35, 189, 38, 117, 222, 60, 36, 31, 101, 62, 127, 0, 0, 0, 124, 106, 97, 61, 218, 225, 30, 189, 48, 61, 222, 60, 0, 0, 127, 0, 74, 139, 191, 60, 200, 232, 112, 189, 50, 61, 222, 60, 0, 0, 127, 0, 124, 106, 97, 61, 200, 232, 112, 189, 50, 61, 222, 60, 0, 0, 127, 0, 74, 139, 191, 60, 218, 225, 30, 189, 48, 61, 222, 60, 0, 0, 127, 0, 212, 124, 7, 188, 38, 117, 222, 60, 36, 31, 101, 62, 129, 0, 0, 0, 212, 124, 7, 188, 32, 157, 233, 59, 56, 61, 222, 60, 129, 0, 0, 0, 212, 124, 7, 188, 32, 157, 233, 59, 2, 204, 68, 62, 129, 0, 0, 0, 212, 124, 7, 188, 38, 117, 222, 60, 54, 61, 222, 60, 129, 0, 0, 0, 20, 90, 242, 61, 38, 117, 222, 60, 51, 61, 222, 60, 0, 0, 127, 0, 168, 135, 177, 61, 32, 157, 233, 59, 52, 61, 222, 60, 0, 0, 127, 0, 20, 90, 242, 61, 32, 157, 233, 59, 52, 61, 222, 60, 0, 0, 127, 0, 168, 135, 177, 61, 38, 117, 222, 60, 52, 61, 222, 60, 0, 0, 127, 0, 68, 139, 191, 60, 38, 117, 222, 60, 54, 61, 222, 60, 127, 0, 0, 0, 68, 139, 191, 60, 32, 157, 233, 59, 2, 204, 68, 62, 127, 0, 0, 0, 68, 139, 191, 60, 32, 157, 233, 59, 56, 61, 222, 60, 127, 0, 0, 0, 68, 139, 191, 60, 38, 117, 222, 60, 36, 31, 101, 62, 127, 0, 0, 0, 21, 90, 242, 61, 218, 225, 30, 189, 48, 61, 222, 60, 0, 0, 127, 0, 170, 135, 177, 61, 200, 232, 112, 189, 50, 61, 222, 60, 0, 0, 127, 0, 21, 90, 242, 61, 200, 232, 112, 189, 50, 61, 222, 60, 0, 0, 127, 0, 170, 135, 177, 61, 218, 225, 30, 189, 48, 61, 222, 60, 0, 0, 127, 0, 121, 106, 97, 61, 38, 117, 222, 60, 36, 31, 101, 62, 130, 0, 0, 0, 121, 106, 97, 61, 32, 157, 233, 59, 52, 61, 222, 60, 130, 0, 0, 0, 121, 106, 97, 61, 32, 157, 233, 59, 2, 204, 68, 62, 130, 0, 0, 0, 121, 106, 97, 61, 38, 117, 222, 60, 53, 61, 222, 60, 130, 0, 0, 0, 220, 102, 211, 189, 218, 225, 30, 189, 48, 61, 222, 60, 127, 0, 0, 0, 220, 102, 211, 189, 200, 232, 112, 189, 36, 31, 101, 62, 127, 0, 0, 0, 220, 102, 211, 189, 200, 232, 112, 189, 50, 61, 222, 60, 127, 0, 0, 0, 220, 102, 211, 189, 218, 225, 30, 189, 2, 204, 68, 62, 127, 0, 0, 0, 121, 106, 97, 61, 38, 117, 222, 60, 53, 61, 222, 60, 0, 0, 127, 0, 68, 139, 191, 60, 32, 157, 233, 59, 56, 61, 222, 60, 0, 0, 127, 0, 121, 106, 97, 61, 32, 157, 233, 59, 52, 61, 222, 60, 0, 0, 127, 0, 68, 139, 191, 60, 38, 117, 222, 60, 54, 61, 222, 60, 0, 0, 127, 0, 168, 135, 177, 61, 38, 117, 222, 60, 52, 61, 222, 60, 127, 0, 0, 0, 168, 135, 177, 61, 32, 157, 233, 59, 2, 204, 68, 62, 127, 0, 0, 0, 168, 135, 177, 61, 32, 157, 233, 59, 52, 61, 222, 60, 127, 0, 0, 0, 168, 135, 177, 61, 38, 117, 222, 60, 36, 31, 101, 62, 127, 0, 0, 0, 112, 148, 146, 189, 218, 225, 30, 189, 2, 204, 68, 62, 129, 0, 0, 0, 112, 148, 146, 189, 200, 232, 112, 189, 50, 61, 222, 60, 129, 0, 0, 0, 112, 148, 146, 189, 200, 232, 112, 189, 36, 31, 101, 62, 129, 0, 0, 0, 112, 148, 146, 189, 218, 225, 30, 189, 48, 61, 222, 60, 129, 0, 0, 0, 20, 90, 242, 61, 38, 117, 222, 60, 36, 31, 101, 62, 129, 0, 0, 0, 20, 90, 242, 61, 32, 157, 233, 59, 52, 61, 222, 60, 129, 0, 0, 0, 20, 90, 242, 61, 32, 157, 233, 59, 2, 204, 68, 62, 129, 0, 0, 0, 20, 90, 242, 61, 38, 117, 222, 60, 51, 61, 222, 60, 129, 0, 0, 0, 9, 132, 35, 189, 218, 225, 30, 189, 48, 61, 222, 60, 127, 0, 0, 0, 9, 132, 35, 189, 200, 232, 112, 189, 36, 31, 101, 62, 127, 0, 0, 0, 9, 132, 35, 189, 200, 232, 112, 189, 50, 61, 222, 60, 127, 0, 0, 0, 9, 132, 35, 189, 218, 225, 30, 189, 2, 204, 68, 62, 127, 0, 0, 0, 212, 124, 7, 188, 38, 117, 222, 60, 54, 61, 222, 60, 0, 0, 127, 0, 12, 132, 35, 189, 32, 157, 233, 59, 56, 61, 222, 60, 0, 0, 127, 0, 212, 124, 7, 188, 32, 157, 233, 59, 56, 61, 222, 60, 0, 0, 127, 0, 12, 132, 35, 189, 38, 117, 222, 60, 54, 61, 222, 60, 0, 0, 127, 0, 20, 90, 242, 61, 38, 117, 222, 60, 36, 31, 101, 62, 129, 0, 0, 0, 21, 90, 242, 61, 218, 225, 30, 189, 2, 204, 68, 62, 129, 0, 0, 0, 21, 90, 242, 61, 200, 232, 112, 189, 36, 31, 101, 62, 129, 0, 0, 0, 20, 90, 242, 61, 32, 157, 233, 59, 2, 204, 68, 62, 129, 0, 0, 0, 200, 124, 7, 188, 218, 225, 30, 189, 2, 204, 68, 62, 129, 0, 0, 0, 200, 124, 7, 188, 200, 232, 112, 189, 50, 61, 222, 60, 129, 0, 0, 0, 200, 124, 7, 188, 200, 232, 112, 189, 36, 31, 101, 62, 129, 0, 0, 0, 200, 124, 7, 188, 218, 225, 30, 189, 48, 61, 222, 60, 129, 0, 0, 0, 170, 135, 177, 61, 218, 225, 30, 189, 2, 204, 68, 62, 127, 0, 0, 0, 168, 135, 177, 61, 38, 117, 222, 60, 36, 31, 101, 62, 127, 0, 0, 0, 170, 135, 177, 61, 200, 232, 112, 189, 36, 31, 101, 62, 127, 0, 0, 0, 168, 135, 177, 61, 32, 157, 233, 59, 2, 204, 68, 62, 127, 0, 0, 0, 64, 150, 25, 62, 38, 117, 222, 60, 90, 229, 212, 189, 126, 0, 0, 0, 64, 150, 25, 62, 200, 232, 112, 189, 90, 229, 212, 189, 126, 0, 0, 0, 30, 166, 159, 189, 38, 117, 222, 60, 12, 86, 29, 189, 0, 127, 0, 0, 64, 150, 25, 62, 38, 117, 222, 60, 14, 86, 29, 189, 0, 127, 0, 0, 236, 187, 229, 61, 38, 117, 222, 60, 14, 86, 29, 189, 0, 127, 0, 0, 64, 150, 25, 62, 38, 117, 222, 60, 50, 61, 222, 60, 0, 127, 0, 0, 164, 28, 10, 190, 38, 117, 222, 60, 56, 61, 222, 60, 0, 127, 0, 0, 164, 28, 10, 190, 38, 117, 222, 60, 12, 86, 29, 189, 0, 127, 0, 0, 64, 150, 25, 62, 200, 232, 112, 189, 50, 61, 222, 60, 0, 129, 0, 0, 236, 187, 229, 61, 200, 232, 112, 189, 14, 86, 29, 189, 0, 129, 0, 0, 64, 150, 25, 62, 200, 232, 112, 189, 14, 86, 29, 189, 0, 129, 0, 0, 30, 166, 159, 189, 200, 232, 112, 189, 14, 86, 29, 189, 0, 129, 0, 0, 164, 28, 10, 190, 200, 232, 112, 189, 14, 86, 29, 189, 0, 129, 0, 0, 164, 28, 10, 190, 200, 232, 112, 189, 50, 61, 222, 60, 0, 129, 0, 0, 164, 28, 10, 190, 38, 117, 222, 60, 56, 61, 222, 60, 130, 0, 0, 0, 164, 28, 10, 190, 200, 232, 112, 189, 50, 61, 222, 60, 130, 0, 0, 0, 59, 253, 122, 61, 2, 241, 46, 189, 232, 200, 39, 190, 0, 0, 127, 0, 198, 196, 211, 189, 200, 232, 112, 189, 232, 200, 39, 190, 0, 0, 127, 0, 59, 253, 122, 61, 200, 232, 112, 189, 232, 200, 39, 190, 0, 0, 127, 0, 198, 196, 211, 189, 2, 241, 46, 189, 232, 200, 39, 190, 0, 0, 127, 0, 164, 28, 10, 190, 38, 117, 222, 60, 232, 200, 39, 190, 0, 127, 0, 0, 236, 254, 150, 61, 38, 117, 222, 60, 36, 31, 101, 190, 0, 127, 0, 0, 164, 28, 10, 190, 38, 117, 222, 60, 36, 31, 101, 190, 0, 127, 0, 0, 182, 21, 229, 61, 38, 117, 222, 60, 232, 200, 39, 190, 0, 127, 0, 0, 198, 196, 211, 189, 38, 117, 222, 60, 232, 200, 39, 190, 0, 127, 0, 0, 59, 253, 122, 61, 38, 117, 222, 60, 232, 200, 39, 190, 0, 127, 0, 0, 182, 21, 229, 61, 38, 117, 222, 60, 232, 200, 39, 190, 107, 0, 188, 0, 64, 150, 25, 62, 200, 232, 112, 189, 90, 229, 212, 189, 107, 0, 188, 0, 182, 21, 229, 61, 200, 232, 112, 189, 232, 200, 39, 190, 107, 0, 188, 0, 64, 150, 25, 62, 38, 117, 222, 60, 90, 229, 212, 189, 107, 0, 188, 0, 164, 28, 10, 190, 38, 117, 222, 60, 90, 229, 212, 189, 129, 0, 0, 0, 164, 28, 10, 190, 200, 232, 112, 189, 90, 229, 212, 189, 129, 0, 0, 0, 30, 166, 159, 189, 38, 117, 222, 60, 12, 86, 29, 189, 0, 0, 130, 0, 236, 187, 229, 61, 54, 11, 53, 60, 14, 86, 29, 189, 0, 0, 130, 0, 30, 166, 159, 189, 54, 11, 53, 60, 12, 86, 29, 189, 0, 0, 130, 0, 236, 187, 229, 61, 38, 117, 222, 60, 14, 86, 29, 189, 0, 0, 130, 0, 198, 196, 211, 189, 2, 241, 46, 189, 232, 200, 39, 190, 124, 0, 231, 0, 30, 166, 159, 189, 200, 232, 112, 189, 14, 86, 29, 189, 124, 0, 231, 0, 198, 196, 211, 189, 200, 232, 112, 189, 232, 200, 39, 190, 124, 0, 231, 0, 30, 166, 159, 189, 2, 241, 46, 189, 14, 86, 29, 189, 124, 0, 231, 0, 236, 187, 229, 61, 38, 117, 222, 60, 14, 86, 29, 189, 139, 0, 47, 0, 59, 253, 122, 61, 54, 11, 53, 60, 232, 200, 39, 190, 139, 0, 47, 0, 236, 187, 229, 61, 54, 11, 53, 60, 14, 86, 29, 189, 139, 0, 47, 0, 59, 253, 122, 61, 38, 117, 222, 60, 232, 200, 39, 190, 139, 0, 47, 0, 236, 187, 229, 61, 2, 241, 46, 189, 14, 86, 29, 189, 139, 0, 47, 0, 59, 253, 122, 61, 200, 232, 112, 189, 232, 200, 39, 190, 139, 0, 47, 0, 236, 187, 229, 61, 200, 232, 112, 189, 14, 86, 29, 189, 139, 0, 47, 0, 59, 253, 122, 61, 2, 241, 46, 189, 232, 200, 39, 190, 139, 0, 47, 0, 198, 196, 211, 189, 38, 117, 222, 60, 232, 200, 39, 190, 124, 0, 231, 0, 30, 166, 159, 189, 54, 11, 53, 60, 12, 86, 29, 189, 124, 0, 231, 0, 198, 196, 211, 189, 54, 11, 53, 60, 232, 200, 39, 190, 124, 0, 231, 0, 30, 166, 159, 189, 38, 117, 222, 60, 12, 86, 29, 189, 124, 0, 231, 0, 59, 253, 122, 61, 38, 117, 222, 60, 232, 200, 39, 190, 0, 0, 127, 0, 198, 196, 211, 189, 54, 11, 53, 60, 232, 200, 39, 190, 0, 0, 127, 0, 59, 253, 122, 61, 54, 11, 53, 60, 232, 200, 39, 190, 0, 0, 127, 0, 198, 196, 211, 189, 38, 117, 222, 60, 232, 200, 39, 190, 0, 0, 127, 0, 164, 28, 10, 190, 38, 117, 222, 60, 12, 86, 29, 189, 0, 127, 0, 0, 30, 166, 159, 189, 38, 117, 222, 60, 12, 86, 29, 189, 0, 127, 0, 0, 236, 187, 229, 61, 38, 117, 222, 60, 14, 86, 29, 189, 0, 127, 0, 0, 64, 150, 25, 62, 38, 117, 222, 60, 14, 86, 29, 189, 0, 127, 0, 0, 64, 150, 25, 62, 38, 117, 222, 60, 90, 229, 212, 189, 0, 127, 0, 0, 64, 150, 25, 62, 200, 232, 112, 189, 90, 229, 212, 189, 0, 129, 0, 0 ),
"array_index_data": PoolByteArray( 0, 0, 2, 0, 1, 0, 0, 0, 1, 0, 3, 0, 4, 0, 6, 0, 5, 0, 4, 0, 5, 0, 7, 0, 8, 0, 10, 0, 9, 0, 8, 0, 9, 0, 11, 0, 12, 0, 14, 0, 13, 0, 12, 0, 13, 0, 15, 0, 16, 0, 18, 0, 17, 0, 16, 0, 17, 0, 19, 0, 20, 0, 22, 0, 21, 0, 20, 0, 21, 0, 23, 0, 24, 0, 26, 0, 25, 0, 24, 0, 25, 0, 27, 0, 28, 0, 30, 0, 29, 0, 28, 0, 29, 0, 31, 0, 32, 0, 28, 0, 31, 0, 33, 0, 32, 0, 31, 0, 34, 0, 36, 0, 35, 0, 37, 0, 34, 0, 35, 0, 38, 0, 40, 0, 39, 0, 38, 0, 39, 0, 41, 0, 42, 0, 44, 0, 43, 0, 42, 0, 43, 0, 45, 0, 46, 0, 48, 0, 47, 0, 46, 0, 47, 0, 49, 0, 50, 0, 52, 0, 51, 0, 50, 0, 51, 0, 53, 0, 54, 0, 56, 0, 55, 0, 54, 0, 55, 0, 57, 0, 58, 0, 60, 0, 59, 0, 58, 0, 59, 0, 61, 0, 62, 0, 64, 0, 63, 0, 62, 0, 63, 0, 65, 0, 66, 0, 68, 0, 67, 0, 66, 0, 67, 0, 69, 0, 70, 0, 72, 0, 71, 0, 73, 0, 70, 0, 71, 0, 74, 0, 76, 0, 75, 0, 74, 0, 75, 0, 77, 0, 78, 0, 80, 0, 79, 0, 78, 0, 79, 0, 81, 0, 82, 0, 84, 0, 83, 0, 82, 0, 83, 0, 85, 0, 86, 0, 88, 0, 87, 0, 86, 0, 87, 0, 89, 0, 90, 0, 92, 0, 91, 0, 93, 0, 90, 0, 91, 0, 94, 0, 96, 0, 95, 0, 94, 0, 95, 0, 97, 0, 98, 0, 100, 0, 99, 0, 98, 0, 99, 0, 101, 0, 102, 0, 104, 0, 103, 0, 102, 0, 103, 0, 105, 0, 106, 0, 108, 0, 107, 0, 109, 0, 106, 0, 107, 0, 110, 0, 112, 0, 111, 0, 113, 0, 110, 0, 111, 0, 114, 0, 116, 0, 115, 0, 114, 0, 115, 0, 117, 0, 118, 0, 120, 0, 119, 0, 118, 0, 119, 0, 121, 0, 122, 0, 124, 0, 123, 0, 122, 0, 123, 0, 125, 0, 126, 0, 128, 0, 127, 0, 126, 0, 127, 0, 129, 0, 130, 0, 132, 0, 131, 0, 130, 0, 131, 0, 133, 0, 134, 0, 136, 0, 135, 0, 134, 0, 135, 0, 137, 0, 138, 0, 140, 0, 139, 0, 138, 0, 139, 0, 141, 0, 142, 0, 144, 0, 143, 0, 142, 0, 143, 0, 145, 0, 146, 0, 148, 0, 147, 0, 146, 0, 147, 0, 149, 0, 150, 0, 152, 0, 151, 0, 150, 0, 151, 0, 153, 0, 154, 0, 156, 0, 155, 0, 157, 0, 154, 0, 155, 0, 158, 0, 160, 0, 159, 0, 158, 0, 159, 0, 161, 0, 162, 0, 164, 0, 163, 0, 162, 0, 163, 0, 165, 0, 166, 0, 168, 0, 167, 0, 166, 0, 167, 0, 169, 0, 170, 0, 172, 0, 171, 0, 170, 0, 171, 0, 173, 0, 174, 0, 176, 0, 175, 0, 174, 0, 175, 0, 177, 0, 178, 0, 180, 0, 179, 0, 178, 0, 179, 0, 181, 0, 182, 0, 184, 0, 183, 0, 182, 0, 183, 0, 185, 0, 186, 0, 188, 0, 187, 0, 186, 0, 187, 0, 189, 0, 190, 0, 192, 0, 191, 0, 190, 0, 191, 0, 193, 0, 194, 0, 196, 0, 195, 0, 194, 0, 195, 0, 197, 0, 198, 0, 200, 0, 199, 0, 198, 0, 199, 0, 201, 0, 202, 0, 204, 0, 203, 0, 202, 0, 203, 0, 205, 0, 206, 0, 208, 0, 207, 0, 206, 0, 207, 0, 209, 0, 210, 0, 212, 0, 211, 0, 210, 0, 211, 0, 213, 0, 214, 0, 216, 0, 215, 0, 214, 0, 215, 0, 217, 0, 218, 0, 220, 0, 219, 0, 218, 0, 219, 0, 221, 0, 222, 0, 224, 0, 223, 0, 225, 0, 222, 0, 223, 0, 226, 0, 227, 0, 48, 0, 226, 0, 48, 0, 46, 0, 228, 0, 230, 0, 229, 0, 228, 0, 229, 0, 231, 0, 232, 0, 233, 0, 228, 0, 232, 0, 228, 0, 231, 0, 234, 0, 236, 0, 235, 0, 234, 0, 235, 0, 237, 0, 234, 0, 237, 0, 238, 0, 234, 0, 238, 0, 239, 0, 240, 0, 241, 0, 22, 0, 240, 0, 22, 0, 20, 0, 242, 0, 244, 0, 243, 0, 242, 0, 243, 0, 245, 0, 246, 0, 248, 0, 247, 0, 246, 0, 247, 0, 249, 0, 250, 0, 246, 0, 249, 0, 251, 0, 250, 0, 249, 0, 252, 0, 254, 0, 253, 0, 252, 0, 253, 0, 255, 0, 0, 1, 1, 1, 2, 0, 0, 1, 2, 0, 0, 0, 2, 1, 4, 1, 3, 1, 2, 1, 3, 1, 5, 1, 6, 1, 8, 1, 7, 1, 6, 1, 7, 1, 9, 1, 10, 1, 12, 1, 11, 1, 10, 1, 11, 1, 13, 1, 14, 1, 16, 1, 15, 1, 14, 1, 15, 1, 17, 1, 18, 1, 20, 1, 19, 1, 18, 1, 19, 1, 21, 1, 22, 1, 24, 1, 23, 1, 22, 1, 23, 1, 25, 1, 26, 1, 246, 0, 250, 0, 26, 1, 250, 0, 27, 1, 28, 1, 251, 0, 249, 0, 28, 1, 249, 0, 29, 1, 249, 0, 30, 1, 29, 1, 237, 0, 33, 0, 31, 0, 237, 0, 31, 0, 238, 0, 236, 0, 28, 0, 32, 0, 236, 0, 32, 0, 235, 0, 236, 0, 31, 1, 28, 0 ),
"blend_shape_data": [  ],
"format": 97539,
"index_count": 474,
"material": ExtResource( 3 ),
"primitive": 4,
"skeleton_aabb": [  ],
"vertex_count": 288
}

[sub_resource type="BoxShape" id=2]

margin = 0.04
extents = Vector3( 0.19049, 0.073705, 0.270894 )

[node name="KeyCard" type="RigidBody" groups=[
"Keycard",
"Pickup",
]]
input_ray_pickable = true
input_capture_on_drag = false
collision_layer = 4
collision_mask = 4
mode = 1
mass = 22.0
physics_material_override = null
gravity_scale = 0.1
custom_integrator = false
continuous_cd = true
contacts_reported = 0
contact_monitor = false
sleeping = false
can_sleep = true
axis_lock_linear_x = false
axis_lock_linear_y = false
axis_lock_linear_z = false
axis_lock_angular_x = false
axis_lock_angular_y = false
axis_lock_angular_z = false
linear_velocity = Vector3( 0, 0, 0 )
linear_damp = -1.0
angular_velocity = Vector3( 0, 0, 0 )
angular_damp = -1.0
_sections_unfolded = [ "Angular", "Axis Lock", "Collision", "Linear", "Transform", "physics_material_override" ]

[node name="Keycard" type="MeshInstance" parent="."]
transform = Transform( 1, 0, 0, 0, 1, 0, 0, 0, 1, -0.00608194, 0.0136843, 0 )
layers = 1
material_override = null
cast_shadow = 1
extra_cull_margin = 0.0
use_in_baked_light = true
lod_min_distance = 0.0
lod_min_hysteresis = 0.0
lod_max_distance = 0.0
lod_max_hysteresis = 0.0
mesh = SubResource( 1 )
skeleton = NodePath("..")
material/0 = null
material/1 = null
material/2 = null
_sections_unfolded = [ "Transform" ]

[node name="CollisionShape" type="CollisionShape" parent="."]
shape = SubResource( 2 )
disabled = false
_sections_unfolded = [ "shape" ]

