[gd_scene load_steps=9 format=2]

[ext_resource path="res://scenes/robot/Robot.gd" type="Script" id=1]
[ext_resource path="res://models/robot/robot.gltf" type="PackedScene" id=2]
[ext_resource path="res://textures/huh.png" type="Texture" id=3]

[sub_resource type="CapsuleShape" id=1]

margin = 0.04
radius = 1.0
height = 4.8

[sub_resource type="QuadMesh" id=6]

custom_aabb = AABB( 0, 0, 0, 0, 0, 0 )
flip_faces = false
size = Vector2( 1, 1 )

[sub_resource type="SpatialMaterial" id=7]

render_priority = 0
flags_transparent = true
flags_unshaded = true
flags_vertex_lighting = false
flags_no_depth_test = false
flags_use_point_size = false
flags_world_triplanar = false
flags_fixed_size = false
flags_albedo_tex_force_srgb = false
flags_do_not_receive_shadows = false
flags_disable_ambient_light = false
flags_ensure_correct_normals = false
vertex_color_use_as_albedo = false
vertex_color_is_srgb = false
params_diffuse_mode = 0
params_specular_mode = 4
params_blend_mode = 0
params_cull_mode = 2
params_depth_draw_mode = 0
params_line_width = 1.0
params_point_size = 1.0
params_billboard_mode = 2
params_billboard_keep_scale = true
params_grow = false
params_use_alpha_scissor = false
albedo_color = Color( 1, 1, 1, 1 )
albedo_texture = ExtResource( 3 )
metallic = 0.0
metallic_specular = 0.5
metallic_texture_channel = 0
roughness = 1.0
roughness_texture_channel = 0
emission_enabled = false
normal_enabled = false
rim_enabled = false
clearcoat_enabled = false
anisotropy_enabled = false
ao_enabled = false
depth_enabled = false
subsurf_scatter_enabled = false
transmission_enabled = false
refraction_enabled = false
detail_enabled = false
uv1_scale = Vector3( 1, 1, 1 )
uv1_offset = Vector3( 0, 0, 0 )
uv1_triplanar = false
uv1_triplanar_sharpness = 1.0
uv2_scale = Vector3( 1, 1, 1 )
uv2_offset = Vector3( 0, 0, 0 )
uv2_triplanar = false
uv2_triplanar_sharpness = 1.0
proximity_fade_enable = false
distance_fade_mode = 0
_sections_unfolded = [ "Albedo", "Emission", "Flags", "Metallic", "Parameters", "Roughness" ]

[sub_resource type="Animation" id=4]

length = 1.0
loop = false
step = 0.05
tracks/0/type = "value"
tracks/0/path = NodePath("Scene Root:rotation_degrees")
tracks/0/interp = 1
tracks/0/loop_wrap = true
tracks/0/imported = false
tracks/0/enabled = true
tracks/0/keys = {
"times": PoolRealArray(  ),
"transitions": PoolRealArray(  ),
"update": 0,
"values": [  ]
}
tracks/1/type = "method"
tracks/1/path = NodePath(".")
tracks/1/interp = 1
tracks/1/loop_wrap = true
tracks/1/imported = false
tracks/1/enabled = true
tracks/1/keys = {
"times": PoolRealArray( 0.4 ),
"transitions": PoolRealArray( 1 ),
"values": [ {
"args": [  ],
"method": "game_over"
} ]
}

[sub_resource type="Animation" id=5]

length = 2.0
loop = false
step = 0.1
tracks/0/type = "value"
tracks/0/path = NodePath("Scene Root:rotation_degrees")
tracks/0/interp = 2
tracks/0/loop_wrap = true
tracks/0/imported = false
tracks/0/enabled = true
tracks/0/keys = {
"times": PoolRealArray( 1 ),
"transitions": PoolRealArray( 1 ),
"update": 0,
"values": [ Vector3( 0, 0, 0 ) ]
}

[node name="Robot" type="KinematicBody" groups=[
"Listener",
"Robot",
]]
input_ray_pickable = true
input_capture_on_drag = false
collision_layer = 1
collision_mask = 1
move_lock_x = false
move_lock_y = false
move_lock_z = false
collision/safe_margin = 0.001
script = ExtResource( 1 )
_sections_unfolded = [ "Transform" ]
nav_node_path = null
out_and_back = false
path_point_wait = 0.0

[node name="CollisionShape" type="CollisionShape" parent="."]
transform = Transform( 1, 0, 0, 0, -4.37114e-008, -1, 0, 1, -4.37114e-008, 0, 3.4, 0 )
shape = SubResource( 1 )
disabled = false
_sections_unfolded = [ "Transform", "shape" ]

[node name="Scene Root" parent="." instance=ExtResource( 2 )]
_sections_unfolded = [ "Transform" ]

[node name="SpotLight" type="SpotLight" parent="."]
transform = Transform( -1, 7.81597e-014, -8.74228e-008, -4.83511e-008, 0.833133, 0.553073, 7.28348e-008, 0.553073, -0.833133, 0.0486071, 5.8842, 1.00307 )
layers = 1
light_color = Color( 0.313726, 0.792157, 1, 1 )
light_energy = 1.0
light_indirect_energy = 1.0
light_negative = false
light_specular = 0.5
light_bake_mode = 1
light_cull_mask = -1
shadow_enabled = true
shadow_color = Color( 0, 0, 0, 1 )
shadow_bias = 0.15
shadow_contact = 0.0
shadow_reverse_cull_face = false
editor_only = false
spot_range = 23.9576
spot_attenuation = 0.378929
spot_angle = 33.75
spot_angle_attenuation = 2.82843
_sections_unfolded = [ "Light", "Shadow", "Spot" ]

[node name="Huh" type="MeshInstance" parent="."]
transform = Transform( 2.04576, 0, 0, 0, 2.04576, 0, 0, 0, 2.04576, 0, 8.13521, 0 )
visible = false
layers = 1
material_override = null
cast_shadow = 1
extra_cull_margin = 0.0
use_in_baked_light = false
lod_min_distance = 0.0
lod_min_hysteresis = 0.0
lod_max_distance = 0.0
lod_max_hysteresis = 0.0
mesh = SubResource( 6 )
skeleton = NodePath("..")
material/0 = SubResource( 7 )
_sections_unfolded = [ "material" ]

[node name="AnimationPlayer" type="AnimationPlayer" parent="."]
root_node = NodePath("..")
autoplay = "Idle"
playback_process_mode = 1
playback_default_blend_time = 0.0
playback_speed = 1.0
anims/Grab = SubResource( 4 )
anims/Idle = SubResource( 5 )
next/Grab = "Idle"
blend_times = [  ]

