{
    "accessors" : [
        {
            "bufferView" : 0,
            "componentType" : 5121,
            "count" : 132,
            "max" : [
                52
            ],
            "min" : [
                0
            ],
            "type" : "SCALAR"
        },
        {
            "bufferView" : 1,
            "componentType" : 5126,
            "count" : 53,
            "max" : [
                -12.884672164916992,
                0.9999998807907104,
                -5.795915603637695
            ],
            "min" : [
                -26.152769088745117,
                -5.8039350509643555,
                -102.87149047851562
            ],
            "type" : "VEC3"
        },
        {
            "bufferView" : 2,
            "componentType" : 5126,
            "count" : 53,
            "max" : [
                0.0,
                1.0,
                0.0
            ],
            "min" : [
                0.0,
                0.9047327637672424,
                -0.4259796738624573
            ],
            "type" : "VEC3"
        },
        {
            "bufferView" : 3,
            "componentType" : 5121,
            "count" : 324,
            "max" : [
                167
            ],
            "min" : [
                0
            ],
            "type" : "SCALAR"
        },
        {
            "bufferView" : 4,
            "componentType" : 5126,
            "count" : 168,
            "max" : [
                1.0,
                2.0,
                1.0
            ],
            "min" : [
                -1.0,
                0.0,
                -1.0
            ],
            "type" : "VEC3"
        },
        {
            "bufferView" : 5,
            "componentType" : 5126,
            "count" : 168,
            "max" : [
                1.0,
                1.0,
                1.0
            ],
            "min" : [
                -1.0,
                -1.0,
                -1.0
            ],
            "type" : "VEC3"
        },
        {
            "bufferView" : 6,
            "componentType" : 5121,
            "count" : 36,
            "max" : [
                23
            ],
            "min" : [
                0
            ],
            "type" : "SCALAR"
        },
        {
            "bufferView" : 7,
            "componentType" : 5126,
            "count" : 24,
            "max" : [
                -27.055620193481445,
                12.288832664489746,
                -28.954992294311523
            ],
            "min" : [
                -27.055622100830078,
                1.7000001668930054,
                -92.74617004394531
            ],
            "type" : "VEC3"
        },
        {
            "bufferView" : 8,
            "componentType" : 5126,
            "count" : 24,
            "max" : [
                1.0,
                0.0,
                -0.0
            ],
            "min" : [
                0.9999999403953552,
                0.0,
                -0.0
            ],
            "type" : "VEC3"
        },
        {
            "bufferView" : 9,
            "componentType" : 5123,
            "count" : 456,
            "max" : [
                275
            ],
            "min" : [
                0
            ],
            "type" : "SCALAR"
        },
        {
            "bufferView" : 10,
            "componentType" : 5126,
            "count" : 276,
            "max" : [
                -12.388504028320312,
                12.288832664489746,
                -28.954992294311523
            ],
            "min" : [
                -27.22655487060547,
                -241.99996948242188,
                -103.4461669921875
            ],
            "type" : "VEC3"
        },
        {
            "bufferView" : 11,
            "componentType" : 5126,
            "count" : 276,
            "max" : [
                1.0,
                1.0,
                1.0
            ],
            "min" : [
                -1.0,
                -1.0,
                -1.0
            ],
            "type" : "VEC3"
        },
        {
            "bufferView" : 12,
            "componentType" : 5123,
            "count" : 1035,
            "max" : [
                544
            ],
            "min" : [
                0
            ],
            "type" : "SCALAR"
        },
        {
            "bufferView" : 13,
            "componentType" : 5126,
            "count" : 545,
            "max" : [
                -12.388504028320312,
                12.988832473754883,
                -28.25499153137207
            ],
            "min" : [
                -27.22655487060547,
                -241.99996948242188,
                -103.4461669921875
            ],
            "type" : "VEC3"
        },
        {
            "bufferView" : 14,
            "componentType" : 5126,
            "count" : 545,
            "max" : [
                1.0,
                1.0,
                1.0
            ],
            "min" : [
                -1.0366024838504018e-07,
                -1.0,
                -1.0
            ],
            "type" : "VEC3"
        },
        {
            "bufferView" : 15,
            "componentType" : 5121,
            "count" : 192,
            "max" : [
                111
            ],
            "min" : [
                0
            ],
            "type" : "SCALAR"
        },
        {
            "bufferView" : 16,
            "componentType" : 5126,
            "count" : 112,
            "max" : [
                14.891365051269531,
                5.011467456817627,
                -14.935811042785645
            ],
            "min" : [
                11.109354019165039,
                0.9999998807907104,
                -19.93610382080078
            ],
            "type" : "VEC3"
        },
        {
            "bufferView" : 17,
            "componentType" : 5126,
            "count" : 112,
            "max" : [
                0.8951379656791687,
                1.0,
                0.8935107588768005
            ],
            "min" : [
                -0.989754319190979,
                -1.0,
                -0.9091566205024719
            ],
            "type" : "VEC3"
        },
        {
            "bufferView" : 18,
            "componentType" : 5123,
            "count" : 2298,
            "max" : [
                681
            ],
            "min" : [
                0
            ],
            "type" : "SCALAR"
        },
        {
            "bufferView" : 19,
            "componentType" : 5126,
            "count" : 682,
            "max" : [
                31.612279891967773,
                226.32984924316406,
                31.6122989654541
            ],
            "min" : [
                -31.612287521362305,
                -390.9351806640625,
                -31.612276077270508
            ],
            "type" : "VEC3"
        },
        {
            "bufferView" : 20,
            "componentType" : 5126,
            "count" : 682,
            "max" : [
                1.0,
                1.0,
                1.0
            ],
            "min" : [
                -1.0,
                -1.0,
                -1.0
            ],
            "type" : "VEC3"
        },
        {
            "bufferView" : 21,
            "componentType" : 5121,
            "count" : 192,
            "max" : [
                63
            ],
            "min" : [
                0
            ],
            "type" : "SCALAR"
        },
        {
            "bufferView" : 22,
            "componentType" : 5126,
            "count" : 64,
            "max" : [
                22.718820571899414,
                8.597235679626465,
                22.718833923339844
            ],
            "min" : [
                -22.71882438659668,
                2.70942759513855,
                -22.71881675720215
            ],
            "type" : "VEC3"
        },
        {
            "bufferView" : 23,
            "componentType" : 5126,
            "count" : 64,
            "max" : [
                1.0,
                0.0,
                0.999969482421875
            ],
            "min" : [
                -1.0,
                0.0,
                -1.0
            ],
            "type" : "VEC3"
        },
        {
            "bufferView" : 24,
            "componentType" : 5121,
            "count" : 1296,
            "max" : [
                233
            ],
            "min" : [
                0
            ],
            "type" : "SCALAR"
        },
        {
            "bufferView" : 25,
            "componentType" : 5126,
            "count" : 234,
            "max" : [
                -23.348285675048828,
                3.011970043182373,
                -5.518265724182129
            ],
            "min" : [
                -23.424556732177734,
                2.319291591644287,
                -5.8031535148620605
            ],
            "type" : "VEC3"
        },
        {
            "bufferView" : 26,
            "componentType" : 5126,
            "count" : 234,
            "max" : [
                0.9887691736221313,
                0.981536328792572,
                1.0
            ],
            "min" : [
                -0.9887691736221313,
                -0.9851984977722168,
                -1.0
            ],
            "type" : "VEC3"
        },
        {
            "bufferView" : 27,
            "componentType" : 5123,
            "count" : 1224,
            "max" : [
                301
            ],
            "min" : [
                0
            ],
            "type" : "SCALAR"
        },
        {
            "bufferView" : 28,
            "componentType" : 5126,
            "count" : 302,
            "max" : [
                -23.334524154663086,
                3.06355619430542,
                -5.803002834320068
            ],
            "min" : [
                -23.438318252563477,
                2.8338139057159424,
                -6.0895256996154785
            ],
            "type" : "VEC3"
        },
        {
            "bufferView" : 29,
            "componentType" : 5126,
            "count" : 302,
            "max" : [
                0.99945068359375,
                0.999969482421875,
                0.9551683068275452
            ],
            "min" : [
                -0.99945068359375,
                -0.999969482421875,
                -0.99993896484375
            ],
            "type" : "VEC3"
        },
        {
            "bufferView" : 30,
            "componentType" : 5123,
            "count" : 1884,
            "max" : [
                431
            ],
            "min" : [
                0
            ],
            "type" : "SCALAR"
        },
        {
            "bufferView" : 31,
            "componentType" : 5126,
            "count" : 432,
            "max" : [
                -23.107131958007812,
                2.9344253540039062,
                -5.413320541381836
            ],
            "min" : [
                -23.66571044921875,
                2.2000088691711426,
                -6.440932273864746
            ],
            "type" : "VEC3"
        },
        {
            "bufferView" : 32,
            "componentType" : 5126,
            "count" : 432,
            "max" : [
                0.9837031364440918,
                1.0,
                0.9976806044578552
            ],
            "min" : [
                -0.9837031364440918,
                -0.9718619585037231,
                -0.9870601296424866
            ],
            "type" : "VEC3"
        },
        {
            "bufferView" : 33,
            "componentType" : 5121,
            "count" : 156,
            "max" : [
                83
            ],
            "min" : [
                0
            ],
            "type" : "SCALAR"
        },
        {
            "bufferView" : 34,
            "componentType" : 5126,
            "count" : 84,
            "max" : [
                17.224868774414062,
                2.1999998092651367,
                19.200876235961914
            ],
            "min" : [
                15.224868774414062,
                0.9999997615814209,
                15.200876235961914
            ],
            "type" : "VEC3"
        },
        {
            "bufferView" : 35,
            "componentType" : 5126,
            "count" : 84,
            "max" : [
                1.0,
                1.0,
                1.0
            ],
            "min" : [
                -1.0,
                -1.0,
                -1.0
            ],
            "type" : "VEC3"
        },
        {
            "bufferView" : 36,
            "componentType" : 5121,
            "count" : 6,
            "max" : [
                3
            ],
            "min" : [
                0
            ],
            "type" : "SCALAR"
        },
        {
            "bufferView" : 37,
            "componentType" : 5126,
            "count" : 4,
            "max" : [
                -27.055618286132812,
                5.196180820465088,
                -9.25499153137207
            ],
            "min" : [
                -27.055618286132812,
                1.7000001668930054,
                -18.25499153137207
            ],
            "type" : "VEC3"
        },
        {
            "bufferView" : 38,
            "componentType" : 5126,
            "count" : 4,
            "max" : [
                1.0,
                0.0,
                -0.0
            ],
            "min" : [
                1.0,
                0.0,
                -0.0
            ],
            "type" : "VEC3"
        },
        {
            "bufferView" : 39,
            "componentType" : 5123,
            "count" : 456,
            "max" : [
                264
            ],
            "min" : [
                0
            ],
            "type" : "SCALAR"
        },
        {
            "bufferView" : 40,
            "componentType" : 5126,
            "count" : 265,
            "max" : [
                -7.648063659667969,
                12.288832664489746,
                25.164031982421875
            ],
            "min" : [
                -27.226551055908203,
                -241.99996948242188,
                -28.25499153137207
            ],
            "type" : "VEC3"
        },
        {
            "bufferView" : 41,
            "componentType" : 5126,
            "count" : 265,
            "max" : [
                1.0,
                1.0,
                1.0
            ],
            "min" : [
                -1.0,
                -1.0,
                -1.0
            ],
            "type" : "VEC3"
        },
        {
            "bufferView" : 42,
            "componentType" : 5121,
            "count" : 453,
            "max" : [
                200
            ],
            "min" : [
                0
            ],
            "type" : "SCALAR"
        },
        {
            "bufferView" : 43,
            "componentType" : 5126,
            "count" : 201,
            "max" : [
                -7.648063659667969,
                12.288832664489746,
                10.150419235229492
            ],
            "min" : [
                -27.226551055908203,
                -241.99996948242188,
                -28.25499153137207
            ],
            "type" : "VEC3"
        },
        {
            "bufferView" : 44,
            "componentType" : 5126,
            "count" : 201,
            "max" : [
                1.0,
                1.0,
                1.0
            ],
            "min" : [
                0.0,
                -1.0,
                -1.0
            ],
            "type" : "VEC3"
        },
        {
            "bufferView" : 45,
            "componentType" : 5121,
            "count" : 84,
            "max" : [
                45
            ],
            "min" : [
                0
            ],
            "type" : "SCALAR"
        },
        {
            "bufferView" : 46,
            "componentType" : 5126,
            "count" : 46,
            "max" : [
                -6.175924301147461,
                6.293607711791992,
                -26.447771072387695
            ],
            "min" : [
                -21.695865631103516,
                -82.73138427734375,
                -27.363636016845703
            ],
            "type" : "VEC3"
        },
        {
            "bufferView" : 47,
            "componentType" : 5126,
            "count" : 46,
            "max" : [
                1.0,
                1.0,
                1.0
            ],
            "min" : [
                -1.0,
                -1.0,
                -1.0
            ],
            "type" : "VEC3"
        },
        {
            "bufferView" : 48,
            "componentType" : 5121,
            "count" : 60,
            "max" : [
                21
            ],
            "min" : [
                0
            ],
            "type" : "SCALAR"
        },
        {
            "bufferView" : 49,
            "componentType" : 5126,
            "count" : 22,
            "max" : [
                -877.3920288085938,
                -130.45101928710938,
                47.80206298828125
            ],
            "min" : [
                -1755.494384765625,
                -585.8851318359375,
                -282.5245056152344
            ],
            "type" : "VEC3"
        },
        {
            "bufferView" : 50,
            "componentType" : 5126,
            "count" : 22,
            "max" : [
                0.0,
                1.0,
                0.9867549538612366
            ],
            "min" : [
                0.0,
                -0.9915769100189209,
                -0.0
            ],
            "type" : "VEC3"
        },
        {
            "bufferView" : 51,
            "componentType" : 5126,
            "count" : 22,
            "max" : [
                1.0,
                0.0,
                -0.0,
                -1.0
            ],
            "min" : [
                1.0,
                0.0,
                -0.0,
                -1.0
            ],
            "type" : "VEC4"
        },
        {
            "bufferView" : 52,
            "componentType" : 5126,
            "count" : 22,
            "max" : [
                -26.410327911376953,
                -36.25033950805664
            ],
            "min" : [
                -26.410327911376953,
                -36.25033950805664
            ],
            "type" : "VEC2"
        }
    ],
    "asset" : {
        "generator" : "Khronos Blender glTF 2.0 exporter",
        "version" : "2.0"
    },
    "bufferViews" : [
        {
            "buffer" : 0,
            "byteLength" : 132,
            "byteOffset" : 0,
            "target" : 34963
        },
        {
            "buffer" : 0,
            "byteLength" : 636,
            "byteOffset" : 132,
            "target" : 34962
        },
        {
            "buffer" : 0,
            "byteLength" : 636,
            "byteOffset" : 768,
            "target" : 34962
        },
        {
            "buffer" : 0,
            "byteLength" : 324,
            "byteOffset" : 1404,
            "target" : 34963
        },
        {
            "buffer" : 0,
            "byteLength" : 2016,
            "byteOffset" : 1728,
            "target" : 34962
        },
        {
            "buffer" : 0,
            "byteLength" : 2016,
            "byteOffset" : 3744,
            "target" : 34962
        },
        {
            "buffer" : 0,
            "byteLength" : 36,
            "byteOffset" : 5760,
            "target" : 34963
        },
        {
            "buffer" : 0,
            "byteLength" : 288,
            "byteOffset" : 5796,
            "target" : 34962
        },
        {
            "buffer" : 0,
            "byteLength" : 288,
            "byteOffset" : 6084,
            "target" : 34962
        },
        {
            "buffer" : 0,
            "byteLength" : 912,
            "byteOffset" : 6372,
            "target" : 34963
        },
        {
            "buffer" : 0,
            "byteLength" : 3312,
            "byteOffset" : 7284,
            "target" : 34962
        },
        {
            "buffer" : 0,
            "byteLength" : 3312,
            "byteOffset" : 10596,
            "target" : 34962
        },
        {
            "buffer" : 0,
            "byteLength" : 2070,
            "byteOffset" : 13908,
            "target" : 34963
        },
        {
            "buffer" : 0,
            "byteLength" : 6540,
            "byteOffset" : 15980,
            "target" : 34962
        },
        {
            "buffer" : 0,
            "byteLength" : 6540,
            "byteOffset" : 22520,
            "target" : 34962
        },
        {
            "buffer" : 0,
            "byteLength" : 192,
            "byteOffset" : 29060,
            "target" : 34963
        },
        {
            "buffer" : 0,
            "byteLength" : 1344,
            "byteOffset" : 29252,
            "target" : 34962
        },
        {
            "buffer" : 0,
            "byteLength" : 1344,
            "byteOffset" : 30596,
            "target" : 34962
        },
        {
            "buffer" : 0,
            "byteLength" : 4596,
            "byteOffset" : 31940,
            "target" : 34963
        },
        {
            "buffer" : 0,
            "byteLength" : 8184,
            "byteOffset" : 36536,
            "target" : 34962
        },
        {
            "buffer" : 0,
            "byteLength" : 8184,
            "byteOffset" : 44720,
            "target" : 34962
        },
        {
            "buffer" : 0,
            "byteLength" : 192,
            "byteOffset" : 52904,
            "target" : 34963
        },
        {
            "buffer" : 0,
            "byteLength" : 768,
            "byteOffset" : 53096,
            "target" : 34962
        },
        {
            "buffer" : 0,
            "byteLength" : 768,
            "byteOffset" : 53864,
            "target" : 34962
        },
        {
            "buffer" : 0,
            "byteLength" : 1296,
            "byteOffset" : 54632,
            "target" : 34963
        },
        {
            "buffer" : 0,
            "byteLength" : 2808,
            "byteOffset" : 55928,
            "target" : 34962
        },
        {
            "buffer" : 0,
            "byteLength" : 2808,
            "byteOffset" : 58736,
            "target" : 34962
        },
        {
            "buffer" : 0,
            "byteLength" : 2448,
            "byteOffset" : 61544,
            "target" : 34963
        },
        {
            "buffer" : 0,
            "byteLength" : 3624,
            "byteOffset" : 63992,
            "target" : 34962
        },
        {
            "buffer" : 0,
            "byteLength" : 3624,
            "byteOffset" : 67616,
            "target" : 34962
        },
        {
            "buffer" : 0,
            "byteLength" : 3768,
            "byteOffset" : 71240,
            "target" : 34963
        },
        {
            "buffer" : 0,
            "byteLength" : 5184,
            "byteOffset" : 75008,
            "target" : 34962
        },
        {
            "buffer" : 0,
            "byteLength" : 5184,
            "byteOffset" : 80192,
            "target" : 34962
        },
        {
            "buffer" : 0,
            "byteLength" : 156,
            "byteOffset" : 85376,
            "target" : 34963
        },
        {
            "buffer" : 0,
            "byteLength" : 1008,
            "byteOffset" : 85532,
            "target" : 34962
        },
        {
            "buffer" : 0,
            "byteLength" : 1008,
            "byteOffset" : 86540,
            "target" : 34962
        },
        {
            "buffer" : 0,
            "byteLength" : 6,
            "byteOffset" : 87548,
            "target" : 34963
        },
        {
            "buffer" : 0,
            "byteLength" : 48,
            "byteOffset" : 87556,
            "target" : 34962
        },
        {
            "buffer" : 0,
            "byteLength" : 48,
            "byteOffset" : 87604,
            "target" : 34962
        },
        {
            "buffer" : 0,
            "byteLength" : 912,
            "byteOffset" : 87652,
            "target" : 34963
        },
        {
            "buffer" : 0,
            "byteLength" : 3180,
            "byteOffset" : 88564,
            "target" : 34962
        },
        {
            "buffer" : 0,
            "byteLength" : 3180,
            "byteOffset" : 91744,
            "target" : 34962
        },
        {
            "buffer" : 0,
            "byteLength" : 453,
            "byteOffset" : 94924,
            "target" : 34963
        },
        {
            "buffer" : 0,
            "byteLength" : 2412,
            "byteOffset" : 95380,
            "target" : 34962
        },
        {
            "buffer" : 0,
            "byteLength" : 2412,
            "byteOffset" : 97792,
            "target" : 34962
        },
        {
            "buffer" : 0,
            "byteLength" : 84,
            "byteOffset" : 100204,
            "target" : 34963
        },
        {
            "buffer" : 0,
            "byteLength" : 552,
            "byteOffset" : 100288,
            "target" : 34962
        },
        {
            "buffer" : 0,
            "byteLength" : 552,
            "byteOffset" : 100840,
            "target" : 34962
        },
        {
            "buffer" : 0,
            "byteLength" : 60,
            "byteOffset" : 101392,
            "target" : 34963
        },
        {
            "buffer" : 0,
            "byteLength" : 264,
            "byteOffset" : 101452,
            "target" : 34962
        },
        {
            "buffer" : 0,
            "byteLength" : 264,
            "byteOffset" : 101716,
            "target" : 34962
        },
        {
            "buffer" : 0,
            "byteLength" : 352,
            "byteOffset" : 101980,
            "target" : 34962
        },
        {
            "buffer" : 0,
            "byteLength" : 176,
            "byteOffset" : 102332,
            "target" : 34962
        }
    ],
    "buffers" : [
        {
            "byteLength" : 102508,
            "uri" : "level3.bin"
        }
    ],
    "materials" : [
        {
            "emissiveFactor" : [
                1.0,
                1.0,
                1.0
            ],
            "name" : "Glow",
            "pbrMetallicRoughness" : {
                "metallicFactor" : 0.0
            }
        },
        {
            "name" : "nav",
            "pbrMetallicRoughness" : {
                "baseColorFactor" : [
                    0.25608554268010764,
                    0.640000066757203,
                    0.2740033190548914,
                    1.0
                ],
                "metallicFactor" : 0.0
            }
        },
        {
            "name" : "Rock",
            "pbrMetallicRoughness" : {
                "metallicFactor" : 0.0
            }
        },
        {
            "name" : "Window",
            "pbrMetallicRoughness" : {
                "metallicFactor" : 0.0,
                "roughnessFactor" : 0.6513761281967163
            }
        }
    ],
    "meshes" : [
        {
            "name" : "Cube.004",
            "primitives" : [
                {
                    "attributes" : {
                        "NORMAL" : 2,
                        "POSITION" : 1
                    },
                    "indices" : 0,
                    "material" : 1
                }
            ]
        },
        {
            "name" : "Cube.005",
            "primitives" : [
                {
                    "attributes" : {
                        "NORMAL" : 5,
                        "POSITION" : 4
                    },
                    "indices" : 3
                }
            ]
        },
        {
            "name" : "Cube.001",
            "primitives" : [
                {
                    "attributes" : {
                        "NORMAL" : 8,
                        "POSITION" : 7
                    },
                    "indices" : 6,
                    "material" : 3
                },
                {
                    "attributes" : {
                        "NORMAL" : 11,
                        "POSITION" : 10
                    },
                    "indices" : 9
                },
                {
                    "attributes" : {
                        "NORMAL" : 14,
                        "POSITION" : 13
                    },
                    "indices" : 12
                }
            ]
        },
        {
            "name" : "Cube.007",
            "primitives" : [
                {
                    "attributes" : {
                        "NORMAL" : 17,
                        "POSITION" : 16
                    },
                    "indices" : 15
                }
            ]
        },
        {
            "name" : "Cylinder",
            "primitives" : [
                {
                    "attributes" : {
                        "NORMAL" : 20,
                        "POSITION" : 19
                    },
                    "indices" : 18
                },
                {
                    "attributes" : {
                        "NORMAL" : 23,
                        "POSITION" : 22
                    },
                    "indices" : 21,
                    "material" : 0
                }
            ]
        },
        {
            "name" : "Circle",
            "primitives" : [
                {
                    "attributes" : {
                        "NORMAL" : 26,
                        "POSITION" : 25
                    },
                    "indices" : 24
                },
                {
                    "attributes" : {
                        "NORMAL" : 29,
                        "POSITION" : 28
                    },
                    "indices" : 27
                },
                {
                    "attributes" : {
                        "NORMAL" : 32,
                        "POSITION" : 31
                    },
                    "indices" : 30
                }
            ]
        },
        {
            "name" : "Cube",
            "primitives" : [
                {
                    "attributes" : {
                        "NORMAL" : 35,
                        "POSITION" : 34
                    },
                    "indices" : 33
                }
            ]
        },
        {
            "name" : "Cube.002",
            "primitives" : [
                {
                    "attributes" : {
                        "NORMAL" : 38,
                        "POSITION" : 37
                    },
                    "indices" : 36,
                    "material" : 3
                },
                {
                    "attributes" : {
                        "NORMAL" : 41,
                        "POSITION" : 40
                    },
                    "indices" : 39
                },
                {
                    "attributes" : {
                        "NORMAL" : 44,
                        "POSITION" : 43
                    },
                    "indices" : 42
                }
            ]
        },
        {
            "name" : "Plane",
            "primitives" : [
                {
                    "attributes" : {
                        "NORMAL" : 47,
                        "POSITION" : 46
                    },
                    "indices" : 45
                }
            ]
        },
        {
            "name" : "Plane.006",
            "primitives" : [
                {
                    "attributes" : {
                        "NORMAL" : 50,
                        "POSITION" : 49,
                        "TANGENT" : 51,
                        "TEXCOORD_0" : 52
                    },
                    "indices" : 48,
                    "material" : 2
                }
            ]
        }
    ],
    "nodes" : [
        {
            "mesh" : 7,
            "name" : "BaseEntrance-col",
            "rotation" : [
                0.0,
                -0.7071068286895752,
                -0.0,
                0.7071067690849304
            ]
        },
        {
            "mesh" : 2,
            "name" : "BaseMain-col",
            "rotation" : [
                0.0,
                -0.7071068286895752,
                -0.0,
                0.7071067690849304
            ]
        },
        {
            "mesh" : 0,
            "name" : "BaseMainNav-navmesh",
            "rotation" : [
                0.0,
                -0.7071068286895752,
                -0.0,
                0.7071067690849304
            ]
        },
        {
            "mesh" : 9,
            "name" : "CaveBG",
            "translation" : [
                1762.4149169921875,
                208.16738891601562,
                -20.64134979248047
            ]
        },
        {
            "mesh" : 8,
            "name" : "Cover-col",
            "rotation" : [
                0.0,
                -0.7071068286895752,
                -0.0,
                0.7071067690849304
            ]
        },
        {
            "mesh" : 1,
            "name" : "Crate.000-col",
            "rotation" : [
                0.0,
                -0.5364366173744202,
                -0.0,
                0.8439406156539917
            ],
            "translation" : [
                12.432730674743652,
                1.0,
                -18.592693328857422
            ]
        },
        {
            "mesh" : 1,
            "name" : "Crate.001-col",
            "rotation" : [
                0.0,
                -0.8633502125740051,
                -0.0,
                0.5046054124832153
            ],
            "translation" : [
                13.586101531982422,
                0.9999995231628418,
                -16.25342559814453
            ]
        },
        {
            "mesh" : 1,
            "name" : "Crate.002-col",
            "rotation" : [
                0.0,
                -0.466519832611084,
                -0.0,
                0.8845107555389404
            ],
            "translation" : [
                13.038676261901855,
                3.011467456817627,
                -17.2626895904541
            ]
        },
        {
            "mesh" : 3,
            "name" : "CrateExtraCol-colonly"
        },
        {
            "mesh" : 4,
            "name" : "Cylinder",
            "translation" : [
                101.98402404785156,
                -7.749114036560059,
                -91.20655822753906
            ]
        },
        {
            "mesh" : 4,
            "name" : "Cylinder.001",
            "scale" : [
                0.7717064023017883,
                1.0,
                0.7717064023017883
            ],
            "translation" : [
                -34.38902282714844,
                -20.213193893432617,
                -94.83177185058594
            ]
        },
        {
            "mesh" : 4,
            "name" : "Cylinder.002",
            "rotation" : [
                0.0,
                -0.9964986443519592,
                -0.0,
                0.08360899239778519
            ],
            "scale" : [
                1.0721086263656616,
                1.0,
                1.0721086263656616
            ],
            "translation" : [
                37.85688018798828,
                -20.21319580078125,
                -115.59038543701172
            ]
        },
        {
            "mesh" : 5,
            "name" : "Lamp",
            "rotation" : [
                0.0,
                -0.8756386041641235,
                -0.0,
                0.48296689987182617
            ]
        },
        {
            "name" : "Sun",
            "rotation" : [
                0.25701743364334106,
                -0.1453777253627777,
                0.11057617515325546,
                0.94898921251297
            ],
            "translation" : [
                0.05172300338745117,
                4.999999523162842,
                -22.00354766845703
            ]
        },
        {
            "mesh" : 6,
            "name" : "Table-col",
            "rotation" : [
                0.0,
                0.70710688829422,
                -0.0,
                0.7071066498756409
            ]
        }
    ],
    "scene" : 0,
    "scenes" : [
        {
            "name" : "Scene",
            "nodes" : [
                11,
                10,
                9,
                4,
                2,
                1,
                12,
                14,
                13,
                7,
                5,
                8,
                6,
                0,
                3
            ]
        }
    ]
}
