[gd_resource type="DynamicFont" load_steps=2 format=2]

[ext_resource path="res://fonts/Orkney Regular.ttf" type="DynamicFontData" id=1]

[resource]

size = 48
outline_size = 0
outline_color = Color( 1, 1, 1, 1 )
use_mipmaps = false
use_filter = false
font_data = ExtResource( 1 )
_sections_unfolded = [ "Font", "Settings" ]

