{
    "accessors" : [
        {
            "bufferView" : 0,
            "componentType" : 5123,
            "count" : 23808,
            "max" : [
                4097
            ],
            "min" : [
                0
            ],
            "type" : "SCALAR"
        },
        {
            "bufferView" : 1,
            "componentType" : 5126,
            "count" : 4098,
            "max" : [
                0.7096190452575684,
                0.7679823040962219,
                0.5858005285263062
            ],
            "min" : [
                -0.763590931892395,
                -0.37956029176712036,
                -0.5617420077323914
            ],
            "type" : "VEC3"
        },
        {
            "bufferView" : 2,
            "componentType" : 5126,
            "count" : 4098,
            "max" : [
                1.0,
                1.0,
                1.0
            ],
            "min" : [
                -1.0,
                -1.0,
                -1.0
            ],
            "type" : "VEC3"
        },
        {
            "bufferView" : 3,
            "componentType" : 5123,
            "count" : 19968,
            "max" : [
                3455
            ],
            "min" : [
                0
            ],
            "type" : "SCALAR"
        },
        {
            "bufferView" : 4,
            "componentType" : 5126,
            "count" : 3456,
            "max" : [
                0.7645694613456726,
                0.9310424327850342,
                0.7488608360290527
            ],
            "min" : [
                -0.7645694613456726,
                -0.5426205396652222,
                -0.7248022556304932
            ],
            "type" : "VEC3"
        },
        {
            "bufferView" : 5,
            "componentType" : 5126,
            "count" : 3456,
            "max" : [
                0.999908447265625,
                1.0,
                1.0
            ],
            "min" : [
                -0.999908447265625,
                -1.0,
                -1.0
            ],
            "type" : "VEC3"
        },
        {
            "bufferView" : 6,
            "componentType" : 5123,
            "count" : 24576,
            "max" : [
                4097
            ],
            "min" : [
                0
            ],
            "type" : "SCALAR"
        },
        {
            "bufferView" : 7,
            "componentType" : 5126,
            "count" : 4098,
            "max" : [
                1.3113012313842773,
                4.26231575012207,
                0.5549712181091309
            ],
            "min" : [
                -1.5342621803283691,
                -0.1534276157617569,
                -0.5651679039001465
            ],
            "type" : "VEC3"
        },
        {
            "bufferView" : 8,
            "componentType" : 5126,
            "count" : 4098,
            "max" : [
                0.999969482421875,
                1.0,
                1.0
            ],
            "min" : [
                -0.999969482421875,
                -1.0,
                -1.0
            ],
            "type" : "VEC3"
        },
        {
            "bufferView" : 9,
            "componentType" : 5123,
            "count" : 5952,
            "max" : [
                1025
            ],
            "min" : [
                0
            ],
            "type" : "SCALAR"
        },
        {
            "bufferView" : 10,
            "componentType" : 5126,
            "count" : 1026,
            "max" : [
                4.671525001525879,
                3.93046236038208,
                0.3411518335342407
            ],
            "min" : [
                1.0423312187194824,
                2.614865303039551,
                -0.35407769680023193
            ],
            "type" : "VEC3"
        },
        {
            "bufferView" : 11,
            "componentType" : 5126,
            "count" : 1026,
            "max" : [
                0.9986571669578552,
                0.9741203188896179,
                0.999969482421875
            ],
            "min" : [
                -0.9976500868797302,
                -0.99993896484375,
                -0.999969482421875
            ],
            "type" : "VEC3"
        },
        {
            "bufferView" : 12,
            "componentType" : 5123,
            "count" : 1536,
            "max" : [
                287
            ],
            "min" : [
                0
            ],
            "type" : "SCALAR"
        },
        {
            "bufferView" : 13,
            "componentType" : 5126,
            "count" : 288,
            "max" : [
                3.5599403381347656,
                3.6756796836853027,
                0.16775664687156677
            ],
            "min" : [
                1.7726242542266846,
                2.8921265602111816,
                -0.18067850172519684
            ],
            "type" : "VEC3"
        },
        {
            "bufferView" : 14,
            "componentType" : 5126,
            "count" : 288,
            "max" : [
                0.9973449110984802,
                0.965330958366394,
                0.999847412109375
            ],
            "min" : [
                -0.2605060040950775,
                -0.9798272848129272,
                -0.999847412109375
            ],
            "type" : "VEC3"
        },
        {
            "bufferView" : 15,
            "componentType" : 5123,
            "count" : 33600,
            "max" : [
                5612
            ],
            "min" : [
                0
            ],
            "type" : "SCALAR"
        },
        {
            "bufferView" : 16,
            "componentType" : 5126,
            "count" : 5613,
            "max" : [
                1.0044358968734741,
                6.290528297424316,
                0.8754697442054749
            ],
            "min" : [
                -1.1885472536087036,
                3.547801971435547,
                -0.9874079823493958
            ],
            "type" : "VEC3"
        },
        {
            "bufferView" : 17,
            "componentType" : 5126,
            "count" : 5613,
            "max" : [
                0.99993896484375,
                0.999053955078125,
                1.0
            ],
            "min" : [
                -0.99993896484375,
                -1.0,
                -1.0
            ],
            "type" : "VEC3"
        },
        {
            "bufferView" : 18,
            "componentType" : 5121,
            "count" : 1296,
            "max" : [
                228
            ],
            "min" : [
                0
            ],
            "type" : "SCALAR"
        },
        {
            "bufferView" : 19,
            "componentType" : 5126,
            "count" : 229,
            "max" : [
                -0.8735816478729248,
                5.928866863250732,
                0.45973509550094604
            ],
            "min" : [
                -1.0838466882705688,
                5.717403411865234,
                0.40940266847610474
            ],
            "type" : "VEC3"
        },
        {
            "bufferView" : 20,
            "componentType" : 5126,
            "count" : 229,
            "max" : [
                0.8411206603050232,
                0.8414563536643982,
                0.999969482421875
            ],
            "min" : [
                -0.842921257019043,
                -0.8399914503097534,
                0.5291604399681091
            ],
            "type" : "VEC3"
        }
    ],
    "asset" : {
        "generator" : "Khronos Blender glTF 2.0 exporter",
        "version" : "2.0"
    },
    "bufferViews" : [
        {
            "buffer" : 0,
            "byteLength" : 47616,
            "byteOffset" : 0,
            "target" : 34963
        },
        {
            "buffer" : 0,
            "byteLength" : 49176,
            "byteOffset" : 47616,
            "target" : 34962
        },
        {
            "buffer" : 0,
            "byteLength" : 49176,
            "byteOffset" : 96792,
            "target" : 34962
        },
        {
            "buffer" : 0,
            "byteLength" : 39936,
            "byteOffset" : 145968,
            "target" : 34963
        },
        {
            "buffer" : 0,
            "byteLength" : 41472,
            "byteOffset" : 185904,
            "target" : 34962
        },
        {
            "buffer" : 0,
            "byteLength" : 41472,
            "byteOffset" : 227376,
            "target" : 34962
        },
        {
            "buffer" : 0,
            "byteLength" : 49152,
            "byteOffset" : 268848,
            "target" : 34963
        },
        {
            "buffer" : 0,
            "byteLength" : 49176,
            "byteOffset" : 318000,
            "target" : 34962
        },
        {
            "buffer" : 0,
            "byteLength" : 49176,
            "byteOffset" : 367176,
            "target" : 34962
        },
        {
            "buffer" : 0,
            "byteLength" : 11904,
            "byteOffset" : 416352,
            "target" : 34963
        },
        {
            "buffer" : 0,
            "byteLength" : 12312,
            "byteOffset" : 428256,
            "target" : 34962
        },
        {
            "buffer" : 0,
            "byteLength" : 12312,
            "byteOffset" : 440568,
            "target" : 34962
        },
        {
            "buffer" : 0,
            "byteLength" : 3072,
            "byteOffset" : 452880,
            "target" : 34963
        },
        {
            "buffer" : 0,
            "byteLength" : 3456,
            "byteOffset" : 455952,
            "target" : 34962
        },
        {
            "buffer" : 0,
            "byteLength" : 3456,
            "byteOffset" : 459408,
            "target" : 34962
        },
        {
            "buffer" : 0,
            "byteLength" : 67200,
            "byteOffset" : 462864,
            "target" : 34963
        },
        {
            "buffer" : 0,
            "byteLength" : 67356,
            "byteOffset" : 530064,
            "target" : 34962
        },
        {
            "buffer" : 0,
            "byteLength" : 67356,
            "byteOffset" : 597420,
            "target" : 34962
        },
        {
            "buffer" : 0,
            "byteLength" : 1296,
            "byteOffset" : 664776,
            "target" : 34963
        },
        {
            "buffer" : 0,
            "byteLength" : 2748,
            "byteOffset" : 666072,
            "target" : 34962
        },
        {
            "buffer" : 0,
            "byteLength" : 2748,
            "byteOffset" : 668820,
            "target" : 34962
        }
    ],
    "buffers" : [
        {
            "byteLength" : 671568,
            "uri" : "robot.bin"
        }
    ],
    "materials" : [
        {
            "emissiveFactor" : [
                1.0,
                1.0,
                1.0
            ],
            "name" : "BulbMat",
            "pbrMetallicRoughness" : {}
        },
        {
            "name" : "GreyMetal",
            "pbrMetallicRoughness" : {
                "roughnessFactor" : 0.6851851940155029
            }
        },
        {
            "name" : "PlasticTube",
            "pbrMetallicRoughness" : {
                "metallicFactor" : 0.0,
                "roughnessFactor" : 0.3333333432674408
            }
        },
        {
            "name" : "Rubber",
            "pbrMetallicRoughness" : {
                "metallicFactor" : 0.0,
                "roughnessFactor" : 0.9259259104728699
            }
        }
    ],
    "meshes" : [
        {
            "name" : "Wheels",
            "primitives" : [
                {
                    "attributes" : {
                        "NORMAL" : 2,
                        "POSITION" : 1
                    },
                    "indices" : 0,
                    "material" : 1
                },
                {
                    "attributes" : {
                        "NORMAL" : 5,
                        "POSITION" : 4
                    },
                    "indices" : 3,
                    "material" : 3
                }
            ]
        },
        {
            "name" : "Body",
            "primitives" : [
                {
                    "attributes" : {
                        "NORMAL" : 8,
                        "POSITION" : 7
                    },
                    "indices" : 6,
                    "material" : 1
                }
            ]
        },
        {
            "name" : "Arm",
            "primitives" : [
                {
                    "attributes" : {
                        "NORMAL" : 11,
                        "POSITION" : 10
                    },
                    "indices" : 9,
                    "material" : 1
                },
                {
                    "attributes" : {
                        "NORMAL" : 14,
                        "POSITION" : 13
                    },
                    "indices" : 12,
                    "material" : 2
                }
            ]
        },
        {
            "name" : "Head",
            "primitives" : [
                {
                    "attributes" : {
                        "NORMAL" : 17,
                        "POSITION" : 16
                    },
                    "indices" : 15,
                    "material" : 1
                },
                {
                    "attributes" : {
                        "NORMAL" : 20,
                        "POSITION" : 19
                    },
                    "indices" : 18,
                    "material" : 0
                }
            ]
        }
    ],
    "nodes" : [
        {
            "mesh" : 1,
            "name" : "Body",
            "translation" : [
                0.0,
                0.5426236987113953,
                -0.0
            ]
        },
        {
            "mesh" : 3,
            "name" : "Head",
            "translation" : [
                0.0,
                0.5426236987113953,
                -0.0
            ]
        },
        {
            "mesh" : 2,
            "name" : "LeftArm",
            "translation" : [
                0.0,
                0.5426236987113953,
                -0.0
            ]
        },
        {
            "mesh" : 2,
            "name" : "RightArm",
            "rotation" : [
                1.0,
                -0.0,
                0.0,
                0.0
            ],
            "scale" : [
                -1.0,
                -1.0,
                -1.0
            ],
            "translation" : [
                0.0,
                0.5426236987113953,
                -0.0
            ]
        },
        {
            "name" : "Sun",
            "rotation" : [
                0.3686145842075348,
                -0.33233925700187683,
                0.1430675983428955,
                0.8562743663787842
            ],
            "scale" : [
                1.0,
                0.9999999403953552,
                0.9999999403953552
            ],
            "translation" : [
                0.0,
                0.5426236987113953,
                -0.0
            ]
        },
        {
            "mesh" : 0,
            "name" : "Wheels",
            "translation" : [
                0.0,
                0.5426236987113953,
                -0.0
            ]
        }
    ],
    "scene" : 0,
    "scenes" : [
        {
            "name" : "Scene",
            "nodes" : [
                4,
                2,
                5,
                0,
                1,
                3
            ]
        }
    ]
}
